<?xml version="1.0" encoding="utf-8"?>
<svg xmlns="http://www.w3.org/2000/svg" xmlns:xlink="http://www.w3.org/1999/xlink" width="600" height="400" viewBox="0 0 2400 1600">
<defs>
  <clipPath id="clip160">
    <rect x="0" y="0" width="2400" height="1600"/>
  </clipPath>
</defs>
<path clip-path="url(#clip160)" d="
M0 1600 L2400 1600 L2400 0 L0 0  Z
  " fill="#ffffff" fill-rule="evenodd" fill-opacity="1"/>
<defs>
  <clipPath id="clip161">
    <rect x="480" y="0" width="1681" height="1600"/>
  </clipPath>
</defs>
<path clip-path="url(#clip160)" d="
M112.177 1486.45 L2352.76 1486.45 L2352.76 47.2441 L112.177 47.2441  Z
  " fill="#ffffff" fill-rule="evenodd" fill-opacity="1"/>
<defs>
  <clipPath id="clip162">
    <rect x="112" y="47" width="2242" height="1440"/>
  </clipPath>
</defs>
<polyline clip-path="url(#clip162)" style="stroke:#000000; stroke-width:2; stroke-opacity:0.1; fill:none" points="
  175.59,1486.45 175.59,47.2441 
  "/>
<polyline clip-path="url(#clip162)" style="stroke:#000000; stroke-width:2; stroke-opacity:0.1; fill:none" points="
  880.174,1486.45 880.174,47.2441 
  "/>
<polyline clip-path="url(#clip162)" style="stroke:#000000; stroke-width:2; stroke-opacity:0.1; fill:none" points="
  1584.76,1486.45 1584.76,47.2441 
  "/>
<polyline clip-path="url(#clip162)" style="stroke:#000000; stroke-width:2; stroke-opacity:0.1; fill:none" points="
  2289.34,1486.45 2289.34,47.2441 
  "/>
<polyline clip-path="url(#clip160)" style="stroke:#000000; stroke-width:4; stroke-opacity:1; fill:none" points="
  112.177,1486.45 2352.76,1486.45 
  "/>
<polyline clip-path="url(#clip160)" style="stroke:#000000; stroke-width:4; stroke-opacity:1; fill:none" points="
  175.59,1486.45 175.59,1469.18 
  "/>
<polyline clip-path="url(#clip160)" style="stroke:#000000; stroke-width:4; stroke-opacity:1; fill:none" points="
  880.174,1486.45 880.174,1469.18 
  "/>
<polyline clip-path="url(#clip160)" style="stroke:#000000; stroke-width:4; stroke-opacity:1; fill:none" points="
  1584.76,1486.45 1584.76,1469.18 
  "/>
<polyline clip-path="url(#clip160)" style="stroke:#000000; stroke-width:4; stroke-opacity:1; fill:none" points="
  2289.34,1486.45 2289.34,1469.18 
  "/>
<path clip-path="url(#clip160)" d="M 0 0 M165.972 1543.18 L173.611 1543.18 L173.611 1516.82 L165.3 1518.49 L165.3 1514.23 L173.564 1512.56 L178.24 1512.56 L178.24 1543.18 L185.879 1543.18 L185.879 1547.12 L165.972 1547.12 L165.972 1543.18 Z" fill="#000000" fill-rule="evenodd" fill-opacity="1" /><path clip-path="url(#clip160)" d="M 0 0 M874.827 1543.18 L891.146 1543.18 L891.146 1547.12 L869.202 1547.12 L869.202 1543.18 Q871.864 1540.43 876.447 1535.8 Q881.054 1531.15 882.234 1529.81 Q884.48 1527.28 885.359 1525.55 Q886.262 1523.79 886.262 1522.1 Q886.262 1519.34 884.318 1517.61 Q882.396 1515.87 879.295 1515.87 Q877.096 1515.87 874.642 1516.63 Q872.211 1517.4 869.434 1518.95 L869.434 1514.23 Q872.258 1513.09 874.711 1512.51 Q877.165 1511.93 879.202 1511.93 Q884.572 1511.93 887.767 1514.62 Q890.961 1517.31 890.961 1521.8 Q890.961 1523.93 890.151 1525.85 Q889.364 1527.74 887.258 1530.34 Q886.679 1531.01 883.577 1534.23 Q880.475 1537.42 874.827 1543.18 Z" fill="#000000" fill-rule="evenodd" fill-opacity="1" /><path clip-path="url(#clip160)" d="M 0 0 M1589.01 1528.49 Q1592.36 1529.2 1594.24 1531.47 Q1596.14 1533.74 1596.14 1537.07 Q1596.14 1542.19 1592.62 1544.99 Q1589.1 1547.79 1582.62 1547.79 Q1580.44 1547.79 1578.13 1547.35 Q1575.84 1546.93 1573.38 1546.08 L1573.38 1541.56 Q1575.33 1542.7 1577.64 1543.28 Q1579.96 1543.86 1582.48 1543.86 Q1586.88 1543.86 1589.17 1542.12 Q1591.48 1540.38 1591.48 1537.07 Q1591.48 1534.02 1589.33 1532.31 Q1587.2 1530.57 1583.38 1530.57 L1579.35 1530.57 L1579.35 1526.73 L1583.57 1526.73 Q1587.02 1526.73 1588.84 1525.36 Q1590.67 1523.97 1590.67 1521.38 Q1590.67 1518.72 1588.77 1517.31 Q1586.9 1515.87 1583.38 1515.87 Q1581.46 1515.87 1579.26 1516.29 Q1577.06 1516.7 1574.42 1517.58 L1574.42 1513.42 Q1577.09 1512.68 1579.4 1512.31 Q1581.74 1511.93 1583.8 1511.93 Q1589.12 1511.93 1592.22 1514.37 Q1595.33 1516.77 1595.33 1520.89 Q1595.33 1523.76 1593.68 1525.75 Q1592.04 1527.72 1589.01 1528.49 Z" fill="#000000" fill-rule="evenodd" fill-opacity="1" /><path clip-path="url(#clip160)" d="M 0 0 M2292.35 1516.63 L2280.55 1535.08 L2292.35 1535.08 L2292.35 1516.63 M2291.13 1512.56 L2297.01 1512.56 L2297.01 1535.08 L2301.94 1535.08 L2301.94 1538.97 L2297.01 1538.97 L2297.01 1547.12 L2292.35 1547.12 L2292.35 1538.97 L2276.75 1538.97 L2276.75 1534.46 L2291.13 1512.56 Z" fill="#000000" fill-rule="evenodd" fill-opacity="1" /><polyline clip-path="url(#clip162)" style="stroke:#000000; stroke-width:2; stroke-opacity:0.1; fill:none" points="
  112.177,1445.72 2352.76,1445.72 
  "/>
<polyline clip-path="url(#clip162)" style="stroke:#000000; stroke-width:2; stroke-opacity:0.1; fill:none" points="
  112.177,993.136 2352.76,993.136 
  "/>
<polyline clip-path="url(#clip162)" style="stroke:#000000; stroke-width:2; stroke-opacity:0.1; fill:none" points="
  112.177,540.556 2352.76,540.556 
  "/>
<polyline clip-path="url(#clip162)" style="stroke:#000000; stroke-width:2; stroke-opacity:0.1; fill:none" points="
  112.177,87.9763 2352.76,87.9763 
  "/>
<polyline clip-path="url(#clip160)" style="stroke:#000000; stroke-width:4; stroke-opacity:1; fill:none" points="
  112.177,1486.45 112.177,47.2441 
  "/>
<polyline clip-path="url(#clip160)" style="stroke:#000000; stroke-width:4; stroke-opacity:1; fill:none" points="
  112.177,1445.72 139.064,1445.72 
  "/>
<polyline clip-path="url(#clip160)" style="stroke:#000000; stroke-width:4; stroke-opacity:1; fill:none" points="
  112.177,993.136 139.064,993.136 
  "/>
<polyline clip-path="url(#clip160)" style="stroke:#000000; stroke-width:4; stroke-opacity:1; fill:none" points="
  112.177,540.556 139.064,540.556 
  "/>
<polyline clip-path="url(#clip160)" style="stroke:#000000; stroke-width:4; stroke-opacity:1; fill:none" points="
  112.177,87.9763 139.064,87.9763 
  "/>
<path clip-path="url(#clip160)" d="M 0 0 M56.2699 1459.06 L63.9087 1459.06 L63.9087 1432.69 L55.5986 1434.36 L55.5986 1430.1 L63.8624 1428.44 L68.5383 1428.44 L68.5383 1459.06 L76.1772 1459.06 L76.1772 1463 L56.2699 1463 L56.2699 1459.06 Z" fill="#000000" fill-rule="evenodd" fill-opacity="1" /><path clip-path="url(#clip160)" d="M 0 0 M59.8578 1006.48 L76.1772 1006.48 L76.1772 1010.42 L54.2328 1010.42 L54.2328 1006.48 Q56.8949 1003.73 61.4782 999.097 Q66.0846 994.444 67.2652 993.101 Q69.5105 990.578 70.3902 988.842 Q71.2929 987.083 71.2929 985.393 Q71.2929 982.638 69.3485 980.902 Q67.4272 979.166 64.3254 979.166 Q62.1263 979.166 59.6726 979.93 Q57.2421 980.694 54.4643 982.245 L54.4643 977.523 Q57.2884 976.388 59.7421 975.81 Q62.1958 975.231 64.2328 975.231 Q69.6031 975.231 72.7976 977.916 Q75.992 980.601 75.992 985.092 Q75.992 987.222 75.1818 989.143 Q74.3948 991.041 72.2883 993.634 Q71.7096 994.305 68.6078 997.522 Q65.5059 1000.72 59.8578 1006.48 Z" fill="#000000" fill-rule="evenodd" fill-opacity="1" /><path clip-path="url(#clip160)" d="M 0 0 M69.0476 539.202 Q72.404 539.92 74.279 542.188 Q76.1772 544.457 76.1772 547.79 Q76.1772 552.906 72.6587 555.706 Q69.1402 558.507 62.6587 558.507 Q60.4828 558.507 58.168 558.068 Q55.8764 557.651 53.4227 556.794 L53.4227 552.281 Q55.3671 553.415 57.6819 553.994 Q59.9967 554.572 62.5198 554.572 Q66.918 554.572 69.2096 552.836 Q71.5244 551.1 71.5244 547.79 Q71.5244 544.734 69.3717 543.021 Q67.242 541.285 63.4226 541.285 L59.3949 541.285 L59.3949 537.443 L63.6078 537.443 Q67.0569 537.443 68.8855 536.077 Q70.7142 534.688 70.7142 532.095 Q70.7142 529.433 68.8161 528.021 Q66.9411 526.586 63.4226 526.586 Q61.5013 526.586 59.3023 527.003 Q57.1032 527.42 54.4643 528.299 L54.4643 524.133 Q57.1264 523.392 59.4412 523.021 Q61.7791 522.651 63.8393 522.651 Q69.1633 522.651 72.2652 525.082 Q75.367 527.489 75.367 531.609 Q75.367 534.48 73.7235 536.47 Q72.08 538.438 69.0476 539.202 Z" fill="#000000" fill-rule="evenodd" fill-opacity="1" /><path clip-path="url(#clip160)" d="M 0 0 M66.5939 74.7703 L54.7884 93.2193 L66.5939 93.2193 L66.5939 74.7703 M65.367 70.6963 L71.2466 70.6963 L71.2466 93.2193 L76.1772 93.2193 L76.1772 97.1082 L71.2466 97.1082 L71.2466 105.256 L66.5939 105.256 L66.5939 97.1082 L50.9921 97.1082 L50.9921 92.5943 L65.367 70.6963 Z" fill="#000000" fill-rule="evenodd" fill-opacity="1" /><circle clip-path="url(#clip162)" cx="175.59" cy="1445.72" r="14" fill="#ff0000" fill-rule="evenodd" fill-opacity="1" stroke="#000000" stroke-opacity="1" stroke-width="3.2"/>
<circle clip-path="url(#clip162)" cx="880.174" cy="993.136" r="14" fill="#ff0000" fill-rule="evenodd" fill-opacity="1" stroke="#000000" stroke-opacity="1" stroke-width="3.2"/>
<circle clip-path="url(#clip162)" cx="1584.76" cy="540.556" r="14" fill="#ff0000" fill-rule="evenodd" fill-opacity="1" stroke="#000000" stroke-opacity="1" stroke-width="3.2"/>
<circle clip-path="url(#clip162)" cx="2289.34" cy="87.9763" r="14" fill="#ff0000" fill-rule="evenodd" fill-opacity="1" stroke="#000000" stroke-opacity="1" stroke-width="3.2"/>
<path clip-path="url(#clip160)" d="
M1978.1 216.178 L2278.07 216.178 L2278.07 95.2176 L1978.1 95.2176  Z
  " fill="#ffffff" fill-rule="evenodd" fill-opacity="1"/>
<polyline clip-path="url(#clip160)" style="stroke:#000000; stroke-width:4; stroke-opacity:1; fill:none" points="
  1978.1,216.178 2278.07,216.178 2278.07,95.2176 1978.1,95.2176 1978.1,216.178 
  "/>
<circle clip-path="url(#clip160)" cx="2077.68" cy="155.698" r="23" fill="#ff0000" fill-rule="evenodd" fill-opacity="1" stroke="#000000" stroke-opacity="1" stroke-width="5.12"/>
<path clip-path="url(#clip160)" d="M 0 0 M2191.1 175.385 Q2189.3 180.015 2187.59 181.427 Q2185.87 182.839 2183 182.839 L2179.6 182.839 L2179.6 179.274 L2182.1 179.274 Q2183.86 179.274 2184.83 178.44 Q2185.8 177.607 2186.98 174.505 L2187.75 172.561 L2177.26 147.052 L2181.77 147.052 L2189.88 167.329 L2197.98 147.052 L2202.49 147.052 L2191.1 175.385 Z" fill="#000000" fill-rule="evenodd" fill-opacity="1" /><path clip-path="url(#clip160)" d="M 0 0 M2208.37 169.042 L2216.01 169.042 L2216.01 142.677 L2207.7 144.343 L2207.7 140.084 L2215.96 138.418 L2220.64 138.418 L2220.64 169.042 L2228.28 169.042 L2228.28 172.978 L2208.37 172.978 L2208.37 169.042 Z" fill="#000000" fill-rule="evenodd" fill-opacity="1" /></svg>
