<?xml version="1.0" encoding="utf-8"?>
<svg xmlns="http://www.w3.org/2000/svg" xmlns:xlink="http://www.w3.org/1999/xlink" width="600" height="400" viewBox="0 0 2400 1600">
<defs>
  <clipPath id="clip240">
    <rect x="0" y="0" width="2400" height="1600"/>
  </clipPath>
</defs>
<path clip-path="url(#clip240)" d="
M0 1600 L2400 1600 L2400 0 L0 0  Z
  " fill="#ffffff" fill-rule="evenodd" fill-opacity="1"/>
<defs>
  <clipPath id="clip241">
    <rect x="480" y="0" width="1681" height="1600"/>
  </clipPath>
</defs>
<path clip-path="url(#clip240)" d="
M178.056 1486.45 L2352.76 1486.45 L2352.76 47.2441 L178.056 47.2441  Z
  " fill="#ffffff" fill-rule="evenodd" fill-opacity="1"/>
<defs>
  <clipPath id="clip242">
    <rect x="178" y="47" width="2176" height="1440"/>
  </clipPath>
</defs>
<polyline clip-path="url(#clip242)" style="stroke:#000000; stroke-width:2; stroke-opacity:0.1; fill:none" points="
  532.691,1486.45 532.691,47.2441 
  "/>
<polyline clip-path="url(#clip242)" style="stroke:#000000; stroke-width:2; stroke-opacity:0.1; fill:none" points="
  1118.86,1486.45 1118.86,47.2441 
  "/>
<polyline clip-path="url(#clip242)" style="stroke:#000000; stroke-width:2; stroke-opacity:0.1; fill:none" points="
  1705.04,1486.45 1705.04,47.2441 
  "/>
<polyline clip-path="url(#clip242)" style="stroke:#000000; stroke-width:2; stroke-opacity:0.1; fill:none" points="
  2291.21,1486.45 2291.21,47.2441 
  "/>
<polyline clip-path="url(#clip240)" style="stroke:#000000; stroke-width:4; stroke-opacity:1; fill:none" points="
  178.056,1486.45 2352.76,1486.45 
  "/>
<polyline clip-path="url(#clip240)" style="stroke:#000000; stroke-width:4; stroke-opacity:1; fill:none" points="
  532.691,1486.45 532.691,1469.18 
  "/>
<polyline clip-path="url(#clip240)" style="stroke:#000000; stroke-width:4; stroke-opacity:1; fill:none" points="
  1118.86,1486.45 1118.86,1469.18 
  "/>
<polyline clip-path="url(#clip240)" style="stroke:#000000; stroke-width:4; stroke-opacity:1; fill:none" points="
  1705.04,1486.45 1705.04,1469.18 
  "/>
<polyline clip-path="url(#clip240)" style="stroke:#000000; stroke-width:4; stroke-opacity:1; fill:none" points="
  2291.21,1486.45 2291.21,1469.18 
  "/>
<path clip-path="url(#clip240)" d="M 0 0 M527.344 1543.18 L543.663 1543.18 L543.663 1547.12 L521.719 1547.12 L521.719 1543.18 Q524.381 1540.43 528.964 1535.8 Q533.57 1531.15 534.751 1529.81 Q536.996 1527.28 537.876 1525.55 Q538.779 1523.79 538.779 1522.1 Q538.779 1519.34 536.834 1517.61 Q534.913 1515.87 531.811 1515.87 Q529.612 1515.87 527.158 1516.63 Q524.728 1517.4 521.95 1518.95 L521.95 1514.23 Q524.774 1513.09 527.228 1512.51 Q529.681 1511.93 531.719 1511.93 Q537.089 1511.93 540.283 1514.62 Q543.478 1517.31 543.478 1521.8 Q543.478 1523.93 542.668 1525.85 Q541.88 1527.74 539.774 1530.34 Q539.195 1531.01 536.093 1534.23 Q532.992 1537.42 527.344 1543.18 Z" fill="#000000" fill-rule="evenodd" fill-opacity="1" /><path clip-path="url(#clip240)" d="M 0 0 M1121.87 1516.63 L1110.07 1535.08 L1121.87 1535.08 L1121.87 1516.63 M1120.65 1512.56 L1126.53 1512.56 L1126.53 1535.08 L1131.46 1535.08 L1131.46 1538.97 L1126.53 1538.97 L1126.53 1547.12 L1121.87 1547.12 L1121.87 1538.97 L1106.27 1538.97 L1106.27 1534.46 L1120.65 1512.56 Z" fill="#000000" fill-rule="evenodd" fill-opacity="1" /><path clip-path="url(#clip240)" d="M 0 0 M1705.44 1527.98 Q1702.29 1527.98 1700.44 1530.13 Q1698.61 1532.28 1698.61 1536.03 Q1698.61 1539.76 1700.44 1541.93 Q1702.29 1544.09 1705.44 1544.09 Q1708.59 1544.09 1710.42 1541.93 Q1712.27 1539.76 1712.27 1536.03 Q1712.27 1532.28 1710.42 1530.13 Q1708.59 1527.98 1705.44 1527.98 M1714.72 1513.32 L1714.72 1517.58 Q1712.96 1516.75 1711.16 1516.31 Q1709.38 1515.87 1707.62 1515.87 Q1702.99 1515.87 1700.53 1519 Q1698.1 1522.12 1697.76 1528.44 Q1699.12 1526.43 1701.18 1525.36 Q1703.24 1524.27 1705.72 1524.27 Q1710.93 1524.27 1713.94 1527.44 Q1716.97 1530.59 1716.97 1536.03 Q1716.97 1541.36 1713.82 1544.57 Q1710.67 1547.79 1705.44 1547.79 Q1699.45 1547.79 1696.27 1543.21 Q1693.1 1538.6 1693.1 1529.87 Q1693.1 1521.68 1696.99 1516.82 Q1700.88 1511.93 1707.43 1511.93 Q1709.19 1511.93 1710.97 1512.28 Q1712.78 1512.63 1714.72 1513.32 Z" fill="#000000" fill-rule="evenodd" fill-opacity="1" /><path clip-path="url(#clip240)" d="M 0 0 M2291.21 1530.71 Q2287.87 1530.71 2285.95 1532.49 Q2284.06 1534.27 2284.06 1537.4 Q2284.06 1540.52 2285.95 1542.31 Q2287.87 1544.09 2291.21 1544.09 Q2294.54 1544.09 2296.46 1542.31 Q2298.38 1540.5 2298.38 1537.4 Q2298.38 1534.27 2296.46 1532.49 Q2294.56 1530.71 2291.21 1530.71 M2286.53 1528.72 Q2283.52 1527.98 2281.83 1525.92 Q2280.17 1523.86 2280.17 1520.89 Q2280.17 1516.75 2283.11 1514.34 Q2286.07 1511.93 2291.21 1511.93 Q2296.37 1511.93 2299.31 1514.34 Q2302.25 1516.75 2302.25 1520.89 Q2302.25 1523.86 2300.56 1525.92 Q2298.89 1527.98 2295.91 1528.72 Q2299.29 1529.5 2301.16 1531.8 Q2303.06 1534.09 2303.06 1537.4 Q2303.06 1542.42 2299.98 1545.11 Q2296.93 1547.79 2291.21 1547.79 Q2285.49 1547.79 2282.41 1545.11 Q2279.36 1542.42 2279.36 1537.4 Q2279.36 1534.09 2281.25 1531.8 Q2283.15 1529.5 2286.53 1528.72 M2284.82 1521.33 Q2284.82 1524.02 2286.49 1525.52 Q2288.18 1527.03 2291.21 1527.03 Q2294.22 1527.03 2295.91 1525.52 Q2297.62 1524.02 2297.62 1521.33 Q2297.62 1518.65 2295.91 1517.14 Q2294.22 1515.64 2291.21 1515.64 Q2288.18 1515.64 2286.49 1517.14 Q2284.82 1518.65 2284.82 1521.33 Z" fill="#000000" fill-rule="evenodd" fill-opacity="1" /><polyline clip-path="url(#clip242)" style="stroke:#000000; stroke-width:2; stroke-opacity:0.1; fill:none" points="
  178.056,1242.05 2352.76,1242.05 
  "/>
<polyline clip-path="url(#clip242)" style="stroke:#000000; stroke-width:2; stroke-opacity:0.1; fill:none" points="
  178.056,902.62 2352.76,902.62 
  "/>
<polyline clip-path="url(#clip242)" style="stroke:#000000; stroke-width:2; stroke-opacity:0.1; fill:none" points="
  178.056,563.185 2352.76,563.185 
  "/>
<polyline clip-path="url(#clip242)" style="stroke:#000000; stroke-width:2; stroke-opacity:0.1; fill:none" points="
  178.056,223.75 2352.76,223.75 
  "/>
<polyline clip-path="url(#clip240)" style="stroke:#000000; stroke-width:4; stroke-opacity:1; fill:none" points="
  178.056,1486.45 178.056,47.2441 
  "/>
<polyline clip-path="url(#clip240)" style="stroke:#000000; stroke-width:4; stroke-opacity:1; fill:none" points="
  178.056,1242.05 204.153,1242.05 
  "/>
<polyline clip-path="url(#clip240)" style="stroke:#000000; stroke-width:4; stroke-opacity:1; fill:none" points="
  178.056,902.62 204.153,902.62 
  "/>
<polyline clip-path="url(#clip240)" style="stroke:#000000; stroke-width:4; stroke-opacity:1; fill:none" points="
  178.056,563.185 204.153,563.185 
  "/>
<polyline clip-path="url(#clip240)" style="stroke:#000000; stroke-width:4; stroke-opacity:1; fill:none" points="
  178.056,223.75 204.153,223.75 
  "/>
<path clip-path="url(#clip240)" d="M 0 0 M50.9921 1242.51 L80.6679 1242.51 L80.6679 1246.44 L50.9921 1246.44 L50.9921 1242.51 Z" fill="#000000" fill-rule="evenodd" fill-opacity="1" /><path clip-path="url(#clip240)" d="M 0 0 M89.7651 1255.4 L106.084 1255.4 L106.084 1259.33 L84.1401 1259.33 L84.1401 1255.4 Q86.8021 1252.65 91.3854 1248.02 Q95.9919 1243.36 97.1724 1242.02 Q99.4178 1239.5 100.297 1237.76 Q101.2 1236 101.2 1234.31 Q101.2 1231.56 99.2558 1229.82 Q97.3345 1228.08 94.2326 1228.08 Q92.0336 1228.08 89.5799 1228.85 Q87.1493 1229.61 84.3716 1231.16 L84.3716 1226.44 Q87.1956 1225.31 89.6493 1224.73 Q92.103 1224.15 94.14 1224.15 Q99.5104 1224.15 102.705 1226.83 Q105.899 1229.52 105.899 1234.01 Q105.899 1236.14 105.089 1238.06 Q104.302 1239.96 102.196 1242.55 Q101.617 1243.22 98.515 1246.44 Q95.4132 1249.64 89.7651 1255.4 Z" fill="#000000" fill-rule="evenodd" fill-opacity="1" /><path clip-path="url(#clip240)" d="M 0 0 M111.154 1253.46 L116.038 1253.46 L116.038 1259.33 L111.154 1259.33 L111.154 1253.46 Z" fill="#000000" fill-rule="evenodd" fill-opacity="1" /><path clip-path="url(#clip240)" d="M 0 0 M121.154 1224.77 L139.51 1224.77 L139.51 1228.71 L125.436 1228.71 L125.436 1237.18 Q126.455 1236.83 127.473 1236.67 Q128.492 1236.49 129.51 1236.49 Q135.297 1236.49 138.677 1239.66 Q142.056 1242.83 142.056 1248.25 Q142.056 1253.83 138.584 1256.93 Q135.112 1260.01 128.793 1260.01 Q126.617 1260.01 124.348 1259.64 Q122.103 1259.27 119.695 1258.52 L119.695 1253.83 Q121.779 1254.96 124.001 1255.52 Q126.223 1256.07 128.7 1256.07 Q132.705 1256.07 135.043 1253.96 Q137.381 1251.86 137.381 1248.25 Q137.381 1244.64 135.043 1242.53 Q132.705 1240.42 128.7 1240.42 Q126.825 1240.42 124.95 1240.84 Q123.098 1241.26 121.154 1242.14 L121.154 1224.77 Z" fill="#000000" fill-rule="evenodd" fill-opacity="1" /><path clip-path="url(#clip240)" d="M 0 0 M93.1447 888.419 Q89.5336 888.419 87.7049 891.983 Q85.8993 895.525 85.8993 902.655 Q85.8993 909.761 87.7049 913.326 Q89.5336 916.868 93.1447 916.868 Q96.7789 916.868 98.5845 913.326 Q100.413 909.761 100.413 902.655 Q100.413 895.525 98.5845 891.983 Q96.7789 888.419 93.1447 888.419 M93.1447 884.715 Q98.9548 884.715 102.01 889.321 Q105.089 893.905 105.089 902.655 Q105.089 911.381 102.01 915.988 Q98.9548 920.571 93.1447 920.571 Q87.3345 920.571 84.2558 915.988 Q81.2003 911.381 81.2003 902.655 Q81.2003 893.905 84.2558 889.321 Q87.3345 884.715 93.1447 884.715 Z" fill="#000000" fill-rule="evenodd" fill-opacity="1" /><path clip-path="url(#clip240)" d="M 0 0 M110.158 914.02 L115.043 914.02 L115.043 919.9 L110.158 919.9 L110.158 914.02 Z" fill="#000000" fill-rule="evenodd" fill-opacity="1" /><path clip-path="url(#clip240)" d="M 0 0 M130.112 888.419 Q126.501 888.419 124.672 891.983 Q122.867 895.525 122.867 902.655 Q122.867 909.761 124.672 913.326 Q126.501 916.868 130.112 916.868 Q133.746 916.868 135.552 913.326 Q137.381 909.761 137.381 902.655 Q137.381 895.525 135.552 891.983 Q133.746 888.419 130.112 888.419 M130.112 884.715 Q135.922 884.715 138.978 889.321 Q142.056 893.905 142.056 902.655 Q142.056 911.381 138.978 915.988 Q135.922 920.571 130.112 920.571 Q124.302 920.571 121.223 915.988 Q118.168 911.381 118.168 902.655 Q118.168 893.905 121.223 889.321 Q124.302 884.715 130.112 884.715 Z" fill="#000000" fill-rule="evenodd" fill-opacity="1" /><path clip-path="url(#clip240)" d="M 0 0 M89.7651 576.53 L106.084 576.53 L106.084 580.465 L84.1401 580.465 L84.1401 576.53 Q86.8021 573.775 91.3854 569.146 Q95.9919 564.493 97.1724 563.15 Q99.4178 560.627 100.297 558.891 Q101.2 557.132 101.2 555.442 Q101.2 552.687 99.2558 550.951 Q97.3345 549.215 94.2326 549.215 Q92.0336 549.215 89.5799 549.979 Q87.1493 550.743 84.3716 552.294 L84.3716 547.572 Q87.1956 546.437 89.6493 545.859 Q92.103 545.28 94.14 545.28 Q99.5104 545.28 102.705 547.965 Q105.899 550.65 105.899 555.141 Q105.899 557.271 105.089 559.192 Q104.302 561.09 102.196 563.683 Q101.617 564.354 98.515 567.572 Q95.4132 570.766 89.7651 576.53 Z" fill="#000000" fill-rule="evenodd" fill-opacity="1" /><path clip-path="url(#clip240)" d="M 0 0 M111.154 574.585 L116.038 574.585 L116.038 580.465 L111.154 580.465 L111.154 574.585 Z" fill="#000000" fill-rule="evenodd" fill-opacity="1" /><path clip-path="url(#clip240)" d="M 0 0 M121.154 545.905 L139.51 545.905 L139.51 549.84 L125.436 549.84 L125.436 558.312 Q126.455 557.965 127.473 557.803 Q128.492 557.618 129.51 557.618 Q135.297 557.618 138.677 560.789 Q142.056 563.961 142.056 569.377 Q142.056 574.956 138.584 578.058 Q135.112 581.136 128.793 581.136 Q126.617 581.136 124.348 580.766 Q122.103 580.396 119.695 579.655 L119.695 574.956 Q121.779 576.09 124.001 576.646 Q126.223 577.201 128.7 577.201 Q132.705 577.201 135.043 575.095 Q137.381 572.988 137.381 569.377 Q137.381 565.766 135.043 563.66 Q132.705 561.553 128.7 561.553 Q126.825 561.553 124.95 561.97 Q123.098 562.386 121.154 563.266 L121.154 545.905 Z" fill="#000000" fill-rule="evenodd" fill-opacity="1" /><path clip-path="url(#clip240)" d="M 0 0 M84.1864 206.47 L102.543 206.47 L102.543 210.405 L88.4688 210.405 L88.4688 218.878 Q89.4873 218.53 90.5058 218.368 Q91.5243 218.183 92.5428 218.183 Q98.3298 218.183 101.709 221.354 Q105.089 224.526 105.089 229.942 Q105.089 235.521 101.617 238.623 Q98.1447 241.702 91.8252 241.702 Q89.6493 241.702 87.3808 241.331 Q85.1355 240.961 82.7281 240.22 L82.7281 235.521 Q84.8114 236.655 87.0336 237.211 Q89.2558 237.766 91.7326 237.766 Q95.7373 237.766 98.0752 235.66 Q100.413 233.553 100.413 229.942 Q100.413 226.331 98.0752 224.225 Q95.7373 222.118 91.7326 222.118 Q89.8577 222.118 87.9827 222.535 Q86.1308 222.952 84.1864 223.831 L84.1864 206.47 Z" fill="#000000" fill-rule="evenodd" fill-opacity="1" /><path clip-path="url(#clip240)" d="M 0 0 M110.158 235.151 L115.043 235.151 L115.043 241.03 L110.158 241.03 L110.158 235.151 Z" fill="#000000" fill-rule="evenodd" fill-opacity="1" /><path clip-path="url(#clip240)" d="M 0 0 M130.112 209.549 Q126.501 209.549 124.672 213.114 Q122.867 216.655 122.867 223.785 Q122.867 230.891 124.672 234.456 Q126.501 237.998 130.112 237.998 Q133.746 237.998 135.552 234.456 Q137.381 230.891 137.381 223.785 Q137.381 216.655 135.552 213.114 Q133.746 209.549 130.112 209.549 M130.112 205.845 Q135.922 205.845 138.978 210.452 Q142.056 215.035 142.056 223.785 Q142.056 232.512 138.978 237.118 Q135.922 241.702 130.112 241.702 Q124.302 241.702 121.223 237.118 Q118.168 232.512 118.168 223.785 Q118.168 215.035 121.223 210.452 Q124.302 205.845 130.112 205.845 Z" fill="#000000" fill-rule="evenodd" fill-opacity="1" /><circle clip-path="url(#clip242)" cx="239.605" cy="766.846" r="14" fill="#ff0000" fill-rule="evenodd" fill-opacity="1" stroke="#000000" stroke-opacity="1" stroke-width="3.2"/>
<circle clip-path="url(#clip242)" cx="532.691" cy="631.072" r="14" fill="#ff0000" fill-rule="evenodd" fill-opacity="1" stroke="#000000" stroke-opacity="1" stroke-width="3.2"/>
<circle clip-path="url(#clip242)" cx="825.777" cy="495.298" r="14" fill="#ff0000" fill-rule="evenodd" fill-opacity="1" stroke="#000000" stroke-opacity="1" stroke-width="3.2"/>
<circle clip-path="url(#clip242)" cx="1118.86" cy="359.524" r="14" fill="#ff0000" fill-rule="evenodd" fill-opacity="1" stroke="#000000" stroke-opacity="1" stroke-width="3.2"/>
<circle clip-path="url(#clip242)" cx="239.605" cy="631.072" r="14" fill="#0000ff" fill-rule="evenodd" fill-opacity="1" stroke="#000000" stroke-opacity="1" stroke-width="3.2"/>
<circle clip-path="url(#clip242)" cx="1998.12" cy="87.9763" r="14" fill="#0000ff" fill-rule="evenodd" fill-opacity="1" stroke="#000000" stroke-opacity="1" stroke-width="3.2"/>
<circle clip-path="url(#clip242)" cx="2291.21" cy="495.298" r="14" fill="#0000ff" fill-rule="evenodd" fill-opacity="1" stroke="#000000" stroke-opacity="1" stroke-width="3.2"/>
<circle clip-path="url(#clip242)" cx="532.691" cy="766.846" r="14" fill="#0000ff" fill-rule="evenodd" fill-opacity="1" stroke="#000000" stroke-opacity="1" stroke-width="3.2"/>
<circle clip-path="url(#clip242)" cx="825.777" cy="359.524" r="14" fill="#0000ff" fill-rule="evenodd" fill-opacity="1" stroke="#000000" stroke-opacity="1" stroke-width="3.2"/>
<circle clip-path="url(#clip242)" cx="239.605" cy="1038.39" r="14" fill="#ffa500" fill-rule="evenodd" fill-opacity="1" stroke="#000000" stroke-opacity="1" stroke-width="3.2"/>
<circle clip-path="url(#clip242)" cx="532.691" cy="1174.17" r="14" fill="#ffa500" fill-rule="evenodd" fill-opacity="1" stroke="#000000" stroke-opacity="1" stroke-width="3.2"/>
<circle clip-path="url(#clip242)" cx="825.777" cy="1309.94" r="14" fill="#ffa500" fill-rule="evenodd" fill-opacity="1" stroke="#000000" stroke-opacity="1" stroke-width="3.2"/>
<circle clip-path="url(#clip242)" cx="1118.86" cy="1445.72" r="14" fill="#ffa500" fill-rule="evenodd" fill-opacity="1" stroke="#000000" stroke-opacity="1" stroke-width="3.2"/>
<path clip-path="url(#clip240)" d="
M1987.04 337.138 L2280.27 337.138 L2280.27 95.2176 L1987.04 95.2176  Z
  " fill="#ffffff" fill-rule="evenodd" fill-opacity="1"/>
<polyline clip-path="url(#clip240)" style="stroke:#000000; stroke-width:4; stroke-opacity:1; fill:none" points="
  1987.04,337.138 2280.27,337.138 2280.27,95.2176 1987.04,95.2176 1987.04,337.138 
  "/>
<circle clip-path="url(#clip240)" cx="2083.69" cy="155.698" r="23" fill="#ff0000" fill-rule="evenodd" fill-opacity="1" stroke="#000000" stroke-opacity="1" stroke-width="5.12"/>
<path clip-path="url(#clip240)" d="M 0 0 M2194.18 175.385 Q2192.38 180.015 2190.67 181.427 Q2188.95 182.839 2186.08 182.839 L2182.68 182.839 L2182.68 179.274 L2185.18 179.274 Q2186.94 179.274 2187.91 178.44 Q2188.88 177.607 2190.06 174.505 L2190.83 172.561 L2180.34 147.052 L2184.86 147.052 L2192.96 167.329 L2201.06 147.052 L2205.57 147.052 L2194.18 175.385 Z" fill="#000000" fill-rule="evenodd" fill-opacity="1" /><path clip-path="url(#clip240)" d="M 0 0 M2211.45 169.042 L2219.09 169.042 L2219.09 142.677 L2210.78 144.343 L2210.78 140.084 L2219.05 138.418 L2223.72 138.418 L2223.72 169.042 L2231.36 169.042 L2231.36 172.978 L2211.45 172.978 L2211.45 169.042 Z" fill="#000000" fill-rule="evenodd" fill-opacity="1" /><circle clip-path="url(#clip240)" cx="2083.69" cy="216.178" r="23" fill="#0000ff" fill-rule="evenodd" fill-opacity="1" stroke="#000000" stroke-opacity="1" stroke-width="5.12"/>
<path clip-path="url(#clip240)" d="M 0 0 M2194.18 235.865 Q2192.38 240.495 2190.67 241.907 Q2188.95 243.319 2186.08 243.319 L2182.68 243.319 L2182.68 239.754 L2185.18 239.754 Q2186.94 239.754 2187.91 238.92 Q2188.88 238.087 2190.06 234.985 L2190.83 233.041 L2180.34 207.532 L2184.86 207.532 L2192.96 227.809 L2201.06 207.532 L2205.57 207.532 L2194.18 235.865 Z" fill="#000000" fill-rule="evenodd" fill-opacity="1" /><path clip-path="url(#clip240)" d="M 0 0 M2214.67 229.522 L2230.99 229.522 L2230.99 233.458 L2209.05 233.458 L2209.05 229.522 Q2211.71 226.768 2216.29 222.138 Q2220.9 217.485 2222.08 216.143 Q2224.32 213.62 2225.2 211.884 Q2226.11 210.124 2226.11 208.435 Q2226.11 205.68 2224.16 203.944 Q2222.24 202.208 2219.14 202.208 Q2216.94 202.208 2214.49 202.972 Q2212.06 203.735 2209.28 205.286 L2209.28 200.564 Q2212.1 199.43 2214.56 198.851 Q2217.01 198.273 2219.05 198.273 Q2224.42 198.273 2227.61 200.958 Q2230.81 203.643 2230.81 208.134 Q2230.81 210.263 2229.99 212.185 Q2229.21 214.083 2227.1 216.675 Q2226.52 217.347 2223.42 220.564 Q2220.32 223.759 2214.67 229.522 Z" fill="#000000" fill-rule="evenodd" fill-opacity="1" /><circle clip-path="url(#clip240)" cx="2083.69" cy="276.658" r="23" fill="#ffa500" fill-rule="evenodd" fill-opacity="1" stroke="#000000" stroke-opacity="1" stroke-width="5.12"/>
<path clip-path="url(#clip240)" d="M 0 0 M2194.18 296.345 Q2192.38 300.975 2190.67 302.387 Q2188.95 303.799 2186.08 303.799 L2182.68 303.799 L2182.68 300.234 L2185.18 300.234 Q2186.94 300.234 2187.91 299.4 Q2188.88 298.567 2190.06 295.465 L2190.83 293.521 L2180.34 268.012 L2184.86 268.012 L2192.96 288.289 L2201.06 268.012 L2205.57 268.012 L2194.18 296.345 Z" fill="#000000" fill-rule="evenodd" fill-opacity="1" /><path clip-path="url(#clip240)" d="M 0 0 M2224.81 275.303 Q2228.17 276.021 2230.04 278.289 Q2231.94 280.558 2231.94 283.891 Q2231.94 289.007 2228.42 291.808 Q2224.9 294.609 2218.42 294.609 Q2216.24 294.609 2213.93 294.169 Q2211.64 293.752 2209.18 292.896 L2209.18 288.382 Q2211.13 289.516 2213.44 290.095 Q2215.76 290.674 2218.28 290.674 Q2222.68 290.674 2224.97 288.938 Q2227.29 287.201 2227.29 283.891 Q2227.29 280.836 2225.13 279.123 Q2223 277.387 2219.18 277.387 L2215.16 277.387 L2215.16 273.544 L2219.37 273.544 Q2222.82 273.544 2224.65 272.178 Q2226.48 270.79 2226.48 268.197 Q2226.48 265.535 2224.58 264.123 Q2222.7 262.688 2219.18 262.688 Q2217.26 262.688 2215.06 263.104 Q2212.87 263.521 2210.23 264.401 L2210.23 260.234 Q2212.89 259.493 2215.2 259.123 Q2217.54 258.753 2219.6 258.753 Q2224.93 258.753 2228.03 261.183 Q2231.13 263.59 2231.13 267.711 Q2231.13 270.581 2229.49 272.572 Q2227.84 274.54 2224.81 275.303 Z" fill="#000000" fill-rule="evenodd" fill-opacity="1" /></svg>
