<?xml version="1.0" encoding="utf-8"?>
<svg xmlns="http://www.w3.org/2000/svg" xmlns:xlink="http://www.w3.org/1999/xlink" width="600" height="400" viewBox="0 0 2400 1600">
<defs>
  <clipPath id="clip790">
    <rect x="0" y="0" width="2400" height="1600"/>
  </clipPath>
</defs>
<path clip-path="url(#clip790)" d="
M0 1600 L2400 1600 L2400 0 L0 0  Z
  " fill="#ffffff" fill-rule="evenodd" fill-opacity="1"/>
<defs>
  <clipPath id="clip791">
    <rect x="480" y="0" width="1681" height="1600"/>
  </clipPath>
</defs>
<path clip-path="url(#clip790)" d="
M242.922 1423.18 L2352.76 1423.18 L2352.76 123.472 L242.922 123.472  Z
  " fill="#ffffff" fill-rule="evenodd" fill-opacity="1"/>
<defs>
  <clipPath id="clip792">
    <rect x="242" y="123" width="2111" height="1301"/>
  </clipPath>
</defs>
<polyline clip-path="url(#clip792)" style="stroke:#000000; stroke-width:2; stroke-opacity:0.1; fill:none" points="
  544.327,1423.18 544.327,123.472 
  "/>
<polyline clip-path="url(#clip792)" style="stroke:#000000; stroke-width:2; stroke-opacity:0.1; fill:none" points="
  921.083,1423.18 921.083,123.472 
  "/>
<polyline clip-path="url(#clip792)" style="stroke:#000000; stroke-width:2; stroke-opacity:0.1; fill:none" points="
  1297.84,1423.18 1297.84,123.472 
  "/>
<polyline clip-path="url(#clip792)" style="stroke:#000000; stroke-width:2; stroke-opacity:0.1; fill:none" points="
  1674.59,1423.18 1674.59,123.472 
  "/>
<polyline clip-path="url(#clip792)" style="stroke:#000000; stroke-width:2; stroke-opacity:0.1; fill:none" points="
  2051.35,1423.18 2051.35,123.472 
  "/>
<polyline clip-path="url(#clip790)" style="stroke:#000000; stroke-width:4; stroke-opacity:1; fill:none" points="
  242.922,1423.18 2352.76,1423.18 
  "/>
<polyline clip-path="url(#clip790)" style="stroke:#000000; stroke-width:4; stroke-opacity:1; fill:none" points="
  544.327,1423.18 544.327,1407.58 
  "/>
<polyline clip-path="url(#clip790)" style="stroke:#000000; stroke-width:4; stroke-opacity:1; fill:none" points="
  921.083,1423.18 921.083,1407.58 
  "/>
<polyline clip-path="url(#clip790)" style="stroke:#000000; stroke-width:4; stroke-opacity:1; fill:none" points="
  1297.84,1423.18 1297.84,1407.58 
  "/>
<polyline clip-path="url(#clip790)" style="stroke:#000000; stroke-width:4; stroke-opacity:1; fill:none" points="
  1674.59,1423.18 1674.59,1407.58 
  "/>
<polyline clip-path="url(#clip790)" style="stroke:#000000; stroke-width:4; stroke-opacity:1; fill:none" points="
  2051.35,1423.18 2051.35,1407.58 
  "/>
<path clip-path="url(#clip790)" d="M 0 0 M497.996 1467.02 L527.672 1467.02 L527.672 1470.96 L497.996 1470.96 L497.996 1467.02 Z" fill="#000000" fill-rule="evenodd" fill-opacity="1" /><path clip-path="url(#clip790)" d="M 0 0 M532.787 1449.29 L551.144 1449.29 L551.144 1453.23 L537.07 1453.23 L537.07 1461.7 Q538.088 1461.35 539.107 1461.19 Q540.125 1461 541.144 1461 Q546.931 1461 550.31 1464.18 Q553.69 1467.35 553.69 1472.76 Q553.69 1478.34 550.218 1481.44 Q546.746 1484.52 540.426 1484.52 Q538.25 1484.52 535.982 1484.15 Q533.736 1483.78 531.329 1483.04 L531.329 1478.34 Q533.412 1479.48 535.635 1480.03 Q537.857 1480.59 540.334 1480.59 Q544.338 1480.59 546.676 1478.48 Q549.014 1476.38 549.014 1472.76 Q549.014 1469.15 546.676 1467.05 Q544.338 1464.94 540.334 1464.94 Q538.459 1464.94 536.584 1465.36 Q534.732 1465.77 532.787 1466.65 L532.787 1449.29 Z" fill="#000000" fill-rule="evenodd" fill-opacity="1" /><path clip-path="url(#clip790)" d="M 0 0 M558.759 1477.97 L563.644 1477.97 L563.644 1483.85 L558.759 1483.85 L558.759 1477.97 Z" fill="#000000" fill-rule="evenodd" fill-opacity="1" /><path clip-path="url(#clip790)" d="M 0 0 M578.713 1452.37 Q575.102 1452.37 573.273 1455.94 Q571.468 1459.48 571.468 1466.61 Q571.468 1473.71 573.273 1477.28 Q575.102 1480.82 578.713 1480.82 Q582.347 1480.82 584.153 1477.28 Q585.981 1473.71 585.981 1466.61 Q585.981 1459.48 584.153 1455.94 Q582.347 1452.37 578.713 1452.37 M578.713 1448.67 Q584.523 1448.67 587.579 1453.27 Q590.657 1457.86 590.657 1466.61 Q590.657 1475.33 587.579 1479.94 Q584.523 1484.52 578.713 1484.52 Q572.903 1484.52 569.824 1479.94 Q566.769 1475.33 566.769 1466.61 Q566.769 1457.86 569.824 1453.27 Q572.903 1448.67 578.713 1448.67 Z" fill="#000000" fill-rule="evenodd" fill-opacity="1" /><path clip-path="url(#clip790)" d="M 0 0 M875.551 1467.02 L905.226 1467.02 L905.226 1470.96 L875.551 1470.96 L875.551 1467.02 Z" fill="#000000" fill-rule="evenodd" fill-opacity="1" /><path clip-path="url(#clip790)" d="M 0 0 M914.323 1479.92 L930.643 1479.92 L930.643 1483.85 L908.699 1483.85 L908.699 1479.92 Q911.361 1477.16 915.944 1472.53 Q920.55 1467.88 921.731 1466.54 Q923.976 1464.01 924.856 1462.28 Q925.759 1460.52 925.759 1458.83 Q925.759 1456.07 923.814 1454.34 Q921.893 1452.6 918.791 1452.6 Q916.592 1452.6 914.138 1453.37 Q911.708 1454.13 908.93 1455.68 L908.93 1450.96 Q911.754 1449.82 914.208 1449.25 Q916.661 1448.67 918.698 1448.67 Q924.069 1448.67 927.263 1451.35 Q930.458 1454.04 930.458 1458.53 Q930.458 1460.66 929.647 1462.58 Q928.86 1464.48 926.754 1467.07 Q926.175 1467.74 923.073 1470.96 Q919.972 1474.15 914.323 1479.92 Z" fill="#000000" fill-rule="evenodd" fill-opacity="1" /><path clip-path="url(#clip790)" d="M 0 0 M935.712 1477.97 L940.596 1477.97 L940.596 1483.85 L935.712 1483.85 L935.712 1477.97 Z" fill="#000000" fill-rule="evenodd" fill-opacity="1" /><path clip-path="url(#clip790)" d="M 0 0 M945.712 1449.29 L964.069 1449.29 L964.069 1453.23 L949.995 1453.23 L949.995 1461.7 Q951.013 1461.35 952.032 1461.19 Q953.05 1461 954.069 1461 Q959.856 1461 963.235 1464.18 Q966.615 1467.35 966.615 1472.76 Q966.615 1478.34 963.143 1481.44 Q959.67 1484.52 953.351 1484.52 Q951.175 1484.52 948.907 1484.15 Q946.661 1483.78 944.254 1483.04 L944.254 1478.34 Q946.337 1479.48 948.559 1480.03 Q950.782 1480.59 953.258 1480.59 Q957.263 1480.59 959.601 1478.48 Q961.939 1476.38 961.939 1472.76 Q961.939 1469.15 959.601 1467.05 Q957.263 1464.94 953.258 1464.94 Q951.383 1464.94 949.508 1465.36 Q947.657 1465.77 945.712 1466.65 L945.712 1449.29 Z" fill="#000000" fill-rule="evenodd" fill-opacity="1" /><path clip-path="url(#clip790)" d="M 0 0 M1279.36 1452.37 Q1275.74 1452.37 1273.92 1455.94 Q1272.11 1459.48 1272.11 1466.61 Q1272.11 1473.71 1273.92 1477.28 Q1275.74 1480.82 1279.36 1480.82 Q1282.99 1480.82 1284.79 1477.28 Q1286.62 1473.71 1286.62 1466.61 Q1286.62 1459.48 1284.79 1455.94 Q1282.99 1452.37 1279.36 1452.37 M1279.36 1448.67 Q1285.17 1448.67 1288.22 1453.27 Q1291.3 1457.86 1291.3 1466.61 Q1291.3 1475.33 1288.22 1479.94 Q1285.17 1484.52 1279.36 1484.52 Q1273.54 1484.52 1270.47 1479.94 Q1267.41 1475.33 1267.41 1466.61 Q1267.41 1457.86 1270.47 1453.27 Q1273.54 1448.67 1279.36 1448.67 Z" fill="#000000" fill-rule="evenodd" fill-opacity="1" /><path clip-path="url(#clip790)" d="M 0 0 M1296.37 1477.97 L1301.25 1477.97 L1301.25 1483.85 L1296.37 1483.85 L1296.37 1477.97 Z" fill="#000000" fill-rule="evenodd" fill-opacity="1" /><path clip-path="url(#clip790)" d="M 0 0 M1316.32 1452.37 Q1312.71 1452.37 1310.88 1455.94 Q1309.08 1459.48 1309.08 1466.61 Q1309.08 1473.71 1310.88 1477.28 Q1312.71 1480.82 1316.32 1480.82 Q1319.96 1480.82 1321.76 1477.28 Q1323.59 1473.71 1323.59 1466.61 Q1323.59 1459.48 1321.76 1455.94 Q1319.96 1452.37 1316.32 1452.37 M1316.32 1448.67 Q1322.13 1448.67 1325.19 1453.27 Q1328.27 1457.86 1328.27 1466.61 Q1328.27 1475.33 1325.19 1479.94 Q1322.13 1484.52 1316.32 1484.52 Q1310.51 1484.52 1307.43 1479.94 Q1304.38 1475.33 1304.38 1466.61 Q1304.38 1457.86 1307.43 1453.27 Q1310.51 1448.67 1316.32 1448.67 Z" fill="#000000" fill-rule="evenodd" fill-opacity="1" /><path clip-path="url(#clip790)" d="M 0 0 M1651.26 1479.92 L1667.58 1479.92 L1667.58 1483.85 L1645.64 1483.85 L1645.64 1479.92 Q1648.3 1477.16 1652.88 1472.53 Q1657.49 1467.88 1658.67 1466.54 Q1660.91 1464.01 1661.79 1462.28 Q1662.7 1460.52 1662.7 1458.83 Q1662.7 1456.07 1660.75 1454.34 Q1658.83 1452.6 1655.73 1452.6 Q1653.53 1452.6 1651.08 1453.37 Q1648.65 1454.13 1645.87 1455.68 L1645.87 1450.96 Q1648.69 1449.82 1651.15 1449.25 Q1653.6 1448.67 1655.64 1448.67 Q1661.01 1448.67 1664.2 1451.35 Q1667.4 1454.04 1667.4 1458.53 Q1667.4 1460.66 1666.59 1462.58 Q1665.8 1464.48 1663.69 1467.07 Q1663.11 1467.74 1660.01 1470.96 Q1656.91 1474.15 1651.26 1479.92 Z" fill="#000000" fill-rule="evenodd" fill-opacity="1" /><path clip-path="url(#clip790)" d="M 0 0 M1672.65 1477.97 L1677.53 1477.97 L1677.53 1483.85 L1672.65 1483.85 L1672.65 1477.97 Z" fill="#000000" fill-rule="evenodd" fill-opacity="1" /><path clip-path="url(#clip790)" d="M 0 0 M1682.65 1449.29 L1701.01 1449.29 L1701.01 1453.23 L1686.93 1453.23 L1686.93 1461.7 Q1687.95 1461.35 1688.97 1461.19 Q1689.99 1461 1691.01 1461 Q1696.79 1461 1700.17 1464.18 Q1703.55 1467.35 1703.55 1472.76 Q1703.55 1478.34 1700.08 1481.44 Q1696.61 1484.52 1690.29 1484.52 Q1688.11 1484.52 1685.84 1484.15 Q1683.6 1483.78 1681.19 1483.04 L1681.19 1478.34 Q1683.28 1479.48 1685.5 1480.03 Q1687.72 1480.59 1690.2 1480.59 Q1694.2 1480.59 1696.54 1478.48 Q1698.88 1476.38 1698.88 1472.76 Q1698.88 1469.15 1696.54 1467.05 Q1694.2 1464.94 1690.2 1464.94 Q1688.32 1464.94 1686.45 1465.36 Q1684.59 1465.77 1682.65 1466.65 L1682.65 1449.29 Z" fill="#000000" fill-rule="evenodd" fill-opacity="1" /><path clip-path="url(#clip790)" d="M 0 0 M2023.15 1449.29 L2041.5 1449.29 L2041.5 1453.23 L2027.43 1453.23 L2027.43 1461.7 Q2028.45 1461.35 2029.46 1461.19 Q2030.48 1461 2031.5 1461 Q2037.29 1461 2040.67 1464.18 Q2044.05 1467.35 2044.05 1472.76 Q2044.05 1478.34 2040.58 1481.44 Q2037.1 1484.52 2030.78 1484.52 Q2028.61 1484.52 2026.34 1484.15 Q2024.09 1483.78 2021.69 1483.04 L2021.69 1478.34 Q2023.77 1479.48 2025.99 1480.03 Q2028.21 1480.59 2030.69 1480.59 Q2034.7 1480.59 2037.03 1478.48 Q2039.37 1476.38 2039.37 1472.76 Q2039.37 1469.15 2037.03 1467.05 Q2034.7 1464.94 2030.69 1464.94 Q2028.82 1464.94 2026.94 1465.36 Q2025.09 1465.77 2023.15 1466.65 L2023.15 1449.29 Z" fill="#000000" fill-rule="evenodd" fill-opacity="1" /><path clip-path="url(#clip790)" d="M 0 0 M2049.12 1477.97 L2054 1477.97 L2054 1483.85 L2049.12 1483.85 L2049.12 1477.97 Z" fill="#000000" fill-rule="evenodd" fill-opacity="1" /><path clip-path="url(#clip790)" d="M 0 0 M2069.07 1452.37 Q2065.46 1452.37 2063.63 1455.94 Q2061.83 1459.48 2061.83 1466.61 Q2061.83 1473.71 2063.63 1477.28 Q2065.46 1480.82 2069.07 1480.82 Q2072.71 1480.82 2074.51 1477.28 Q2076.34 1473.71 2076.34 1466.61 Q2076.34 1459.48 2074.51 1455.94 Q2072.71 1452.37 2069.07 1452.37 M2069.07 1448.67 Q2074.88 1448.67 2077.94 1453.27 Q2081.02 1457.86 2081.02 1466.61 Q2081.02 1475.33 2077.94 1479.94 Q2074.88 1484.52 2069.07 1484.52 Q2063.26 1484.52 2060.18 1479.94 Q2057.13 1475.33 2057.13 1466.61 Q2057.13 1457.86 2060.18 1453.27 Q2063.26 1448.67 2069.07 1448.67 Z" fill="#000000" fill-rule="evenodd" fill-opacity="1" /><path clip-path="url(#clip790)" d="M 0 0 M1211.55 1533.76 Q1213.62 1534.46 1215.56 1536.76 Q1217.54 1539.05 1219.51 1543.06 L1226.03 1556.04 L1219.13 1556.04 L1213.05 1543.85 Q1210.69 1539.08 1208.46 1537.52 Q1206.27 1535.96 1202.45 1535.96 L1195.45 1535.96 L1195.45 1556.04 L1189.02 1556.04 L1189.02 1508.52 L1203.53 1508.52 Q1211.68 1508.52 1215.69 1511.93 Q1219.7 1515.34 1219.7 1522.21 Q1219.7 1526.7 1217.6 1529.66 Q1215.53 1532.62 1211.55 1533.76 M1195.45 1513.81 L1195.45 1530.68 L1203.53 1530.68 Q1208.18 1530.68 1210.53 1528.54 Q1212.92 1526.38 1212.92 1522.21 Q1212.92 1518.04 1210.53 1515.94 Q1208.18 1513.81 1203.53 1513.81 L1195.45 1513.81 Z" fill="#000000" fill-rule="evenodd" fill-opacity="1" /><path clip-path="url(#clip790)" d="M 0 0 M1246.94 1538.12 Q1239.85 1538.12 1237.11 1539.75 Q1234.37 1541.37 1234.37 1545.29 Q1234.37 1548.4 1236.41 1550.25 Q1238.48 1552.07 1242.01 1552.07 Q1246.88 1552.07 1249.81 1548.63 Q1252.77 1545.16 1252.77 1539.43 L1252.77 1538.12 L1246.94 1538.12 M1258.63 1535.71 L1258.63 1556.04 L1252.77 1556.04 L1252.77 1550.63 Q1250.76 1553.88 1247.77 1555.44 Q1244.78 1556.97 1240.45 1556.97 Q1234.98 1556.97 1231.73 1553.91 Q1228.52 1550.82 1228.52 1545.67 Q1228.52 1539.65 1232.53 1536.6 Q1236.57 1533.54 1244.56 1533.54 L1252.77 1533.54 L1252.77 1532.97 Q1252.77 1528.93 1250.1 1526.73 Q1247.45 1524.5 1242.65 1524.5 Q1239.59 1524.5 1236.7 1525.23 Q1233.8 1525.97 1231.13 1527.43 L1231.13 1522.02 Q1234.34 1520.78 1237.36 1520.17 Q1240.39 1519.54 1243.25 1519.54 Q1250.99 1519.54 1254.81 1523.55 Q1258.63 1527.56 1258.63 1535.71 Z" fill="#000000" fill-rule="evenodd" fill-opacity="1" /><path clip-path="url(#clip790)" d="M 0 0 M1288.23 1525.81 L1288.23 1506.52 L1294.08 1506.52 L1294.08 1556.04 L1288.23 1556.04 L1288.23 1550.7 Q1286.38 1553.88 1283.55 1555.44 Q1280.75 1556.97 1276.8 1556.97 Q1270.34 1556.97 1266.26 1551.81 Q1262.22 1546.65 1262.22 1538.25 Q1262.22 1529.85 1266.26 1524.69 Q1270.34 1519.54 1276.8 1519.54 Q1280.75 1519.54 1283.55 1521.1 Q1286.38 1522.62 1288.23 1525.81 M1268.27 1538.25 Q1268.27 1544.71 1270.91 1548.4 Q1273.59 1552.07 1278.23 1552.07 Q1282.88 1552.07 1285.55 1548.4 Q1288.23 1544.71 1288.23 1538.25 Q1288.23 1531.79 1285.55 1528.13 Q1282.88 1524.44 1278.23 1524.44 Q1273.59 1524.44 1270.91 1528.13 Q1268.27 1531.79 1268.27 1538.25 Z" fill="#000000" fill-rule="evenodd" fill-opacity="1" /><path clip-path="url(#clip790)" d="M 0 0 M1300.23 1520.4 L1306.08 1520.4 L1306.08 1556.04 L1300.23 1556.04 L1300.23 1520.4 M1300.23 1506.52 L1306.08 1506.52 L1306.08 1513.93 L1300.23 1513.93 L1300.23 1506.52 Z" fill="#000000" fill-rule="evenodd" fill-opacity="1" /><path clip-path="url(#clip790)" d="M 0 0 M1328.43 1538.12 Q1321.33 1538.12 1318.59 1539.75 Q1315.85 1541.37 1315.85 1545.29 Q1315.85 1548.4 1317.89 1550.25 Q1319.96 1552.07 1323.49 1552.07 Q1328.36 1552.07 1331.29 1548.63 Q1334.25 1545.16 1334.25 1539.43 L1334.25 1538.12 L1328.43 1538.12 M1340.11 1535.71 L1340.11 1556.04 L1334.25 1556.04 L1334.25 1550.63 Q1332.25 1553.88 1329.25 1555.44 Q1326.26 1556.97 1321.93 1556.97 Q1316.46 1556.97 1313.21 1553.91 Q1310 1550.82 1310 1545.67 Q1310 1539.65 1314.01 1536.6 Q1318.05 1533.54 1326.04 1533.54 L1334.25 1533.54 L1334.25 1532.97 Q1334.25 1528.93 1331.58 1526.73 Q1328.94 1524.5 1324.13 1524.5 Q1321.07 1524.5 1318.18 1525.23 Q1315.28 1525.97 1312.61 1527.43 L1312.61 1522.02 Q1315.82 1520.78 1318.85 1520.17 Q1321.87 1519.54 1324.73 1519.54 Q1332.47 1519.54 1336.29 1523.55 Q1340.11 1527.56 1340.11 1535.71 Z" fill="#000000" fill-rule="evenodd" fill-opacity="1" /><path clip-path="url(#clip790)" d="M 0 0 M1375.88 1534.53 L1375.88 1556.04 L1370.03 1556.04 L1370.03 1534.72 Q1370.03 1529.66 1368.05 1527.14 Q1366.08 1524.63 1362.13 1524.63 Q1357.39 1524.63 1354.65 1527.65 Q1351.92 1530.68 1351.92 1535.9 L1351.92 1556.04 L1346.03 1556.04 L1346.03 1520.4 L1351.92 1520.4 L1351.92 1525.93 Q1354.02 1522.72 1356.85 1521.13 Q1359.71 1519.54 1363.44 1519.54 Q1369.58 1519.54 1372.73 1523.36 Q1375.88 1527.14 1375.88 1534.53 Z" fill="#000000" fill-rule="evenodd" fill-opacity="1" /><path clip-path="url(#clip790)" d="M 0 0 M1404.75 1521.45 L1404.75 1526.98 Q1402.27 1525.71 1399.59 1525.07 Q1396.92 1524.44 1394.06 1524.44 Q1389.7 1524.44 1387.5 1525.77 Q1385.34 1527.11 1385.34 1529.79 Q1385.34 1531.82 1386.9 1533 Q1388.45 1534.15 1393.17 1535.2 L1395.17 1535.64 Q1401.41 1536.98 1404.02 1539.43 Q1406.66 1541.85 1406.66 1546.21 Q1406.66 1551.17 1402.71 1554.07 Q1398.8 1556.97 1391.92 1556.97 Q1389.06 1556.97 1385.94 1556.39 Q1382.85 1555.85 1379.42 1554.74 L1379.42 1548.69 Q1382.66 1550.38 1385.81 1551.24 Q1388.96 1552.07 1392.05 1552.07 Q1396.19 1552.07 1398.42 1550.66 Q1400.64 1549.23 1400.64 1546.65 Q1400.64 1544.27 1399.02 1542.99 Q1397.43 1541.72 1391.99 1540.54 L1389.95 1540.07 Q1384.51 1538.92 1382.09 1536.56 Q1379.67 1534.18 1379.67 1530.04 Q1379.67 1525.01 1383.23 1522.27 Q1386.8 1519.54 1393.36 1519.54 Q1396.6 1519.54 1399.47 1520.01 Q1402.33 1520.49 1404.75 1521.45 Z" fill="#000000" fill-rule="evenodd" fill-opacity="1" /><polyline clip-path="url(#clip792)" style="stroke:#000000; stroke-width:2; stroke-opacity:0.1; fill:none" points="
  242.922,1423.18 2352.76,1423.18 
  "/>
<polyline clip-path="url(#clip792)" style="stroke:#000000; stroke-width:2; stroke-opacity:0.1; fill:none" points="
  242.922,1206.56 2352.76,1206.56 
  "/>
<polyline clip-path="url(#clip792)" style="stroke:#000000; stroke-width:2; stroke-opacity:0.1; fill:none" points="
  242.922,989.944 2352.76,989.944 
  "/>
<polyline clip-path="url(#clip792)" style="stroke:#000000; stroke-width:2; stroke-opacity:0.1; fill:none" points="
  242.922,773.326 2352.76,773.326 
  "/>
<polyline clip-path="url(#clip792)" style="stroke:#000000; stroke-width:2; stroke-opacity:0.1; fill:none" points="
  242.922,556.708 2352.76,556.708 
  "/>
<polyline clip-path="url(#clip792)" style="stroke:#000000; stroke-width:2; stroke-opacity:0.1; fill:none" points="
  242.922,340.09 2352.76,340.09 
  "/>
<polyline clip-path="url(#clip792)" style="stroke:#000000; stroke-width:2; stroke-opacity:0.1; fill:none" points="
  242.922,123.472 2352.76,123.472 
  "/>
<polyline clip-path="url(#clip790)" style="stroke:#000000; stroke-width:4; stroke-opacity:1; fill:none" points="
  242.922,1423.18 242.922,123.472 
  "/>
<polyline clip-path="url(#clip790)" style="stroke:#000000; stroke-width:4; stroke-opacity:1; fill:none" points="
  242.922,1423.18 268.24,1423.18 
  "/>
<polyline clip-path="url(#clip790)" style="stroke:#000000; stroke-width:4; stroke-opacity:1; fill:none" points="
  242.922,1206.56 268.24,1206.56 
  "/>
<polyline clip-path="url(#clip790)" style="stroke:#000000; stroke-width:4; stroke-opacity:1; fill:none" points="
  242.922,989.944 268.24,989.944 
  "/>
<polyline clip-path="url(#clip790)" style="stroke:#000000; stroke-width:4; stroke-opacity:1; fill:none" points="
  242.922,773.326 268.24,773.326 
  "/>
<polyline clip-path="url(#clip790)" style="stroke:#000000; stroke-width:4; stroke-opacity:1; fill:none" points="
  242.922,556.708 268.24,556.708 
  "/>
<polyline clip-path="url(#clip790)" style="stroke:#000000; stroke-width:4; stroke-opacity:1; fill:none" points="
  242.922,340.09 268.24,340.09 
  "/>
<polyline clip-path="url(#clip790)" style="stroke:#000000; stroke-width:4; stroke-opacity:1; fill:none" points="
  242.922,123.472 268.24,123.472 
  "/>
<path clip-path="url(#clip790)" d="M 0 0 M115.487 1423.63 L145.163 1423.63 L145.163 1427.57 L115.487 1427.57 L115.487 1423.63 Z" fill="#000000" fill-rule="evenodd" fill-opacity="1" /><path clip-path="url(#clip790)" d="M 0 0 M151.042 1436.52 L158.681 1436.52 L158.681 1410.16 L150.371 1411.83 L150.371 1407.57 L158.635 1405.9 L163.311 1405.9 L163.311 1436.52 L170.95 1436.52 L170.95 1440.46 L151.042 1440.46 L151.042 1436.52 Z" fill="#000000" fill-rule="evenodd" fill-opacity="1" /><path clip-path="url(#clip790)" d="M 0 0 M176.019 1434.58 L180.903 1434.58 L180.903 1440.46 L176.019 1440.46 L176.019 1434.58 Z" fill="#000000" fill-rule="evenodd" fill-opacity="1" /><path clip-path="url(#clip790)" d="M 0 0 M186.019 1405.9 L204.375 1405.9 L204.375 1409.84 L190.301 1409.84 L190.301 1418.31 Q191.32 1417.96 192.338 1417.8 Q193.357 1417.61 194.375 1417.61 Q200.162 1417.61 203.542 1420.78 Q206.922 1423.96 206.922 1429.37 Q206.922 1434.95 203.449 1438.05 Q199.977 1441.13 193.658 1441.13 Q191.482 1441.13 189.213 1440.76 Q186.968 1440.39 184.561 1439.65 L184.561 1434.95 Q186.644 1436.08 188.866 1436.64 Q191.088 1437.2 193.565 1437.2 Q197.57 1437.2 199.908 1435.09 Q202.246 1432.98 202.246 1429.37 Q202.246 1425.76 199.908 1423.65 Q197.57 1421.55 193.565 1421.55 Q191.69 1421.55 189.815 1421.96 Q187.963 1422.38 186.019 1423.26 L186.019 1405.9 Z" fill="#000000" fill-rule="evenodd" fill-opacity="1" /><path clip-path="url(#clip790)" d="M 0 0 M114.492 1207.01 L144.167 1207.01 L144.167 1210.95 L114.492 1210.95 L114.492 1207.01 Z" fill="#000000" fill-rule="evenodd" fill-opacity="1" /><path clip-path="url(#clip790)" d="M 0 0 M150.047 1219.91 L157.686 1219.91 L157.686 1193.54 L149.376 1195.21 L149.376 1190.95 L157.64 1189.28 L162.315 1189.28 L162.315 1219.91 L169.954 1219.91 L169.954 1223.84 L150.047 1223.84 L150.047 1219.91 Z" fill="#000000" fill-rule="evenodd" fill-opacity="1" /><path clip-path="url(#clip790)" d="M 0 0 M175.024 1217.96 L179.908 1217.96 L179.908 1223.84 L175.024 1223.84 L175.024 1217.96 Z" fill="#000000" fill-rule="evenodd" fill-opacity="1" /><path clip-path="url(#clip790)" d="M 0 0 M194.977 1192.36 Q191.366 1192.36 189.538 1195.93 Q187.732 1199.47 187.732 1206.6 Q187.732 1213.7 189.538 1217.27 Q191.366 1220.81 194.977 1220.81 Q198.612 1220.81 200.417 1217.27 Q202.246 1213.7 202.246 1206.6 Q202.246 1199.47 200.417 1195.93 Q198.612 1192.36 194.977 1192.36 M194.977 1188.66 Q200.787 1188.66 203.843 1193.26 Q206.922 1197.85 206.922 1206.6 Q206.922 1215.32 203.843 1219.93 Q200.787 1224.51 194.977 1224.51 Q189.167 1224.51 186.088 1219.93 Q183.033 1215.32 183.033 1206.6 Q183.033 1197.85 186.088 1193.26 Q189.167 1188.66 194.977 1188.66 Z" fill="#000000" fill-rule="evenodd" fill-opacity="1" /><path clip-path="url(#clip790)" d="M 0 0 M114.26 990.395 L143.936 990.395 L143.936 994.33 L114.26 994.33 L114.26 990.395 Z" fill="#000000" fill-rule="evenodd" fill-opacity="1" /><path clip-path="url(#clip790)" d="M 0 0 M159.005 975.743 Q155.394 975.743 153.566 979.307 Q151.76 982.849 151.76 989.979 Q151.76 997.085 153.566 1000.65 Q155.394 1004.19 159.005 1004.19 Q162.64 1004.19 164.445 1000.65 Q166.274 997.085 166.274 989.979 Q166.274 982.849 164.445 979.307 Q162.64 975.743 159.005 975.743 M159.005 972.039 Q164.815 972.039 167.871 976.645 Q170.95 981.229 170.95 989.979 Q170.95 998.705 167.871 1003.31 Q164.815 1007.9 159.005 1007.9 Q153.195 1007.9 150.116 1003.31 Q147.061 998.705 147.061 989.979 Q147.061 981.229 150.116 976.645 Q153.195 972.039 159.005 972.039 Z" fill="#000000" fill-rule="evenodd" fill-opacity="1" /><path clip-path="url(#clip790)" d="M 0 0 M176.019 1001.34 L180.903 1001.34 L180.903 1007.22 L176.019 1007.22 L176.019 1001.34 Z" fill="#000000" fill-rule="evenodd" fill-opacity="1" /><path clip-path="url(#clip790)" d="M 0 0 M186.019 972.664 L204.375 972.664 L204.375 976.599 L190.301 976.599 L190.301 985.071 Q191.32 984.724 192.338 984.562 Q193.357 984.377 194.375 984.377 Q200.162 984.377 203.542 987.548 Q206.922 990.719 206.922 996.136 Q206.922 1001.71 203.449 1004.82 Q199.977 1007.9 193.658 1007.9 Q191.482 1007.9 189.213 1007.52 Q186.968 1007.15 184.561 1006.41 L184.561 1001.71 Q186.644 1002.85 188.866 1003.4 Q191.088 1003.96 193.565 1003.96 Q197.57 1003.96 199.908 1001.85 Q202.246 999.747 202.246 996.136 Q202.246 992.525 199.908 990.418 Q197.57 988.312 193.565 988.312 Q191.69 988.312 189.815 988.729 Q187.963 989.145 186.019 990.025 L186.019 972.664 Z" fill="#000000" fill-rule="evenodd" fill-opacity="1" /><path clip-path="url(#clip790)" d="M 0 0 M158.01 759.125 Q154.399 759.125 152.57 762.689 Q150.765 766.231 150.765 773.361 Q150.765 780.467 152.57 784.032 Q154.399 787.574 158.01 787.574 Q161.644 787.574 163.45 784.032 Q165.278 780.467 165.278 773.361 Q165.278 766.231 163.45 762.689 Q161.644 759.125 158.01 759.125 M158.01 755.421 Q163.82 755.421 166.876 760.027 Q169.954 764.611 169.954 773.361 Q169.954 782.088 166.876 786.694 Q163.82 791.277 158.01 791.277 Q152.2 791.277 149.121 786.694 Q146.066 782.088 146.066 773.361 Q146.066 764.611 149.121 760.027 Q152.2 755.421 158.01 755.421 Z" fill="#000000" fill-rule="evenodd" fill-opacity="1" /><path clip-path="url(#clip790)" d="M 0 0 M175.024 784.726 L179.908 784.726 L179.908 790.606 L175.024 790.606 L175.024 784.726 Z" fill="#000000" fill-rule="evenodd" fill-opacity="1" /><path clip-path="url(#clip790)" d="M 0 0 M194.977 759.125 Q191.366 759.125 189.538 762.689 Q187.732 766.231 187.732 773.361 Q187.732 780.467 189.538 784.032 Q191.366 787.574 194.977 787.574 Q198.612 787.574 200.417 784.032 Q202.246 780.467 202.246 773.361 Q202.246 766.231 200.417 762.689 Q198.612 759.125 194.977 759.125 M194.977 755.421 Q200.787 755.421 203.843 760.027 Q206.922 764.611 206.922 773.361 Q206.922 782.088 203.843 786.694 Q200.787 791.277 194.977 791.277 Q189.167 791.277 186.088 786.694 Q183.033 782.088 183.033 773.361 Q183.033 764.611 186.088 760.027 Q189.167 755.421 194.977 755.421 Z" fill="#000000" fill-rule="evenodd" fill-opacity="1" /><path clip-path="url(#clip790)" d="M 0 0 M159.005 542.507 Q155.394 542.507 153.566 546.072 Q151.76 549.613 151.76 556.743 Q151.76 563.849 153.566 567.414 Q155.394 570.956 159.005 570.956 Q162.64 570.956 164.445 567.414 Q166.274 563.849 166.274 556.743 Q166.274 549.613 164.445 546.072 Q162.64 542.507 159.005 542.507 M159.005 538.803 Q164.815 538.803 167.871 543.409 Q170.95 547.993 170.95 556.743 Q170.95 565.47 167.871 570.076 Q164.815 574.659 159.005 574.659 Q153.195 574.659 150.116 570.076 Q147.061 565.47 147.061 556.743 Q147.061 547.993 150.116 543.409 Q153.195 538.803 159.005 538.803 Z" fill="#000000" fill-rule="evenodd" fill-opacity="1" /><path clip-path="url(#clip790)" d="M 0 0 M176.019 568.108 L180.903 568.108 L180.903 573.988 L176.019 573.988 L176.019 568.108 Z" fill="#000000" fill-rule="evenodd" fill-opacity="1" /><path clip-path="url(#clip790)" d="M 0 0 M186.019 539.428 L204.375 539.428 L204.375 543.363 L190.301 543.363 L190.301 551.835 Q191.32 551.488 192.338 551.326 Q193.357 551.141 194.375 551.141 Q200.162 551.141 203.542 554.312 Q206.922 557.483 206.922 562.9 Q206.922 568.479 203.449 571.581 Q199.977 574.659 193.658 574.659 Q191.482 574.659 189.213 574.289 Q186.968 573.919 184.561 573.178 L184.561 568.479 Q186.644 569.613 188.866 570.169 Q191.088 570.724 193.565 570.724 Q197.57 570.724 199.908 568.618 Q202.246 566.511 202.246 562.9 Q202.246 559.289 199.908 557.183 Q197.57 555.076 193.565 555.076 Q191.69 555.076 189.815 555.493 Q187.963 555.909 186.019 556.789 L186.019 539.428 Z" fill="#000000" fill-rule="evenodd" fill-opacity="1" /><path clip-path="url(#clip790)" d="M 0 0 M150.047 353.435 L157.686 353.435 L157.686 327.069 L149.376 328.736 L149.376 324.477 L157.64 322.81 L162.315 322.81 L162.315 353.435 L169.954 353.435 L169.954 357.37 L150.047 357.37 L150.047 353.435 Z" fill="#000000" fill-rule="evenodd" fill-opacity="1" /><path clip-path="url(#clip790)" d="M 0 0 M175.024 351.49 L179.908 351.49 L179.908 357.37 L175.024 357.37 L175.024 351.49 Z" fill="#000000" fill-rule="evenodd" fill-opacity="1" /><path clip-path="url(#clip790)" d="M 0 0 M194.977 325.889 Q191.366 325.889 189.538 329.454 Q187.732 332.995 187.732 340.125 Q187.732 347.231 189.538 350.796 Q191.366 354.338 194.977 354.338 Q198.612 354.338 200.417 350.796 Q202.246 347.231 202.246 340.125 Q202.246 332.995 200.417 329.454 Q198.612 325.889 194.977 325.889 M194.977 322.185 Q200.787 322.185 203.843 326.792 Q206.922 331.375 206.922 340.125 Q206.922 348.852 203.843 353.458 Q200.787 358.041 194.977 358.041 Q189.167 358.041 186.088 353.458 Q183.033 348.852 183.033 340.125 Q183.033 331.375 186.088 326.792 Q189.167 322.185 194.977 322.185 Z" fill="#000000" fill-rule="evenodd" fill-opacity="1" /><path clip-path="url(#clip790)" d="M 0 0 M151.042 136.817 L158.681 136.817 L158.681 110.451 L150.371 112.118 L150.371 107.859 L158.635 106.192 L163.311 106.192 L163.311 136.817 L170.95 136.817 L170.95 140.752 L151.042 140.752 L151.042 136.817 Z" fill="#000000" fill-rule="evenodd" fill-opacity="1" /><path clip-path="url(#clip790)" d="M 0 0 M176.019 134.873 L180.903 134.873 L180.903 140.752 L176.019 140.752 L176.019 134.873 Z" fill="#000000" fill-rule="evenodd" fill-opacity="1" /><path clip-path="url(#clip790)" d="M 0 0 M186.019 106.192 L204.375 106.192 L204.375 110.127 L190.301 110.127 L190.301 118.599 Q191.32 118.252 192.338 118.09 Q193.357 117.905 194.375 117.905 Q200.162 117.905 203.542 121.076 Q206.922 124.248 206.922 129.664 Q206.922 135.243 203.449 138.345 Q199.977 141.423 193.658 141.423 Q191.482 141.423 189.213 141.053 Q186.968 140.683 184.561 139.942 L184.561 135.243 Q186.644 136.377 188.866 136.933 Q191.088 137.488 193.565 137.488 Q197.57 137.488 199.908 135.382 Q202.246 133.275 202.246 129.664 Q202.246 126.053 199.908 123.947 Q197.57 121.84 193.565 121.84 Q191.69 121.84 189.815 122.257 Q187.963 122.674 186.019 123.553 L186.019 106.192 Z" fill="#000000" fill-rule="evenodd" fill-opacity="1" /><path clip-path="url(#clip790)" d="M 0 0 M46.818 898.953 L70.4666 907.674 L70.4666 890.2 L46.818 898.953 M40.4842 902.582 L40.4842 895.293 L88.0042 877.182 L88.0042 883.866 L75.8138 888.195 L75.8138 909.616 L88.0042 913.944 L88.0042 920.724 L40.4842 902.582 Z" fill="#000000" fill-rule="evenodd" fill-opacity="1" /><path clip-path="url(#clip790)" d="M 0 0 M59.1993 843.285 Q55.2526 841.089 53.3747 838.033 Q51.4968 834.978 51.4968 830.84 Q51.4968 825.27 55.4117 822.246 Q59.2948 819.223 66.4881 819.223 L88.0042 819.223 L88.0042 825.111 L66.679 825.111 Q61.5546 825.111 59.072 826.925 Q56.5894 828.739 56.5894 832.463 Q56.5894 837.015 59.6131 839.657 Q62.6368 842.298 67.8567 842.298 L88.0042 842.298 L88.0042 848.187 L66.679 848.187 Q61.5228 848.187 59.072 850.001 Q56.5894 851.815 56.5894 855.603 Q56.5894 860.091 59.6449 862.732 Q62.6686 865.374 67.8567 865.374 L88.0042 865.374 L88.0042 871.262 L52.3562 871.262 L52.3562 865.374 L57.8944 865.374 Q54.616 863.369 53.0564 860.568 Q51.4968 857.767 51.4968 853.916 Q51.4968 850.033 53.4702 847.327 Q55.4436 844.59 59.1993 843.285 Z" fill="#000000" fill-rule="evenodd" fill-opacity="1" /><path clip-path="url(#clip790)" d="M 0 0 M82.657 807.414 L101.563 807.414 L101.563 813.303 L52.3562 813.303 L52.3562 807.414 L57.7671 807.414 Q54.5842 805.568 53.0564 802.767 Q51.4968 799.935 51.4968 796.02 Q51.4968 789.527 56.6531 785.484 Q61.8093 781.41 70.212 781.41 Q78.6147 781.41 83.771 785.484 Q88.9272 789.527 88.9272 796.02 Q88.9272 799.935 87.3994 802.767 Q85.8398 805.568 82.657 807.414 M70.212 787.49 Q63.7508 787.49 60.0905 790.163 Q56.3984 792.805 56.3984 797.452 Q56.3984 802.099 60.0905 804.773 Q63.7508 807.414 70.212 807.414 Q76.6732 807.414 80.3653 804.773 Q84.0256 802.099 84.0256 797.452 Q84.0256 792.805 80.3653 790.163 Q76.6732 787.49 70.212 787.49 Z" fill="#000000" fill-rule="evenodd" fill-opacity="1" /><path clip-path="url(#clip790)" d="M 0 0 M38.479 775.268 L38.479 769.411 L88.0042 769.411 L88.0042 775.268 L38.479 775.268 Z" fill="#000000" fill-rule="evenodd" fill-opacity="1" /><path clip-path="url(#clip790)" d="M 0 0 M52.3562 763.268 L52.3562 757.412 L88.0042 757.412 L88.0042 763.268 L52.3562 763.268 M38.479 763.268 L38.479 757.412 L45.895 757.412 L45.895 763.268 L38.479 763.268 Z" fill="#000000" fill-rule="evenodd" fill-opacity="1" /><path clip-path="url(#clip790)" d="M 0 0 M42.2347 745.476 L52.3562 745.476 L52.3562 733.413 L56.9077 733.413 L56.9077 745.476 L76.2594 745.476 Q80.6199 745.476 81.8613 744.298 Q83.1026 743.089 83.1026 739.429 L83.1026 733.413 L88.0042 733.413 L88.0042 739.429 Q88.0042 746.208 85.4897 748.786 Q82.9434 751.364 76.2594 751.364 L56.9077 751.364 L56.9077 755.661 L52.3562 755.661 L52.3562 751.364 L42.2347 751.364 L42.2347 745.476 Z" fill="#000000" fill-rule="evenodd" fill-opacity="1" /><path clip-path="url(#clip790)" d="M 0 0 M73.9359 727.875 L52.3562 727.875 L52.3562 722.018 L73.7131 722.018 Q78.7739 722.018 81.3202 720.045 Q83.8346 718.072 83.8346 714.125 Q83.8346 709.382 80.8109 706.645 Q77.7872 703.876 72.5673 703.876 L52.3562 703.876 L52.3562 698.02 L88.0042 698.02 L88.0042 703.876 L82.5296 703.876 Q85.7762 706.009 87.3676 708.841 Q88.9272 711.642 88.9272 715.366 Q88.9272 721.509 85.1078 724.692 Q81.2883 727.875 73.9359 727.875 M51.4968 713.138 L51.4968 713.138 Z" fill="#000000" fill-rule="evenodd" fill-opacity="1" /><path clip-path="url(#clip790)" d="M 0 0 M57.7671 668.419 L38.479 668.419 L38.479 662.563 L88.0042 662.563 L88.0042 668.419 L82.657 668.419 Q85.8398 670.265 87.3994 673.098 Q88.9272 675.899 88.9272 679.846 Q88.9272 686.307 83.771 690.381 Q78.6147 694.423 70.212 694.423 Q61.8093 694.423 56.6531 690.381 Q51.4968 686.307 51.4968 679.846 Q51.4968 675.899 53.0564 673.098 Q54.5842 670.265 57.7671 668.419 M70.212 688.376 Q76.6732 688.376 80.3653 685.734 Q84.0256 683.06 84.0256 678.413 Q84.0256 673.766 80.3653 671.093 Q76.6732 668.419 70.212 668.419 Q63.7508 668.419 60.0905 671.093 Q56.3984 673.766 56.3984 678.413 Q56.3984 683.06 60.0905 685.734 Q63.7508 688.376 70.212 688.376 Z" fill="#000000" fill-rule="evenodd" fill-opacity="1" /><path clip-path="url(#clip790)" d="M 0 0 M68.7161 625.928 L71.5806 625.928 L71.5806 652.855 Q77.6281 652.473 80.8109 649.227 Q83.9619 645.948 83.9619 640.124 Q83.9619 636.75 83.1344 633.599 Q82.3069 630.416 80.6518 627.297 L86.1899 627.297 Q87.5267 630.448 88.227 633.758 Q88.9272 637.068 88.9272 640.474 Q88.9272 649.004 83.9619 654.001 Q78.9967 658.966 70.5303 658.966 Q61.7774 658.966 56.6531 654.255 Q51.4968 649.513 51.4968 641.492 Q51.4968 634.299 56.1438 630.129 Q60.7589 625.928 68.7161 625.928 M66.9973 631.784 Q62.1912 631.848 59.3266 634.49 Q56.4621 637.1 56.4621 641.429 Q56.4621 646.33 59.2312 649.29 Q62.0002 652.218 67.0292 652.664 L66.9973 631.784 Z" fill="#000000" fill-rule="evenodd" fill-opacity="1" /><path clip-path="url(#clip790)" d="M 0 0 M1023.21 28.5427 L1023.21 35.5912 Q1020.05 33.9709 1016.65 33.1607 Q1013.24 32.3505 1009.6 32.3505 Q1004.05 32.3505 1001.25 34.0519 Q998.497 35.7533 998.497 39.156 Q998.497 41.7486 1000.48 43.2475 Q1002.47 44.7058 1008.46 46.0426 L1011.01 46.6097 Q1018.95 48.3111 1022.28 51.4303 Q1025.64 54.509 1025.64 60.0587 Q1025.64 66.3781 1020.62 70.0644 Q1015.63 73.7508 1006.88 73.7508 Q1003.24 73.7508 999.267 73.0216 Q995.338 72.3329 990.963 70.9151 L990.963 63.2184 Q995.094 65.3654 999.105 66.4591 Q1003.12 67.5124 1007.04 67.5124 Q1012.31 67.5124 1015.15 65.73 Q1017.98 63.9071 1017.98 60.6258 Q1017.98 57.5877 1015.92 55.9673 Q1013.89 54.3469 1006.96 52.8481 L1004.37 52.2405 Q997.444 50.7821 994.365 47.7845 Q991.287 44.7463 991.287 39.4801 Q991.287 33.0797 995.824 29.5959 Q1000.36 26.1121 1008.71 26.1121 Q1012.84 26.1121 1016.48 26.7198 Q1020.13 27.3274 1023.21 28.5427 Z" fill="#000000" fill-rule="evenodd" fill-opacity="1" /><path clip-path="url(#clip790)" d="M 0 0 M1033.46 27.2059 L1040.91 27.2059 L1040.91 72.576 L1033.46 72.576 L1033.46 27.2059 M1033.46 9.54393 L1040.91 9.54393 L1040.91 18.9825 L1033.46 18.9825 L1033.46 9.54393 Z" fill="#000000" fill-rule="evenodd" fill-opacity="1" /><path clip-path="url(#clip790)" d="M 0 0 M1086.44 45.1919 L1086.44 72.576 L1078.99 72.576 L1078.99 45.4349 Q1078.99 38.994 1076.48 35.7938 Q1073.97 32.5936 1068.94 32.5936 Q1062.91 32.5936 1059.42 36.4419 Q1055.94 40.2903 1055.94 46.9338 L1055.94 72.576 L1048.44 72.576 L1048.44 27.2059 L1055.94 27.2059 L1055.94 34.2544 Q1058.61 30.163 1062.22 28.1376 Q1065.86 26.1121 1070.6 26.1121 Q1078.42 26.1121 1082.43 30.9732 Q1086.44 35.7938 1086.44 45.1919 Z" fill="#000000" fill-rule="evenodd" fill-opacity="1" /><path clip-path="url(#clip790)" d="M 0 0 M1141.25 49.7694 Q1132.22 49.7694 1128.73 51.8354 Q1125.25 53.9013 1125.25 58.8839 Q1125.25 62.8538 1127.84 65.2034 Q1130.48 67.5124 1134.97 67.5124 Q1141.17 67.5124 1144.9 63.1374 Q1148.66 58.7219 1148.66 51.4303 L1148.66 49.7694 L1141.25 49.7694 M1156.12 46.6907 L1156.12 72.576 L1148.66 72.576 L1148.66 65.6895 Q1146.11 69.8214 1142.3 71.8063 Q1138.5 73.7508 1132.99 73.7508 Q1126.02 73.7508 1121.89 69.8619 Q1117.8 65.9325 1117.8 59.3701 Q1117.8 51.7138 1122.9 47.825 Q1128.05 43.9361 1138.21 43.9361 L1148.66 43.9361 L1148.66 43.2069 Q1148.66 38.0623 1145.26 35.2672 Q1141.9 32.4315 1135.78 32.4315 Q1131.89 32.4315 1128.21 33.3632 Q1124.52 34.295 1121.12 36.1584 L1121.12 29.2718 Q1125.21 27.692 1129.06 26.9223 Q1132.91 26.1121 1136.55 26.1121 Q1146.4 26.1121 1151.26 31.2163 Q1156.12 36.3204 1156.12 46.6907 Z" fill="#000000" fill-rule="evenodd" fill-opacity="1" /><path clip-path="url(#clip790)" d="M 0 0 M1201.65 45.1919 L1201.65 72.576 L1194.2 72.576 L1194.2 45.4349 Q1194.2 38.994 1191.68 35.7938 Q1189.17 32.5936 1184.15 32.5936 Q1178.11 32.5936 1174.63 36.4419 Q1171.15 40.2903 1171.15 46.9338 L1171.15 72.576 L1163.65 72.576 L1163.65 27.2059 L1171.15 27.2059 L1171.15 34.2544 Q1173.82 30.163 1177.43 28.1376 Q1181.07 26.1121 1185.81 26.1121 Q1193.63 26.1121 1197.64 30.9732 Q1201.65 35.7938 1201.65 45.1919 Z" fill="#000000" fill-rule="evenodd" fill-opacity="1" /><path clip-path="url(#clip790)" d="M 0 0 M1239.32 34.0924 L1239.32 9.54393 L1246.78 9.54393 L1246.78 72.576 L1239.32 72.576 L1239.32 65.7705 Q1236.97 69.8214 1233.37 71.8063 Q1229.8 73.7508 1224.78 73.7508 Q1216.56 73.7508 1211.37 67.1883 Q1206.23 60.6258 1206.23 49.9314 Q1206.23 39.2371 1211.37 32.6746 Q1216.56 26.1121 1224.78 26.1121 Q1229.8 26.1121 1233.37 28.0971 Q1236.97 30.0415 1239.32 34.0924 M1213.92 49.9314 Q1213.92 58.1548 1217.29 62.8538 Q1220.69 67.5124 1226.6 67.5124 Q1232.52 67.5124 1235.92 62.8538 Q1239.32 58.1548 1239.32 49.9314 Q1239.32 41.7081 1235.92 37.0496 Q1232.52 32.3505 1226.6 32.3505 Q1220.69 32.3505 1217.29 37.0496 Q1213.92 41.7081 1213.92 49.9314 Z" fill="#000000" fill-rule="evenodd" fill-opacity="1" /><path clip-path="url(#clip790)" d="M 0 0 M1313.62 28.9478 L1313.62 35.9153 Q1310.46 34.1734 1307.26 33.3227 Q1304.1 32.4315 1300.86 32.4315 Q1293.61 32.4315 1289.6 37.0496 Q1285.58 41.6271 1285.58 49.9314 Q1285.58 58.2358 1289.6 62.8538 Q1293.61 67.4314 1300.86 67.4314 Q1304.1 67.4314 1307.26 66.5807 Q1310.46 65.6895 1313.62 63.9476 L1313.62 70.8341 Q1310.5 72.2924 1307.14 73.0216 Q1303.81 73.7508 1300.05 73.7508 Q1289.8 73.7508 1283.76 67.3098 Q1277.73 60.8689 1277.73 49.9314 Q1277.73 38.832 1283.8 32.472 Q1289.92 26.1121 1300.53 26.1121 Q1303.98 26.1121 1307.26 26.8413 Q1310.54 27.5299 1313.62 28.9478 Z" fill="#000000" fill-rule="evenodd" fill-opacity="1" /><path clip-path="url(#clip790)" d="M 0 0 M1339.02 32.4315 Q1333.02 32.4315 1329.54 37.1306 Q1326.05 41.7891 1326.05 49.9314 Q1326.05 58.0738 1329.5 62.7728 Q1332.98 67.4314 1339.02 67.4314 Q1344.97 67.4314 1348.45 62.7323 Q1351.94 58.0333 1351.94 49.9314 Q1351.94 41.8701 1348.45 37.1711 Q1344.97 32.4315 1339.02 32.4315 M1339.02 26.1121 Q1348.74 26.1121 1354.29 32.4315 Q1359.84 38.7509 1359.84 49.9314 Q1359.84 61.0714 1354.29 67.4314 Q1348.74 73.7508 1339.02 73.7508 Q1329.25 73.7508 1323.7 67.4314 Q1318.19 61.0714 1318.19 49.9314 Q1318.19 38.7509 1323.7 32.4315 Q1329.25 26.1121 1339.02 26.1121 Z" fill="#000000" fill-rule="evenodd" fill-opacity="1" /><path clip-path="url(#clip790)" d="M 0 0 M1396.58 28.5427 L1396.58 35.5912 Q1393.42 33.9709 1390.02 33.1607 Q1386.61 32.3505 1382.97 32.3505 Q1377.42 32.3505 1374.62 34.0519 Q1371.87 35.7533 1371.87 39.156 Q1371.87 41.7486 1373.85 43.2475 Q1375.84 44.7058 1381.83 46.0426 L1384.39 46.6097 Q1392.33 48.3111 1395.65 51.4303 Q1399.01 54.509 1399.01 60.0587 Q1399.01 66.3781 1393.99 70.0644 Q1389 73.7508 1380.25 73.7508 Q1376.61 73.7508 1372.64 73.0216 Q1368.71 72.3329 1364.33 70.9151 L1364.33 63.2184 Q1368.47 65.3654 1372.48 66.4591 Q1376.49 67.5124 1380.42 67.5124 Q1385.68 67.5124 1388.52 65.73 Q1391.35 63.9071 1391.35 60.6258 Q1391.35 57.5877 1389.29 55.9673 Q1387.26 54.3469 1380.34 52.8481 L1377.74 52.2405 Q1370.82 50.7821 1367.74 47.7845 Q1364.66 44.7463 1364.66 39.4801 Q1364.66 33.0797 1369.2 29.5959 Q1373.73 26.1121 1382.08 26.1121 Q1386.21 26.1121 1389.86 26.7198 Q1393.5 27.3274 1396.58 28.5427 Z" fill="#000000" fill-rule="evenodd" fill-opacity="1" /><path clip-path="url(#clip790)" d="M 0 0 M1440.41 65.7705 L1440.41 89.8329 L1432.92 89.8329 L1432.92 27.2059 L1440.41 27.2059 L1440.41 34.0924 Q1442.76 30.0415 1446.32 28.0971 Q1449.93 26.1121 1454.91 26.1121 Q1463.18 26.1121 1468.32 32.6746 Q1473.51 39.2371 1473.51 49.9314 Q1473.51 60.6258 1468.32 67.1883 Q1463.18 73.7508 1454.91 73.7508 Q1449.93 73.7508 1446.32 71.8063 Q1442.76 69.8214 1440.41 65.7705 M1465.77 49.9314 Q1465.77 41.7081 1462.37 37.0496 Q1459 32.3505 1453.09 32.3505 Q1447.18 32.3505 1443.77 37.0496 Q1440.41 41.7081 1440.41 49.9314 Q1440.41 58.1548 1443.77 62.8538 Q1447.18 67.5124 1453.09 67.5124 Q1459 67.5124 1462.37 62.8538 Q1465.77 58.1548 1465.77 49.9314 Z" fill="#000000" fill-rule="evenodd" fill-opacity="1" /><path clip-path="url(#clip790)" d="M 0 0 M1481.32 9.54393 L1488.78 9.54393 L1488.78 72.576 L1481.32 72.576 L1481.32 9.54393 Z" fill="#000000" fill-rule="evenodd" fill-opacity="1" /><path clip-path="url(#clip790)" d="M 0 0 M1514.18 32.4315 Q1508.18 32.4315 1504.7 37.1306 Q1501.21 41.7891 1501.21 49.9314 Q1501.21 58.0738 1504.66 62.7728 Q1508.14 67.4314 1514.18 67.4314 Q1520.13 67.4314 1523.62 62.7323 Q1527.1 58.0333 1527.1 49.9314 Q1527.1 41.8701 1523.62 37.1711 Q1520.13 32.4315 1514.18 32.4315 M1514.18 26.1121 Q1523.9 26.1121 1529.45 32.4315 Q1535 38.7509 1535 49.9314 Q1535 61.0714 1529.45 67.4314 Q1523.9 73.7508 1514.18 73.7508 Q1504.41 73.7508 1498.86 67.4314 Q1493.36 61.0714 1493.36 49.9314 Q1493.36 38.7509 1498.86 32.4315 Q1504.41 26.1121 1514.18 26.1121 Z" fill="#000000" fill-rule="evenodd" fill-opacity="1" /><path clip-path="url(#clip790)" d="M 0 0 M1550.19 14.324 L1550.19 27.2059 L1565.54 27.2059 L1565.54 32.9987 L1550.19 32.9987 L1550.19 57.6282 Q1550.19 63.1779 1551.69 64.7578 Q1553.23 66.3376 1557.89 66.3376 L1565.54 66.3376 L1565.54 72.576 L1557.89 72.576 Q1549.26 72.576 1545.98 69.3758 Q1542.7 66.1351 1542.7 57.6282 L1542.7 32.9987 L1537.23 32.9987 L1537.23 27.2059 L1542.7 27.2059 L1542.7 14.324 L1550.19 14.324 Z" fill="#000000" fill-rule="evenodd" fill-opacity="1" /><path clip-path="url(#clip790)" d="M 0 0 M1602.28 28.5427 L1602.28 35.5912 Q1599.12 33.9709 1595.72 33.1607 Q1592.32 32.3505 1588.67 32.3505 Q1583.12 32.3505 1580.33 34.0519 Q1577.57 35.7533 1577.57 39.156 Q1577.57 41.7486 1579.56 43.2475 Q1581.54 44.7058 1587.54 46.0426 L1590.09 46.6097 Q1598.03 48.3111 1601.35 51.4303 Q1604.72 54.509 1604.72 60.0587 Q1604.72 66.3781 1599.69 70.0644 Q1594.71 73.7508 1585.96 73.7508 Q1582.31 73.7508 1578.34 73.0216 Q1574.41 72.3329 1570.04 70.9151 L1570.04 63.2184 Q1574.17 65.3654 1578.18 66.4591 Q1582.19 67.5124 1586.12 67.5124 Q1591.39 67.5124 1594.22 65.73 Q1597.06 63.9071 1597.06 60.6258 Q1597.06 57.5877 1594.99 55.9673 Q1592.97 54.3469 1586.04 52.8481 L1583.45 52.2405 Q1576.52 50.7821 1573.44 47.7845 Q1570.36 44.7463 1570.36 39.4801 Q1570.36 33.0797 1574.9 29.5959 Q1579.44 26.1121 1587.78 26.1121 Q1591.91 26.1121 1595.56 26.7198 Q1599.21 27.3274 1602.28 28.5427 Z" fill="#000000" fill-rule="evenodd" fill-opacity="1" /><polyline clip-path="url(#clip792)" style="stroke:#800080; stroke-width:12; stroke-opacity:1; fill:none" points="
  350.947,773.326 352.454,768.994 353.961,764.662 355.468,760.331 356.976,756.001 358.483,751.673 359.99,747.347 361.497,743.024 363.004,738.704 364.511,734.387 
  366.018,730.075 367.525,725.766 369.032,721.462 370.539,717.164 372.046,712.871 373.553,708.584 375.06,704.304 376.567,700.03 378.074,695.764 379.581,691.506 
  381.088,687.255 382.595,683.014 384.102,678.781 385.609,674.558 387.116,670.345 388.623,666.142 390.13,661.949 391.637,657.768 393.144,653.599 394.651,649.441 
  396.158,645.296 397.665,641.164 399.172,637.044 400.679,632.939 402.186,628.847 403.693,624.77 405.2,620.708 406.707,616.661 408.214,612.63 409.721,608.615 
  411.228,604.616 412.735,600.634 414.242,596.67 415.749,592.723 417.256,588.794 418.764,584.883 420.271,580.992 421.778,577.119 423.285,573.267 424.792,569.434 
  426.299,565.622 427.806,561.83 429.313,558.06 430.82,554.311 432.327,550.584 433.834,546.879 435.341,543.197 436.848,539.538 438.355,535.902 439.862,532.29 
  441.369,528.703 442.876,525.139 444.383,521.601 445.89,518.087 447.397,514.599 448.904,511.138 450.411,507.702 451.918,504.293 453.425,500.91 454.932,497.555 
  456.439,494.228 457.946,490.928 459.453,487.657 460.96,484.414 462.467,481.2 463.974,478.016 465.481,474.86 466.988,471.735 468.495,468.64 470.002,465.575 
  471.509,462.542 473.016,459.539 474.523,456.567 476.03,453.628 477.537,450.72 479.045,447.844 480.552,445.001 482.059,442.191 483.566,439.414 485.073,436.671 
  486.58,433.961 488.087,431.285 489.594,428.643 491.101,426.035 492.608,423.463 494.115,420.925 495.622,418.423 497.129,415.956 498.636,413.525 500.143,411.13 
  501.65,408.771 503.157,406.448 504.664,404.162 506.171,401.913 507.678,399.702 509.185,397.527 510.692,395.39 512.199,393.291 513.706,391.23 515.213,389.207 
  516.72,387.223 518.227,385.277 519.734,383.37 521.241,381.502 522.748,379.673 524.255,377.884 525.762,376.134 527.269,374.424 528.776,372.753 530.283,371.123 
  531.79,369.533 533.297,367.984 534.804,366.474 536.311,365.006 537.818,363.578 539.325,362.192 540.833,360.846 542.34,359.542 543.847,358.279 545.354,357.058 
  546.861,355.878 548.368,354.74 549.875,353.644 551.382,352.59 552.889,351.578 554.396,350.608 555.903,349.68 557.41,348.795 558.917,347.952 560.424,347.151 
  561.931,346.394 563.438,345.679 564.945,345.007 566.452,344.377 567.959,343.791 569.466,343.247 570.973,342.747 572.48,342.289 573.987,341.875 575.494,341.503 
  577.001,341.175 578.508,340.89 580.015,340.649 581.522,340.451 583.029,340.296 584.536,340.184 586.043,340.115 587.55,340.09 589.057,340.108 590.564,340.17 
  592.071,340.275 593.578,340.423 595.085,340.614 596.592,340.849 598.099,341.127 599.606,341.448 601.113,341.813 602.621,342.22 604.128,342.671 605.635,343.164 
  607.142,343.701 608.649,344.281 610.156,344.903 611.663,345.569 613.17,346.277 614.677,347.028 616.184,347.821 617.691,348.658 619.198,349.536 620.705,350.457 
  622.212,351.42 623.719,352.426 625.226,353.473 626.733,354.563 628.24,355.694 629.747,356.867 631.254,358.082 632.761,359.338 634.268,360.636 635.775,361.975 
  637.282,363.355 638.789,364.776 640.296,366.238 641.803,367.74 643.31,369.284 644.817,370.867 646.324,372.491 647.831,374.155 649.338,375.859 650.845,377.603 
  652.352,379.386 653.859,381.208 655.366,383.07 656.873,384.971 658.38,386.91 659.887,388.889 661.394,390.905 662.901,392.96 664.409,395.053 665.916,397.184 
  667.423,399.353 668.93,401.559 670.437,403.802 671.944,406.082 673.451,408.398 674.958,410.751 676.465,413.141 677.972,415.566 679.479,418.028 680.986,420.524 
  682.493,423.056 684,425.623 685.507,428.225 687.014,430.862 688.521,433.532 690.028,436.237 691.535,438.975 693.042,441.747 694.549,444.552 696.056,447.389 
  697.563,450.26 699.07,453.162 700.577,456.097 702.084,459.063 703.591,462.061 705.098,465.09 706.605,468.15 708.112,471.24 709.619,474.361 711.126,477.511 
  712.633,480.691 714.14,483.9 715.647,487.138 717.154,490.405 718.661,493.7 720.168,497.023 721.675,500.374 723.182,503.752 724.689,507.157 726.197,510.589 
  727.704,514.046 729.211,517.53 730.718,521.039 732.225,524.574 733.732,528.133 735.239,531.717 736.746,535.325 738.253,538.957 739.76,542.613 741.267,546.291 
  742.774,549.992 744.281,553.716 745.788,557.461 747.295,561.228 748.802,565.016 750.309,568.825 751.816,572.655 753.323,576.504 754.83,580.374 756.337,584.262 
  757.844,588.17 759.351,592.096 760.858,596.04 762.365,600.002 763.872,603.981 765.379,607.977 766.886,611.989 768.393,616.018 769.9,620.063 771.407,624.122 
  772.914,628.197 774.421,632.286 775.928,636.39 777.435,640.507 778.942,644.637 780.449,648.78 781.956,652.936 783.463,657.103 784.97,661.283 786.477,665.473 
  787.985,669.675 789.492,673.886 790.999,678.108 792.506,682.339 794.013,686.579 795.52,690.828 797.027,695.085 798.534,699.35 800.041,703.623 801.548,707.902 
  803.055,712.188 804.562,716.48 806.069,720.777 807.576,725.08 809.083,729.388 810.59,733.7 812.097,738.016 813.604,742.336 815.111,746.659 816.618,750.984 
  818.125,755.312 819.632,759.641 821.139,763.972 822.646,768.304 824.153,772.636 825.66,776.968 827.167,781.3 828.674,785.631 830.181,789.961 831.688,794.29 
  833.195,798.616 834.702,802.939 836.209,807.26 837.716,811.577 839.223,815.891 840.73,820.2 842.237,824.505 843.744,828.804 845.251,833.098 846.758,837.386 
  848.265,841.667 849.773,845.942 851.28,850.209 852.787,854.469 854.294,858.72 855.801,862.963 857.308,867.197 858.815,871.422 860.322,875.637 861.829,879.842 
  863.336,884.036 864.843,888.218 866.35,892.39 867.857,896.549 869.364,900.697 870.871,904.831 872.378,908.952 873.885,913.06 875.392,917.154 876.899,921.233 
  878.406,925.298 879.913,929.347 881.42,933.381 882.927,937.399 884.434,941.4 885.941,945.385 887.448,949.352 888.955,953.302 890.462,957.234 891.969,961.147 
  893.476,965.042 894.983,968.917 896.49,972.773 897.997,976.609 899.504,980.425 901.011,984.219 902.518,987.993 904.025,991.746 905.532,995.476 907.039,999.184 
  908.546,1002.87 910.053,1006.53 911.561,1010.17 913.068,1013.79 914.575,1017.38 916.082,1020.95 917.589,1024.49 919.096,1028.01 920.603,1031.5 922.11,1034.96 
  923.617,1038.4 925.124,1041.82 926.631,1045.2 928.138,1048.56 929.645,1051.9 931.152,1055.2 932.659,1058.48 934.166,1061.72 935.673,1064.94 937.18,1068.13 
  938.687,1071.29 940.194,1074.42 941.701,1077.52 943.208,1080.59 944.715,1083.63 946.222,1086.64 947.729,1089.61 949.236,1092.56 950.743,1095.47 952.25,1098.35 
  953.757,1101.2 955.264,1104.02 956.771,1106.8 958.278,1109.55 959.785,1112.26 961.292,1114.94 962.799,1117.59 964.306,1120.2 965.813,1122.78 967.32,1125.32 
  968.827,1127.83 970.334,1130.31 971.841,1132.74 973.349,1135.14 974.856,1137.51 976.363,1139.84 977.87,1142.13 979.377,1144.38 980.884,1146.6 982.391,1148.78 
  983.898,1150.92 985.405,1153.03 986.912,1155.1 988.419,1157.12 989.926,1159.12 991.433,1161.07 992.94,1162.98 994.447,1164.85 995.954,1166.69 997.461,1168.49 
  998.968,1170.24 1000.47,1171.96 1001.98,1173.64 1003.49,1175.27 1005,1176.87 1006.5,1178.42 1008.01,1179.94 1009.52,1181.41 1011.02,1182.85 1012.53,1184.24 
  1014.04,1185.59 1015.55,1186.91 1017.05,1188.17 1018.56,1189.4 1020.07,1190.59 1021.57,1191.73 1023.08,1192.84 1024.59,1193.9 1026.09,1194.92 1027.6,1195.89 
  1029.11,1196.83 1030.62,1197.72 1032.12,1198.57 1033.63,1199.38 1035.14,1200.14 1036.64,1200.86 1038.15,1201.54 1039.66,1202.18 1041.16,1202.77 1042.67,1203.32 
  1044.18,1203.83 1045.69,1204.29 1047.19,1204.71 1048.7,1205.09 1050.21,1205.43 1051.71,1205.72 1053.22,1205.97 1054.73,1206.17 1056.23,1206.33 1057.74,1206.45 
  1059.25,1206.53 1060.76,1206.56 1062.26,1206.55 1063.77,1206.49 1065.28,1206.4 1066.78,1206.26 1068.29,1206.07 1069.8,1205.84 1071.31,1205.57 1072.81,1205.26 
  1074.32,1204.9 1075.83,1204.5 1077.33,1204.06 1078.84,1203.57 1080.35,1203.04 1081.85,1202.47 1083.36,1201.85 1084.87,1201.19 1086.38,1200.49 1087.88,1199.75 
  1089.39,1198.96 1090.9,1198.13 1092.4,1197.26 1093.91,1196.34 1095.42,1195.39 1096.92,1194.39 1098.43,1193.35 1099.94,1192.27 1101.45,1191.14 1102.95,1189.97 
  1104.46,1188.77 1105.97,1187.52 1107.47,1186.23 1108.98,1184.89 1110.49,1183.52 1111.99,1182.11 1113.5,1180.65 1115.01,1179.15 1116.52,1177.62 1118.02,1176.04 
  1119.53,1174.42 1121.04,1172.76 1122.54,1171.07 1124.05,1169.33 1125.56,1167.55 1127.07,1165.74 1128.57,1163.88 1130.08,1161.99 1131.59,1160.05 1133.09,1158.08 
  1134.6,1156.07 1136.11,1154.02 1137.61,1151.93 1139.12,1149.81 1140.63,1147.65 1142.14,1145.45 1143.64,1143.21 1145.15,1140.94 1146.66,1138.63 1148.16,1136.28 
  1149.67,1133.89 1151.18,1131.47 1152.68,1129.02 1154.19,1126.53 1155.7,1124 1157.21,1121.44 1158.71,1118.84 1160.22,1116.21 1161.73,1113.55 1163.23,1110.85 
  1164.74,1108.12 1166.25,1105.35 1167.75,1102.55 1169.26,1099.72 1170.77,1096.85 1172.28,1093.95 1173.78,1091.02 1175.29,1088.06 1176.8,1085.07 1178.3,1082.05 
  1179.81,1078.99 1181.32,1075.91 1182.82,1072.79 1184.33,1069.64 1185.84,1066.47 1187.35,1063.26 1188.85,1060.03 1190.36,1056.77 1191.87,1053.48 1193.37,1050.16 
  1194.88,1046.81 1196.39,1043.44 1197.9,1040.04 1199.4,1036.61 1200.91,1033.16 1202.42,1029.68 1203.92,1026.17 1205.43,1022.64 1206.94,1019.09 1208.44,1015.51 
  1209.95,1011.9 1211.46,1008.27 1212.97,1004.62 1214.47,1000.95 1215.98,997.251 1217.49,993.531 1218.99,989.789 1220.5,986.025 1222.01,982.24 1223.51,978.435 
  1225.02,974.608 1226.53,970.762 1228.04,966.896 1229.54,963.01 1231.05,959.106 1232.56,955.183 1234.06,951.242 1235.57,947.283 1237.08,943.306 1238.58,939.313 
  1240.09,935.303 1241.6,931.277 1243.11,927.235 1244.61,923.177 1246.12,919.105 1247.63,915.018 1249.13,910.917 1250.64,906.802 1252.15,902.674 1253.66,898.532 
  1255.16,894.379 1256.67,890.213 1258.18,886.036 1259.68,881.847 1261.19,877.647 1262.7,873.437 1264.2,869.217 1265.71,864.988 1267.22,860.749 1268.73,856.501 
  1270.23,852.245 1271.74,847.982 1273.25,843.71 1274.75,839.432 1276.26,835.147 1277.77,830.856 1279.27,826.559 1280.78,822.257 1282.29,817.95 1283.8,813.639 
  1285.3,809.323 1286.81,805.004 1288.32,800.682 1289.82,796.357 1291.33,792.03 1292.84,787.7 1294.34,783.37 1295.85,779.038 1297.36,774.706 1298.87,770.374 
  1300.37,766.042 1301.88,761.71 1303.39,757.38 1304.89,753.052 1306.4,748.725 1307.91,744.401 1309.41,740.08 1310.92,735.762 1312.43,731.448 1313.94,727.138 
  1315.44,722.833 1316.95,718.532 1318.46,714.238 1319.96,709.949 1321.47,705.666 1322.98,701.391 1324.49,697.122 1325.99,692.861 1327.5,688.608 1329.01,684.364 
  1330.51,680.128 1332.02,675.902 1333.53,671.686 1335.03,667.479 1336.54,663.284 1338.05,659.099 1339.56,654.926 1341.06,650.764 1342.57,646.615 1344.08,642.479 
  1345.58,638.355 1347.09,634.245 1348.6,630.149 1350.1,626.067 1351.61,622 1353.12,617.949 1354.63,613.912 1356.13,609.892 1357.64,605.888 1359.15,601.901 
  1360.65,597.93 1362.16,593.978 1363.67,590.043 1365.17,586.127 1366.68,582.229 1368.19,578.351 1369.7,574.492 1371.2,570.653 1372.71,566.834 1374.22,563.036 
  1375.72,559.258 1377.23,555.503 1378.74,551.769 1380.25,548.057 1381.75,544.367 1383.26,540.701 1384.77,537.058 1386.27,533.438 1387.78,529.843 1389.29,526.272 
  1390.79,522.725 1392.3,519.204 1393.81,515.708 1395.32,512.237 1396.82,508.793 1398.33,505.376 1399.84,501.985 1401.34,498.621 1402.85,495.285 1404.36,491.976 
  1405.86,488.696 1407.37,485.444 1408.88,482.221 1410.39,479.027 1411.89,475.862 1413.4,472.727 1414.91,469.623 1416.41,466.548 1417.92,463.505 1419.43,460.492 
  1420.93,457.51 1422.44,454.561 1423.95,451.643 1425.46,448.757 1426.96,445.903 1428.47,443.083 1429.98,440.295 1431.48,437.541 1432.99,434.82 1434.5,432.133 
  1436.01,429.481 1437.51,426.862 1439.02,424.278 1440.53,421.73 1442.03,419.216 1443.54,416.738 1445.05,414.295 1446.55,411.889 1448.06,409.518 1449.57,407.184 
  1451.08,404.886 1452.58,402.626 1454.09,400.402 1455.6,398.216 1457.1,396.067 1458.61,393.956 1460.12,391.883 1461.62,389.848 1463.13,387.851 1464.64,385.893 
  1466.15,383.973 1467.65,382.093 1469.16,380.252 1470.67,378.45 1472.17,376.687 1473.68,374.964 1475.19,373.281 1476.69,371.638 1478.2,370.035 1479.71,368.473 
  1481.22,366.951 1482.72,365.469 1484.23,364.029 1485.74,362.629 1487.24,361.27 1488.75,359.953 1490.26,358.677 1491.76,357.442 1493.27,356.249 1494.78,355.098 
  1496.29,353.988 1497.79,352.921 1499.3,351.895 1500.81,350.912 1502.31,349.971 1503.82,349.072 1505.33,348.216 1506.84,347.402 1508.34,346.63 1509.85,345.902 
  1511.36,345.216 1512.86,344.573 1514.37,343.973 1515.88,343.416 1517.38,342.901 1518.89,342.43 1520.4,342.002 1521.91,341.617 1523.41,341.275 1524.92,340.977 
  1526.43,340.721 1527.93,340.509 1529.44,340.34 1530.95,340.215 1532.45,340.132 1533.96,340.094 1535.47,340.098 1536.98,340.146 1538.48,340.237 1539.99,340.371 
  1541.5,340.549 1543,340.77 1544.51,341.034 1546.02,341.341 1547.52,341.692 1549.03,342.086 1550.54,342.523 1552.05,343.003 1553.55,343.526 1555.06,344.092 
  1556.57,344.7 1558.07,345.352 1559.58,346.047 1561.09,346.784 1562.6,347.564 1564.1,348.387 1565.61,349.252 1567.12,350.159 1568.62,351.109 1570.13,352.101 
  1571.64,353.135 1573.14,354.211 1574.65,355.329 1576.16,356.489 1577.67,357.69 1579.17,358.933 1580.68,360.218 1582.19,361.544 1583.69,362.911 1585.2,364.319 
  1586.71,365.768 1588.21,367.257 1589.72,368.788 1591.23,370.358 1592.74,371.97 1594.24,373.621 1595.75,375.312 1597.26,377.043 1598.76,378.813 1600.27,380.623 
  1601.78,382.473 1603.28,384.361 1604.79,386.288 1606.3,388.254 1607.81,390.259 1609.31,392.302 1610.82,394.383 1612.33,396.501 1613.83,398.658 1615.34,400.852 
  1616.85,403.083 1618.35,405.351 1619.86,407.656 1621.37,409.998 1622.88,412.376 1624.38,414.79 1625.89,417.24 1627.4,419.725 1628.9,422.246 1630.41,424.802 
  1631.92,427.393 1633.43,430.018 1634.93,432.678 1636.44,435.372 1637.95,438.099 1639.45,440.86 1640.96,443.655 1642.47,446.482 1643.97,449.342 1645.48,452.234 
  1646.99,455.159 1648.5,458.115 1650,461.103 1651.51,464.122 1653.02,467.172 1654.52,470.253 1656.03,473.363 1657.54,476.504 1659.04,479.675 1660.55,482.875 
  1662.06,486.104 1663.57,489.362 1665.07,492.648 1666.58,495.962 1668.09,499.304 1669.59,502.673 1671.1,506.07 1672.61,509.493 1674.11,512.942 1675.62,516.418 
  1677.13,519.919 1678.64,523.445 1680.14,526.997 1681.65,530.573 1683.16,534.174 1684.66,537.798 1686.17,541.446 1687.68,545.117 1689.19,548.811 1690.69,552.527 
  1692.2,556.266 1693.71,560.026 1695.21,563.807 1696.72,567.61 1698.23,571.433 1699.73,575.276 1701.24,579.139 1702.75,583.022 1704.26,586.923 1705.76,590.843 
  1707.27,594.781 1708.78,598.738 1710.28,602.711 1711.79,606.702 1713.3,610.709 1714.8,614.733 1716.31,618.773 1717.82,622.828 1719.33,626.898 1720.83,630.982 
  1722.34,635.081 1723.85,639.194 1725.35,643.32 1726.86,647.459 1728.37,651.611 1729.87,655.775 1731.38,659.95 1732.89,664.137 1734.4,668.335 1735.9,672.544 
  1737.41,676.762 1738.92,680.99 1740.42,685.228 1741.93,689.474 1743.44,693.728 1744.95,697.991 1746.45,702.261 1747.96,706.538 1749.47,710.822 1750.97,715.112 
  1752.48,719.408 1753.99,723.709 1755.49,728.015 1757,732.326 1758.51,736.641 1760.02,740.96 1761.52,745.281 1763.03,749.606 1764.54,753.933 1766.04,758.262 
  1767.55,762.592 1769.06,766.924 1770.56,771.256 1772.07,775.588 1773.58,779.92 1775.09,784.252 1776.59,788.582 1778.1,792.911 1779.61,797.238 1781.11,801.562 
  1782.62,805.884 1784.13,810.203 1785.63,814.517 1787.14,818.828 1788.65,823.134 1790.16,827.435 1791.66,831.731 1793.17,836.02 1794.68,840.304 1796.18,844.581 
  1797.69,848.851 1799.2,853.113 1800.7,857.367 1802.21,861.613 1803.72,865.85 1805.23,870.077 1806.73,874.295 1808.24,878.503 1809.75,882.701 1811.25,886.887 
  1812.76,891.062 1814.27,895.226 1815.78,899.377 1817.28,903.516 1818.79,907.641 1820.3,911.753 1821.8,915.851 1823.31,919.935 1824.82,924.005 1826.32,928.059 
  1827.83,932.098 1829.34,936.121 1830.85,940.127 1832.35,944.117 1833.86,948.09 1835.37,952.046 1836.87,955.983 1838.38,959.903 1839.89,963.803 1841.39,967.685 
  1842.9,971.547 1844.41,975.389 1845.92,979.211 1847.42,983.013 1848.93,986.793 1850.44,990.553 1851.94,994.29 1853.45,998.006 1854.96,1001.7 1856.46,1005.37 
  1857.97,1009.02 1859.48,1012.64 1860.99,1016.24 1862.49,1019.81 1864,1023.36 1865.51,1026.89 1867.01,1030.39 1868.52,1033.86 1870.03,1037.31 1871.54,1040.73 
  1873.04,1044.13 1874.55,1047.5 1876.06,1050.84 1877.56,1054.15 1879.07,1057.44 1880.58,1060.69 1882.08,1063.92 1883.59,1067.12 1885.1,1070.29 1886.61,1073.43 
  1888.11,1076.54 1889.62,1079.62 1891.13,1082.66 1892.63,1085.68 1894.14,1088.67 1895.65,1091.62 1897.15,1094.55 1898.66,1097.44 1900.17,1100.3 1901.68,1103.12 
  1903.18,1105.92 1904.69,1108.67 1906.2,1111.4 1907.7,1114.09 1909.21,1116.75 1910.72,1119.38 1912.22,1121.96 1913.73,1124.52 1915.24,1127.04 1916.75,1129.52 
  1918.25,1131.97 1919.76,1134.38 1921.27,1136.76 1922.77,1139.1 1924.28,1141.4 1925.79,1143.67 1927.29,1145.9 1928.8,1148.09 1930.31,1150.25 1931.82,1152.36 
  1933.32,1154.44 1934.83,1156.48 1936.34,1158.49 1937.84,1160.45 1939.35,1162.38 1940.86,1164.26 1942.37,1166.11 1943.87,1167.92 1945.38,1169.69 1946.89,1171.42 
  1948.39,1173.11 1949.9,1174.75 1951.41,1176.36 1952.91,1177.93 1954.42,1179.46 1955.93,1180.95 1957.44,1182.4 1958.94,1183.8 1960.45,1185.17 1961.96,1186.49 
  1963.46,1187.77 1964.97,1189.02 1966.48,1190.22 1967.98,1191.37 1969.49,1192.49 1971,1193.56 1972.51,1194.6 1974.01,1195.59 1975.52,1196.53 1977.03,1197.44 
  1978.53,1198.3 1980.04,1199.12 1981.55,1199.9 1983.05,1200.64 1984.56,1201.33 1986.07,1201.98 1987.58,1202.59 1989.08,1203.15 1990.59,1203.67 1992.1,1204.15 
  1993.6,1204.58 1995.11,1204.98 1996.62,1205.33 1998.13,1205.63 1999.63,1205.89 2001.14,1206.11 2002.65,1206.29 2004.15,1206.42 2005.66,1206.51 2007.17,1206.56 
  2008.67,1206.56 2010.18,1206.52 2011.69,1206.43 2013.2,1206.31 2014.7,1206.13 2016.21,1205.92 2017.72,1205.66 2019.22,1205.36 2020.73,1205.02 2022.24,1204.63 
  2023.74,1204.2 2025.25,1203.73 2026.76,1203.21 2028.27,1202.65 2029.77,1202.05 2031.28,1201.41 2032.79,1200.72 2034.29,1199.99 2035.8,1199.21 2037.31,1198.4 
  2038.81,1197.54 2040.32,1196.64 2041.83,1195.7 2043.34,1194.71 2044.84,1193.68 2046.35,1192.62 2047.86,1191.5 2049.36,1190.35 2050.87,1189.16 2052.38,1187.92 
  2053.89,1186.64 2055.39,1185.32 2056.9,1183.96 2058.41,1182.56 2059.91,1181.12 2061.42,1179.63 2062.93,1178.11 2064.43,1176.55 2065.94,1174.94 2067.45,1173.3 
  2068.96,1171.61 2070.46,1169.89 2071.97,1168.12 2073.48,1166.32 2074.98,1164.48 2076.49,1162.59 2078,1160.67 2079.5,1158.71 2081.01,1156.71 2082.52,1154.68 
  2084.03,1152.6 2085.53,1150.49 2087.04,1148.34 2088.55,1146.15 2090.05,1143.93 2091.56,1141.66 2093.07,1139.37 2094.57,1137.03 2096.08,1134.66 2097.59,1132.25 
  2099.1,1129.8 2100.6,1127.33 2102.11,1124.81 2103.62,1122.26 2105.12,1119.67 2106.63,1117.05 2108.14,1114.4 2109.64,1111.71 2111.15,1108.99 2112.66,1106.23 
  2114.17,1103.44 2115.67,1100.62 2117.18,1097.77 2118.69,1094.88 2120.19,1091.96 2121.7,1089.01 2123.21,1086.03 2124.72,1083.01 2126.22,1079.97 2127.73,1076.89 
  2129.24,1073.79 2130.74,1070.65 2132.25,1067.48 2133.76,1064.29 2135.26,1061.06 2136.77,1057.81 2138.28,1054.53 2139.79,1051.22 2141.29,1047.88 2142.8,1044.52 
  2144.31,1041.13 2145.81,1037.71 2147.32,1034.26 2148.83,1030.79 2150.33,1027.29 2151.84,1023.77 2153.35,1020.22 2154.86,1016.65 2156.36,1013.05 2157.87,1009.43 
  2159.38,1005.79 2160.88,1002.12 2162.39,998.431 2163.9,994.718 2165.4,990.983 2166.91,987.226 2168.42,983.448 2169.93,979.649 2171.43,975.829 2172.94,971.989 
  2174.45,968.129 2175.95,964.25 2177.46,960.352 2178.97,956.434 2180.48,952.499 2181.98,948.546 2183.49,944.575 2185,940.587 2186.5,936.582 2188.01,932.561 
  2189.52,928.524 2191.02,924.471 2192.53,920.404 2194.04,916.321 2195.55,912.225 2197.05,908.114 2198.56,903.99 2200.07,899.853 2201.57,895.703 2203.08,891.541 
  2204.59,887.367 2206.09,883.182 2207.6,878.986 2209.11,874.779 2210.62,870.562 2212.12,866.336 2213.63,862.1 2215.14,857.855 2216.64,853.602 2218.15,849.341 
  2219.66,845.072 2221.16,840.796 2222.67,836.513 2224.18,832.224 2225.69,827.929 2227.19,823.628 2228.7,819.323 2230.21,815.013 2231.71,810.698 2233.22,806.38 
  2234.73,802.059 2236.23,797.735 2237.74,793.408 2239.25,789.08 2240.76,784.749 2242.26,780.418 2243.77,776.086 
  "/>
<polyline clip-path="url(#clip792)" style="stroke:#ff0000; stroke-width:12; stroke-opacity:1; fill:none" points="
  350.947,340.09 352.454,340.112 353.961,340.177 355.468,340.285 356.976,340.437 358.483,340.632 359.99,340.87 361.497,341.151 363.004,341.476 364.511,341.844 
  366.018,342.254 367.525,342.709 369.032,343.206 370.539,343.746 372.046,344.329 373.553,344.955 375.06,345.624 376.567,346.335 378.074,347.09 379.581,347.886 
  381.088,348.726 382.595,349.608 384.102,350.532 385.609,351.499 387.116,352.507 388.623,353.558 390.13,354.651 391.637,355.786 393.144,356.962 394.651,358.18 
  396.158,359.44 397.665,360.741 399.172,362.083 400.679,363.466 402.186,364.891 403.693,366.356 405.2,367.862 406.707,369.408 408.214,370.995 409.721,372.622 
  411.228,374.289 412.735,375.996 414.242,377.743 415.749,379.529 417.256,381.355 418.764,383.22 420.271,385.124 421.778,387.067 423.285,389.048 424.792,391.068 
  426.299,393.126 427.806,395.222 429.313,397.356 430.82,399.527 432.327,401.736 433.834,403.982 435.341,406.265 436.848,408.584 438.355,410.94 439.862,413.333 
  441.369,415.761 442.876,418.225 444.383,420.725 445.89,423.259 447.397,425.829 448.904,428.434 450.411,431.073 451.918,433.746 453.425,436.454 454.932,439.195 
  456.439,441.969 457.946,444.776 459.453,447.617 460.96,450.49 462.467,453.395 463.974,456.332 465.481,459.301 466.988,462.301 468.495,465.333 470.002,468.395 
  471.509,471.488 473.016,474.611 474.523,477.763 476.03,480.946 477.537,484.157 479.045,487.398 480.552,490.667 482.059,493.964 483.566,497.289 485.073,500.642 
  486.58,504.022 488.087,507.429 489.594,510.863 491.101,514.323 492.608,517.809 494.115,521.32 495.622,524.857 497.129,528.418 498.636,532.004 500.143,535.614 
  501.65,539.248 503.157,542.905 504.664,546.585 506.171,550.288 507.678,554.013 509.185,557.76 510.692,561.529 512.199,565.319 513.706,569.13 515.213,572.961 
  516.72,576.812 518.227,580.683 519.734,584.573 521.241,588.482 522.748,592.409 524.255,596.355 525.762,600.318 527.269,604.298 528.776,608.296 530.283,612.31 
  531.79,616.34 533.297,620.385 534.804,624.446 536.311,628.522 537.818,632.613 539.325,636.717 540.833,640.835 542.34,644.966 543.847,649.111 545.354,653.267 
  546.861,657.436 548.368,661.616 549.875,665.807 551.382,670.01 552.889,674.222 554.396,678.444 555.903,682.676 557.41,686.917 558.917,691.167 560.424,695.425 
  561.931,699.69 563.438,703.963 564.945,708.243 566.452,712.529 567.959,716.822 569.466,721.12 570.973,725.423 572.48,729.731 573.987,734.044 575.494,738.36 
  577.001,742.68 578.508,747.003 580.015,751.329 581.522,755.656 583.029,759.986 584.536,764.317 586.043,768.649 587.55,772.981 589.057,777.313 590.564,781.645 
  592.071,785.976 593.578,790.306 595.085,794.634 596.592,798.96 598.099,803.284 599.606,807.604 601.113,811.921 602.621,816.234 604.128,820.543 605.635,824.847 
  607.142,829.146 608.649,833.439 610.156,837.727 611.663,842.008 613.17,846.282 614.677,850.549 616.184,854.808 617.691,859.059 619.198,863.301 620.705,867.534 
  622.212,871.758 623.719,875.972 625.226,880.176 626.733,884.369 628.24,888.551 629.747,892.722 631.254,896.88 632.761,901.026 634.268,905.16 635.775,909.28 
  637.282,913.387 638.789,917.479 640.296,921.557 641.803,925.621 643.31,929.669 644.817,933.702 646.324,937.718 647.831,941.718 649.338,945.701 650.845,949.667 
  652.352,953.616 653.859,957.546 655.366,961.458 656.873,965.351 658.38,969.225 659.887,973.079 661.394,976.914 662.901,980.728 664.409,984.521 665.916,988.293 
  667.423,992.043 668.93,995.772 670.437,999.479 671.944,1003.16 673.451,1006.82 674.958,1010.46 676.465,1014.07 677.972,1017.66 679.479,1021.23 680.986,1024.77 
  682.493,1028.29 684,1031.78 685.507,1035.24 687.014,1038.68 688.521,1042.09 690.028,1045.47 691.535,1048.83 693.042,1052.16 694.549,1055.46 696.056,1058.74 
  697.563,1061.98 699.07,1065.2 700.577,1068.38 702.084,1071.54 703.591,1074.67 705.098,1077.77 706.605,1080.83 708.112,1083.87 709.619,1086.88 711.126,1089.85 
  712.633,1092.79 714.14,1095.7 715.647,1098.58 717.154,1101.43 718.661,1104.24 720.168,1107.02 721.675,1109.76 723.182,1112.48 724.689,1115.16 726.197,1117.8 
  727.704,1120.41 729.211,1122.99 730.718,1125.53 732.225,1128.03 733.732,1130.5 735.239,1132.93 736.746,1135.33 738.253,1137.69 739.76,1140.02 741.267,1142.31 
  742.774,1144.56 744.281,1146.78 745.788,1148.95 747.295,1151.09 748.802,1153.19 750.309,1155.26 751.816,1157.28 753.323,1159.27 754.83,1161.22 756.337,1163.13 
  757.844,1165 759.351,1166.83 760.858,1168.63 762.365,1170.38 763.872,1172.09 765.379,1173.77 766.886,1175.4 768.393,1176.99 769.9,1178.55 771.407,1180.06 
  772.914,1181.53 774.421,1182.96 775.928,1184.35 777.435,1185.7 778.942,1187.01 780.449,1188.27 781.956,1189.5 783.463,1190.68 784.97,1191.82 786.477,1192.92 
  787.985,1193.98 789.492,1195 790.999,1195.97 792.506,1196.9 794.013,1197.79 795.52,1198.63 797.027,1199.44 798.534,1200.2 800.041,1200.92 801.548,1201.59 
  803.055,1202.23 804.562,1202.82 806.069,1203.36 807.576,1203.87 809.083,1204.33 810.59,1204.75 812.097,1205.12 813.604,1205.45 815.111,1205.74 816.618,1205.99 
  818.125,1206.19 819.632,1206.35 821.139,1206.46 822.646,1206.53 824.153,1206.56 825.66,1206.55 827.167,1206.49 828.674,1206.39 830.181,1206.24 831.688,1206.05 
  833.195,1205.82 834.702,1205.55 836.209,1205.23 837.716,1204.87 839.223,1204.47 840.73,1204.02 842.237,1203.53 843.744,1203 845.251,1202.42 846.758,1201.8 
  848.265,1201.14 849.773,1200.43 851.28,1199.69 852.787,1198.9 854.294,1198.06 855.801,1197.19 857.308,1196.27 858.815,1195.31 860.322,1194.31 861.829,1193.26 
  863.336,1192.18 864.843,1191.05 866.35,1189.88 867.857,1188.67 869.364,1187.42 870.871,1186.12 872.378,1184.79 873.885,1183.41 875.392,1181.99 876.899,1180.53 
  878.406,1179.03 879.913,1177.49 881.42,1175.91 882.927,1174.29 884.434,1172.63 885.941,1170.93 887.448,1169.19 888.955,1167.41 890.462,1165.59 891.969,1163.73 
  893.476,1161.83 894.983,1159.9 896.49,1157.92 897.997,1155.91 899.504,1153.86 901.011,1151.77 902.518,1149.64 904.025,1147.47 905.532,1145.27 907.039,1143.03 
  908.546,1140.75 910.053,1138.44 911.561,1136.09 913.068,1133.7 914.575,1131.28 916.082,1128.82 917.589,1126.33 919.096,1123.8 920.603,1121.23 922.11,1118.64 
  923.617,1116 925.124,1113.33 926.631,1110.63 928.138,1107.9 929.645,1105.13 931.152,1102.32 932.659,1099.49 934.166,1096.62 935.673,1093.72 937.18,1090.79 
  938.687,1087.83 940.194,1084.83 941.701,1081.8 943.208,1078.75 944.715,1075.66 946.222,1072.54 947.729,1069.39 949.236,1066.22 950.743,1063.01 952.25,1059.77 
  953.757,1056.51 955.264,1053.22 956.771,1049.89 958.278,1046.55 959.785,1043.17 961.292,1039.77 962.799,1036.34 964.306,1032.88 965.813,1029.4 967.32,1025.89 
  968.827,1022.36 970.334,1018.8 971.841,1015.22 973.349,1011.61 974.856,1007.98 976.363,1004.33 977.87,1000.65 979.377,996.955 980.884,993.234 982.391,989.49 
  983.898,985.725 985.405,981.938 986.912,978.131 988.419,974.303 989.926,970.455 991.433,966.587 992.94,962.7 994.447,958.794 995.954,954.87 997.461,950.927 
  998.968,946.967 1000.47,942.989 1001.98,938.994 1003.49,934.983 1005,930.955 1006.5,926.912 1008.01,922.853 1009.52,918.78 1011.02,914.692 1012.53,910.59 
  1014.04,906.474 1015.55,902.344 1017.05,898.202 1018.56,894.048 1020.07,889.881 1021.57,885.702 1023.08,881.513 1024.59,877.312 1026.09,873.101 1027.6,868.881 
  1029.11,864.65 1030.62,860.411 1032.12,856.163 1033.63,851.906 1035.14,847.642 1036.64,843.37 1038.15,839.091 1039.66,834.806 1041.16,830.514 1042.67,826.217 
  1044.18,821.914 1045.69,817.607 1047.19,813.295 1048.7,808.979 1050.21,804.66 1051.71,800.338 1053.22,796.012 1054.73,791.685 1056.23,787.356 1057.74,783.025 
  1059.25,778.693 1060.76,774.361 1062.26,770.029 1063.77,765.697 1065.28,761.365 1066.78,757.035 1068.29,752.707 1069.8,748.381 1071.31,744.057 1072.81,739.736 
  1074.32,735.418 1075.83,731.105 1077.33,726.795 1078.84,722.49 1080.35,718.19 1081.85,713.896 1083.36,709.608 1084.87,705.326 1086.38,701.05 1087.88,696.782 
  1089.39,692.522 1090.9,688.27 1092.4,684.026 1093.91,679.791 1095.42,675.566 1096.92,671.35 1098.43,667.145 1099.94,662.95 1101.45,658.766 1102.95,654.594 
  1104.46,650.433 1105.97,646.285 1107.47,642.15 1108.98,638.027 1110.49,633.918 1111.99,629.824 1113.5,625.743 1115.01,621.677 1116.52,617.627 1118.02,613.592 
  1119.53,609.572 1121.04,605.57 1122.54,601.584 1124.05,597.615 1125.56,593.664 1127.07,589.731 1128.57,585.816 1130.08,581.92 1131.59,578.043 1133.09,574.185 
  1134.6,570.348 1136.11,566.531 1137.61,562.734 1139.12,558.958 1140.63,555.204 1142.14,551.472 1143.64,547.762 1145.15,544.075 1146.66,540.41 1148.16,536.769 
  1149.67,533.151 1151.18,529.558 1152.68,525.988 1154.19,522.444 1155.7,518.924 1157.21,515.43 1158.71,511.962 1160.22,508.52 1161.73,505.105 1163.23,501.716 
  1164.74,498.354 1166.25,495.02 1167.75,491.714 1169.26,488.436 1170.77,485.186 1172.28,481.965 1173.78,478.774 1175.29,475.612 1176.8,472.479 1178.3,469.377 
  1179.81,466.305 1181.32,463.264 1182.82,460.253 1184.33,457.274 1185.84,454.327 1187.35,451.412 1188.85,448.528 1190.36,445.678 1191.87,442.86 1193.37,440.075 
  1194.88,437.323 1196.39,434.605 1197.9,431.921 1199.4,429.271 1200.91,426.655 1202.42,424.074 1203.92,421.528 1205.43,419.017 1206.94,416.542 1208.44,414.102 
  1209.95,411.698 1211.46,409.331 1212.97,407 1214.47,404.705 1215.98,402.447 1217.49,400.227 1218.99,398.043 1220.5,395.897 1222.01,393.789 1223.51,391.719 
  1225.02,389.687 1226.53,387.694 1228.04,385.738 1229.54,383.822 1231.05,381.945 1232.56,380.107 1234.06,378.308 1235.57,376.548 1237.08,374.829 1238.58,373.149 
  1240.09,371.509 1241.6,369.909 1243.11,368.35 1244.61,366.831 1246.12,365.353 1247.63,363.916 1249.13,362.519 1250.64,361.164 1252.15,359.85 1253.66,358.577 
  1255.16,357.346 1256.67,356.156 1258.18,355.008 1259.68,353.902 1261.19,352.838 1262.7,351.815 1264.2,350.835 1265.71,349.898 1267.22,349.002 1268.73,348.149 
  1270.23,347.339 1271.74,346.571 1273.25,345.846 1274.75,345.163 1276.26,344.524 1277.77,343.927 1279.27,343.373 1280.78,342.862 1282.29,342.394 1283.8,341.97 
  1285.3,341.588 1286.81,341.25 1288.32,340.955 1289.82,340.703 1291.33,340.494 1292.84,340.329 1294.34,340.207 1295.85,340.128 1297.36,340.092 1298.87,340.1 
  1300.37,340.151 1301.88,340.246 1303.39,340.384 1304.89,340.565 1306.4,340.789 1307.91,341.057 1309.41,341.368 1310.92,341.722 1312.43,342.119 1313.94,342.559 
  1315.44,343.043 1316.95,343.569 1318.46,344.138 1319.96,344.751 1321.47,345.406 1322.98,346.104 1324.49,346.845 1325.99,347.628 1327.5,348.454 1329.01,349.322 
  1330.51,350.233 1332.02,351.186 1333.53,352.182 1335.03,353.219 1336.54,354.299 1338.05,355.42 1339.56,356.583 1341.06,357.788 1342.57,359.034 1344.08,360.322 
  1345.58,361.651 1347.09,363.021 1348.6,364.433 1350.1,365.885 1351.61,367.378 1353.12,368.911 1354.63,370.485 1356.13,372.1 1357.64,373.754 1359.15,375.448 
  1360.65,377.182 1362.16,378.956 1363.67,380.769 1365.17,382.622 1366.68,384.513 1368.19,386.444 1369.7,388.413 1371.2,390.42 1372.71,392.466 1374.22,394.55 
  1375.72,396.672 1377.23,398.831 1378.74,401.028 1380.25,403.262 1381.75,405.533 1383.26,407.841 1384.77,410.186 1386.27,412.567 1387.78,414.984 1389.29,417.436 
  1390.79,419.925 1392.3,422.448 1393.81,425.007 1395.32,427.6 1396.82,430.229 1398.33,432.891 1399.84,435.588 1401.34,438.318 1402.85,441.082 1404.36,443.879 
  1405.86,446.708 1407.37,449.571 1408.88,452.466 1410.39,455.393 1411.89,458.352 1413.4,461.342 1414.91,464.364 1416.41,467.416 1417.92,470.499 1419.43,473.613 
  1420.93,476.756 1422.44,479.929 1423.95,483.131 1425.46,486.362 1426.96,489.622 1428.47,492.911 1429.98,496.227 1431.48,499.571 1432.99,502.943 1434.5,506.341 
  1436.01,509.766 1437.51,513.218 1439.02,516.696 1440.53,520.199 1442.03,523.727 1443.54,527.281 1445.05,530.859 1446.55,534.461 1448.06,538.088 1449.57,541.737 
  1451.08,545.41 1452.58,549.106 1454.09,552.824 1455.6,556.564 1457.1,560.326 1458.61,564.109 1460.12,567.914 1461.62,571.738 1463.13,575.583 1464.64,579.448 
  1466.15,583.332 1467.65,587.234 1469.16,591.156 1470.67,595.096 1472.17,599.053 1473.68,603.028 1475.19,607.021 1476.69,611.029 1478.2,615.054 1479.71,619.095 
  1481.22,623.151 1482.72,627.222 1484.23,631.308 1485.74,635.408 1487.24,639.522 1488.75,643.649 1490.26,647.789 1491.76,651.942 1493.27,656.107 1494.78,660.283 
  1496.29,664.471 1497.79,668.67 1499.3,672.879 1500.81,677.098 1502.31,681.327 1503.82,685.565 1505.33,689.812 1506.84,694.067 1508.34,698.331 1509.85,702.601 
  1511.36,706.879 1512.86,711.163 1514.37,715.454 1515.88,719.75 1517.38,724.052 1518.89,728.359 1520.4,732.67 1521.91,736.985 1523.41,741.304 1524.92,745.626 
  1526.43,749.951 1527.93,754.278 1529.44,758.607 1530.95,762.937 1532.45,767.269 1533.96,771.601 1535.47,775.933 1536.98,780.265 1538.48,784.597 1539.99,788.927 
  1541.5,793.256 1543,797.582 1544.51,801.907 1546.02,806.228 1547.52,810.546 1549.03,814.861 1550.54,819.171 1552.05,823.477 1553.55,827.777 1555.06,832.072 
  1556.57,836.362 1558.07,840.645 1559.58,844.921 1561.09,849.19 1562.6,853.452 1564.1,857.705 1565.61,861.95 1567.12,866.187 1568.62,870.414 1570.13,874.631 
  1571.64,878.838 1573.14,883.035 1574.65,887.22 1576.16,891.394 1577.67,895.557 1579.17,899.707 1580.68,903.845 1582.19,907.969 1583.69,912.08 1585.2,916.177 
  1586.71,920.26 1588.21,924.328 1589.72,928.381 1591.23,932.419 1592.74,936.44 1594.24,940.446 1595.75,944.434 1597.26,948.406 1598.76,952.36 1600.27,956.296 
  1601.78,960.214 1603.28,964.113 1604.79,967.993 1606.3,971.854 1607.81,975.694 1609.31,979.515 1610.82,983.315 1612.33,987.094 1613.83,990.851 1615.34,994.587 
  1616.85,998.3 1618.35,1001.99 1619.86,1005.66 1621.37,1009.3 1622.88,1012.93 1624.38,1016.52 1625.89,1020.1 1627.4,1023.65 1628.9,1027.17 1630.41,1030.67 
  1631.92,1034.14 1633.43,1037.59 1634.93,1041.01 1636.44,1044.4 1637.95,1047.76 1639.45,1051.1 1640.96,1054.41 1642.47,1057.7 1643.97,1060.95 1645.48,1064.18 
  1646.99,1067.37 1648.5,1070.54 1650,1073.68 1651.51,1076.78 1653.02,1079.86 1654.52,1082.91 1656.03,1085.92 1657.54,1088.91 1659.04,1091.86 1660.55,1094.78 
  1662.06,1097.67 1663.57,1100.52 1665.07,1103.35 1666.58,1106.14 1668.09,1108.89 1669.59,1111.62 1671.1,1114.31 1672.61,1116.96 1674.11,1119.58 1675.62,1122.17 
  1677.13,1124.72 1678.64,1127.24 1680.14,1129.72 1681.65,1132.16 1683.16,1134.57 1684.66,1136.95 1686.17,1139.28 1687.68,1141.58 1689.19,1143.85 1690.69,1146.07 
  1692.2,1148.26 1693.71,1150.42 1695.21,1152.53 1696.72,1154.61 1698.23,1156.64 1699.73,1158.64 1701.24,1160.6 1702.75,1162.53 1704.26,1164.41 1705.76,1166.26 
  1707.27,1168.06 1708.78,1169.83 1710.28,1171.55 1711.79,1173.24 1713.3,1174.88 1714.8,1176.49 1716.31,1178.06 1717.82,1179.58 1719.33,1181.07 1720.83,1182.51 
  1722.34,1183.91 1723.85,1185.27 1725.35,1186.6 1726.86,1187.87 1728.37,1189.11 1729.87,1190.31 1731.38,1191.46 1732.89,1192.58 1734.4,1193.65 1735.9,1194.68 
  1737.41,1195.66 1738.92,1196.61 1740.42,1197.51 1741.93,1198.37 1743.44,1199.19 1744.95,1199.96 1746.45,1200.69 1747.96,1201.38 1749.47,1202.03 1750.97,1202.63 
  1752.48,1203.19 1753.99,1203.71 1755.49,1204.19 1757,1204.62 1758.51,1205.01 1760.02,1205.35 1761.52,1205.65 1763.03,1205.91 1764.54,1206.13 1766.04,1206.3 
  1767.55,1206.43 1769.06,1206.51 1770.56,1206.56 1772.07,1206.56 1773.58,1206.51 1775.09,1206.42 1776.59,1206.29 1778.1,1206.12 1779.61,1205.9 1781.11,1205.64 
  1782.62,1205.34 1784.13,1204.99 1785.63,1204.6 1787.14,1204.17 1788.65,1203.69 1790.16,1203.17 1791.66,1202.61 1793.17,1202 1794.68,1201.35 1796.18,1200.66 
  1797.69,1199.93 1799.2,1199.15 1800.7,1198.33 1802.21,1197.47 1803.72,1196.57 1805.23,1195.62 1806.73,1194.63 1808.24,1193.6 1809.75,1192.53 1811.25,1191.41 
  1812.76,1190.26 1814.27,1189.06 1815.78,1187.82 1817.28,1186.54 1818.79,1185.22 1820.3,1183.85 1821.8,1182.45 1823.31,1181 1824.82,1179.51 1826.32,1177.99 
  1827.83,1176.42 1829.34,1174.81 1830.85,1173.16 1832.35,1171.48 1833.86,1169.75 1835.37,1167.98 1836.87,1166.17 1838.38,1164.33 1839.89,1162.44 1841.39,1160.52 
  1842.9,1158.56 1844.41,1156.55 1845.92,1154.51 1847.42,1152.44 1848.93,1150.32 1850.44,1148.17 1851.94,1145.98 1853.45,1143.75 1854.96,1141.48 1856.46,1139.18 
  1857.97,1136.84 1859.48,1134.47 1860.99,1132.06 1862.49,1129.61 1864,1127.13 1865.51,1124.61 1867.01,1122.05 1868.52,1119.47 1870.03,1116.84 1871.54,1114.19 
  1873.04,1111.5 1874.55,1108.77 1876.06,1106.01 1877.56,1103.22 1879.07,1100.4 1880.58,1097.54 1882.08,1094.65 1883.59,1091.73 1885.1,1088.77 1886.61,1085.79 
  1888.11,1082.77 1889.62,1079.72 1891.13,1076.65 1892.63,1073.54 1894.14,1070.4 1895.65,1067.23 1897.15,1064.03 1898.66,1060.81 1900.17,1057.55 1901.68,1054.27 
  1903.18,1050.95 1904.69,1047.62 1906.2,1044.25 1907.7,1040.85 1909.21,1037.43 1910.72,1033.99 1912.22,1030.51 1913.73,1027.01 1915.24,1023.49 1916.75,1019.94 
  1918.25,1016.36 1919.76,1012.77 1921.27,1009.14 1922.77,1005.5 1924.28,1001.83 1925.79,998.136 1927.29,994.421 1928.8,990.685 1930.31,986.926 1931.82,983.146 
  1933.32,979.346 1934.83,975.524 1936.34,971.683 1937.84,967.821 1939.35,963.94 1940.86,960.04 1942.37,956.122 1943.87,952.185 1945.38,948.23 1946.89,944.258 
  1948.39,940.268 1949.9,936.262 1951.41,932.24 1952.91,928.202 1954.42,924.148 1955.93,920.079 1957.44,915.996 1958.94,911.898 1960.45,907.786 1961.96,903.661 
  1963.46,899.523 1964.97,895.372 1966.48,891.209 1967.98,887.035 1969.49,882.848 1971,878.651 1972.51,874.444 1974.01,870.226 1975.52,865.999 1977.03,861.762 
  1978.53,857.517 1980.04,853.263 1981.55,849.001 1983.05,844.731 1984.56,840.455 1986.07,836.171 1987.58,831.882 1989.08,827.586 1990.59,823.286 1992.1,818.98 
  1993.6,814.669 1995.11,810.355 1996.62,806.036 1998.13,801.715 1999.63,797.39 2001.14,793.064 2002.65,788.735 2004.15,784.404 2005.66,780.073 2007.17,775.741 
  2008.67,771.409 2010.18,767.076 2011.69,762.745 2013.2,758.414 2014.7,754.086 2016.21,749.758 2017.72,745.434 2019.22,741.112 2020.73,736.793 2022.24,732.478 
  2023.74,728.167 2025.25,723.861 2026.76,719.559 2028.27,715.263 2029.77,710.973 2031.28,706.689 2032.79,702.411 2034.29,698.141 2035.8,693.878 2037.31,689.623 
  2038.81,685.377 2040.32,681.139 2041.83,676.911 2043.34,672.692 2044.84,668.483 2046.35,664.285 2047.86,660.098 2049.36,655.922 2050.87,651.757 2052.38,647.605 
  2053.89,643.466 2055.39,639.339 2056.9,635.226 2058.41,631.126 2059.91,627.041 2061.42,622.971 2062.93,618.915 2064.43,614.875 2065.94,610.851 2067.45,606.843 
  2068.96,602.852 2070.46,598.877 2071.97,594.921 2073.48,590.982 2074.98,587.061 2076.49,583.159 2078,579.276 2079.5,575.412 2081.01,571.568 2082.52,567.744 
  2084.03,563.941 2085.53,560.159 2087.04,556.398 2088.55,552.659 2090.05,548.941 2091.56,545.247 2093.07,541.575 2094.57,537.926 2096.08,534.301 2097.59,530.7 
  2099.1,527.123 2100.6,523.57 2102.11,520.043 2103.62,516.541 2105.12,513.064 2106.63,509.614 2108.14,506.19 2109.64,502.792 2111.15,499.422 2112.66,496.079 
  2114.17,492.764 2115.67,489.477 2117.18,486.218 2118.69,482.988 2120.19,479.787 2121.7,476.616 2123.21,473.474 2124.72,470.362 2126.22,467.28 2127.73,464.229 
  2129.24,461.209 2130.74,458.22 2132.25,455.262 2133.76,452.337 2135.26,449.443 2136.77,446.582 2138.28,443.754 2139.79,440.958 2141.29,438.196 2142.8,435.467 
  2144.31,432.772 2145.81,430.111 2147.32,427.485 2148.83,424.893 2150.33,422.335 2151.84,419.813 2153.35,417.327 2154.86,414.875 2156.36,412.46 2157.87,410.081 
  2159.38,407.738 2160.88,405.432 2162.39,403.162 2163.9,400.93 2165.4,398.735 2166.91,396.577 2168.42,394.457 2169.93,392.374 2171.43,390.33 2172.94,388.324 
  2174.45,386.357 2175.95,384.428 2177.46,382.539 2178.97,380.688 2180.48,378.877 2181.98,377.105 2183.49,375.372 2185,373.68 2186.5,372.027 2188.01,370.415 
  2189.52,368.842 2191.02,367.311 2192.53,365.82 2194.04,364.369 2195.55,362.96 2197.05,361.591 2198.56,360.264 2200.07,358.978 2201.57,357.733 2203.08,356.53 
  2204.59,355.369 2206.09,354.25 2207.6,353.172 2209.11,352.137 2210.62,351.143 2212.12,350.192 2213.63,349.283 2215.14,348.416 2216.64,347.592 2218.15,346.811 
  2219.66,346.072 2221.16,345.376 2222.67,344.723 2224.18,344.112 2225.69,343.545 2227.19,343.02 2228.7,342.539 2230.21,342.1 2231.71,341.705 2233.22,341.353 
  2234.73,341.044 2236.23,340.778 2237.74,340.556 2239.25,340.377 2240.76,340.241 2242.26,340.148 2243.77,340.099 
  "/>
<path clip-path="url(#clip790)" d="
M1937.22 348.236 L2282.43 348.236 L2282.43 166.796 L1937.22 166.796  Z
  " fill="#ffffff" fill-rule="evenodd" fill-opacity="1"/>
<polyline clip-path="url(#clip790)" style="stroke:#000000; stroke-width:4; stroke-opacity:1; fill:none" points="
  1937.22,348.236 2282.43,348.236 2282.43,166.796 1937.22,166.796 1937.22,348.236 
  "/>
<polyline clip-path="url(#clip790)" style="stroke:#800080; stroke-width:4; stroke-opacity:1; fill:none" points="
  1960.66,227.276 2101.31,227.276 
  "/>
<path clip-path="url(#clip790)" d="M 0 0 M2143.18 219.394 L2143.18 223.422 Q2141.38 222.496 2139.43 222.033 Q2137.49 221.57 2135.4 221.57 Q2132.23 221.57 2130.64 222.542 Q2129.06 223.514 2129.06 225.459 Q2129.06 226.94 2130.2 227.797 Q2131.33 228.63 2134.76 229.394 L2136.21 229.718 Q2140.75 230.69 2142.65 232.472 Q2144.57 234.232 2144.57 237.403 Q2144.57 241.014 2141.7 243.121 Q2138.85 245.227 2133.85 245.227 Q2131.77 245.227 2129.5 244.81 Q2127.26 244.417 2124.76 243.607 L2124.76 239.209 Q2127.12 240.435 2129.41 241.06 Q2131.7 241.662 2133.95 241.662 Q2136.96 241.662 2138.58 240.644 Q2140.2 239.602 2140.2 237.727 Q2140.2 235.991 2139.02 235.065 Q2137.86 234.139 2133.9 233.283 L2132.42 232.935 Q2128.46 232.102 2126.7 230.389 Q2124.94 228.653 2124.94 225.644 Q2124.94 221.986 2127.53 219.996 Q2130.13 218.005 2134.9 218.005 Q2137.26 218.005 2139.34 218.352 Q2141.42 218.699 2143.18 219.394 Z" fill="#000000" fill-rule="evenodd" fill-opacity="1" /><path clip-path="url(#clip790)" d="M 0 0 M2149.04 218.63 L2153.3 218.63 L2153.3 244.556 L2149.04 244.556 L2149.04 218.63 M2149.04 208.537 L2153.3 208.537 L2153.3 213.931 L2149.04 213.931 L2149.04 208.537 Z" fill="#000000" fill-rule="evenodd" fill-opacity="1" /><path clip-path="url(#clip790)" d="M 0 0 M2179.32 228.908 L2179.32 244.556 L2175.06 244.556 L2175.06 229.047 Q2175.06 225.366 2173.62 223.537 Q2172.19 221.709 2169.32 221.709 Q2165.87 221.709 2163.88 223.908 Q2161.89 226.107 2161.89 229.903 L2161.89 244.556 L2157.6 244.556 L2157.6 218.63 L2161.89 218.63 L2161.89 222.658 Q2163.41 220.32 2165.47 219.162 Q2167.56 218.005 2170.27 218.005 Q2174.73 218.005 2177.02 220.783 Q2179.32 223.537 2179.32 228.908 Z" fill="#000000" fill-rule="evenodd" fill-opacity="1" /><path clip-path="url(#clip790)" d="M 0 0 M2216.26 228.121 L2201.52 228.121 Q2201.86 235.042 2203.46 237.982 Q2205.45 241.593 2208.9 241.593 Q2212.37 241.593 2214.29 237.959 Q2215.98 234.764 2216.26 228.121 M2216.19 224.185 Q2215.54 217.611 2214.29 215.297 Q2212.3 211.639 2208.9 211.639 Q2205.36 211.639 2203.48 215.25 Q2202 218.167 2201.56 224.185 L2216.19 224.185 M2208.9 208.167 Q2214.46 208.167 2217.63 213.074 Q2220.8 217.959 2220.8 226.616 Q2220.8 235.25 2217.63 240.158 Q2214.46 245.088 2208.9 245.088 Q2203.32 245.088 2200.17 240.158 Q2197 235.25 2197 226.616 Q2197 217.959 2200.17 213.074 Q2203.32 208.167 2208.9 208.167 Z" fill="#000000" fill-rule="evenodd" fill-opacity="1" /><polyline clip-path="url(#clip790)" style="stroke:#ff0000; stroke-width:4; stroke-opacity:1; fill:none" points="
  1960.66,287.756 2101.31,287.756 
  "/>
<path clip-path="url(#clip790)" d="M 0 0 M2145.27 280.105 L2145.27 284.087 Q2143.46 283.091 2141.63 282.605 Q2139.83 282.096 2137.97 282.096 Q2133.83 282.096 2131.54 284.735 Q2129.25 287.351 2129.25 292.096 Q2129.25 296.841 2131.54 299.48 Q2133.83 302.096 2137.97 302.096 Q2139.83 302.096 2141.63 301.61 Q2143.46 301.101 2145.27 300.105 L2145.27 304.04 Q2143.48 304.874 2141.56 305.29 Q2139.66 305.707 2137.51 305.707 Q2131.65 305.707 2128.21 302.026 Q2124.76 298.346 2124.76 292.096 Q2124.76 285.753 2128.23 282.119 Q2131.72 278.485 2137.79 278.485 Q2139.76 278.485 2141.63 278.902 Q2143.51 279.295 2145.27 280.105 Z" fill="#000000" fill-rule="evenodd" fill-opacity="1" /><path clip-path="url(#clip790)" d="M 0 0 M2159.78 282.096 Q2156.35 282.096 2154.36 284.781 Q2152.37 287.443 2152.37 292.096 Q2152.37 296.749 2154.34 299.434 Q2156.33 302.096 2159.78 302.096 Q2163.18 302.096 2165.17 299.411 Q2167.16 296.726 2167.16 292.096 Q2167.16 287.49 2165.17 284.804 Q2163.18 282.096 2159.78 282.096 M2159.78 278.485 Q2165.33 278.485 2168.51 282.096 Q2171.68 285.707 2171.68 292.096 Q2171.68 298.462 2168.51 302.096 Q2165.33 305.707 2159.78 305.707 Q2154.2 305.707 2151.03 302.096 Q2147.88 298.462 2147.88 292.096 Q2147.88 285.707 2151.03 282.096 Q2154.2 278.485 2159.78 278.485 Z" fill="#000000" fill-rule="evenodd" fill-opacity="1" /><path clip-path="url(#clip790)" d="M 0 0 M2192.67 279.874 L2192.67 283.902 Q2190.87 282.976 2188.92 282.513 Q2186.98 282.05 2184.9 282.05 Q2181.72 282.05 2180.13 283.022 Q2178.55 283.994 2178.55 285.939 Q2178.55 287.42 2179.69 288.277 Q2180.82 289.11 2184.25 289.874 L2185.71 290.198 Q2190.24 291.17 2192.14 292.952 Q2194.06 294.712 2194.06 297.883 Q2194.06 301.494 2191.19 303.601 Q2188.34 305.707 2183.34 305.707 Q2181.26 305.707 2178.99 305.29 Q2176.75 304.897 2174.25 304.087 L2174.25 299.689 Q2176.61 300.915 2178.9 301.54 Q2181.19 302.142 2183.44 302.142 Q2186.45 302.142 2188.07 301.124 Q2189.69 300.082 2189.69 298.207 Q2189.69 296.471 2188.51 295.545 Q2187.35 294.619 2183.39 293.763 L2181.91 293.415 Q2177.95 292.582 2176.19 290.869 Q2174.43 289.133 2174.43 286.124 Q2174.43 282.466 2177.02 280.476 Q2179.62 278.485 2184.39 278.485 Q2186.75 278.485 2188.83 278.832 Q2190.91 279.179 2192.67 279.874 Z" fill="#000000" fill-rule="evenodd" fill-opacity="1" /><path clip-path="url(#clip790)" d="M 0 0 M2231.01 288.601 L2216.26 288.601 Q2216.61 295.522 2218.21 298.462 Q2220.2 302.073 2223.64 302.073 Q2227.12 302.073 2229.04 298.439 Q2230.73 295.244 2231.01 288.601 M2230.94 284.665 Q2230.29 278.091 2229.04 275.777 Q2227.05 272.119 2223.64 272.119 Q2220.1 272.119 2218.23 275.73 Q2216.75 278.647 2216.31 284.665 L2230.94 284.665 M2223.64 268.647 Q2229.2 268.647 2232.37 273.554 Q2235.54 278.439 2235.54 287.096 Q2235.54 295.73 2232.37 300.638 Q2229.2 305.568 2223.64 305.568 Q2218.07 305.568 2214.92 300.638 Q2211.75 295.73 2211.75 287.096 Q2211.75 278.439 2214.92 273.554 Q2218.07 268.647 2223.64 268.647 Z" fill="#000000" fill-rule="evenodd" fill-opacity="1" /></svg>
