<?xml version="1.0" encoding="utf-8"?>
<svg xmlns="http://www.w3.org/2000/svg" xmlns:xlink="http://www.w3.org/1999/xlink" width="600" height="400" viewBox="0 0 2400 1600">
<defs>
  <clipPath id="clip380">
    <rect x="0" y="0" width="2400" height="1600"/>
  </clipPath>
</defs>
<path clip-path="url(#clip380)" d="
M0 1600 L2400 1600 L2400 0 L0 0  Z
  " fill="#ffffff" fill-rule="evenodd" fill-opacity="1"/>
<defs>
  <clipPath id="clip381">
    <rect x="480" y="0" width="1681" height="1600"/>
  </clipPath>
</defs>
<path clip-path="url(#clip380)" d="
M205.121 1423.18 L2352.76 1423.18 L2352.76 123.472 L205.121 123.472  Z
  " fill="#ffffff" fill-rule="evenodd" fill-opacity="1"/>
<defs>
  <clipPath id="clip382">
    <rect x="205" y="123" width="2149" height="1301"/>
  </clipPath>
</defs>
<polyline clip-path="url(#clip382)" style="stroke:#000000; stroke-width:2; stroke-opacity:0.1; fill:none" points="
  482.527,1423.18 482.527,123.472 
  "/>
<polyline clip-path="url(#clip382)" style="stroke:#000000; stroke-width:2; stroke-opacity:0.1; fill:none" points="
  880.733,1423.18 880.733,123.472 
  "/>
<polyline clip-path="url(#clip382)" style="stroke:#000000; stroke-width:2; stroke-opacity:0.1; fill:none" points="
  1278.94,1423.18 1278.94,123.472 
  "/>
<polyline clip-path="url(#clip382)" style="stroke:#000000; stroke-width:2; stroke-opacity:0.1; fill:none" points="
  1677.14,1423.18 1677.14,123.472 
  "/>
<polyline clip-path="url(#clip382)" style="stroke:#000000; stroke-width:2; stroke-opacity:0.1; fill:none" points="
  2075.35,1423.18 2075.35,123.472 
  "/>
<polyline clip-path="url(#clip380)" style="stroke:#000000; stroke-width:4; stroke-opacity:1; fill:none" points="
  205.121,1423.18 2352.76,1423.18 
  "/>
<polyline clip-path="url(#clip380)" style="stroke:#000000; stroke-width:4; stroke-opacity:1; fill:none" points="
  482.527,1423.18 482.527,1407.58 
  "/>
<polyline clip-path="url(#clip380)" style="stroke:#000000; stroke-width:4; stroke-opacity:1; fill:none" points="
  880.733,1423.18 880.733,1407.58 
  "/>
<polyline clip-path="url(#clip380)" style="stroke:#000000; stroke-width:4; stroke-opacity:1; fill:none" points="
  1278.94,1423.18 1278.94,1407.58 
  "/>
<polyline clip-path="url(#clip380)" style="stroke:#000000; stroke-width:4; stroke-opacity:1; fill:none" points="
  1677.14,1423.18 1677.14,1407.58 
  "/>
<polyline clip-path="url(#clip380)" style="stroke:#000000; stroke-width:4; stroke-opacity:1; fill:none" points="
  2075.35,1423.18 2075.35,1407.58 
  "/>
<path clip-path="url(#clip380)" d="M 0 0 M436.891 1449.29 L443.858 1449.29 L452.678 1472.81 L461.543 1449.29 L468.511 1449.29 L468.511 1483.85 L463.951 1483.85 L463.951 1453.5 L455.039 1477.21 L450.34 1477.21 L441.428 1453.5 L441.428 1483.85 L436.891 1483.85 L436.891 1449.29 Z" fill="#000000" fill-rule="evenodd" fill-opacity="1" /><path clip-path="url(#clip380)" d="M 0 0 M487.654 1460.91 Q484.228 1460.91 482.238 1463.6 Q480.247 1466.26 480.247 1470.91 Q480.247 1475.56 482.215 1478.25 Q484.205 1480.91 487.654 1480.91 Q491.057 1480.91 493.048 1478.23 Q495.039 1475.54 495.039 1470.91 Q495.039 1466.31 493.048 1463.62 Q491.057 1460.91 487.654 1460.91 M487.654 1457.3 Q493.21 1457.3 496.381 1460.91 Q499.552 1464.52 499.552 1470.91 Q499.552 1477.28 496.381 1480.91 Q493.21 1484.52 487.654 1484.52 Q482.076 1484.52 478.904 1480.91 Q475.756 1477.28 475.756 1470.91 Q475.756 1464.52 478.904 1460.91 Q482.076 1457.3 487.654 1457.3 Z" fill="#000000" fill-rule="evenodd" fill-opacity="1" /><path clip-path="url(#clip380)" d="M 0 0 M528.163 1468.2 L528.163 1483.85 L523.904 1483.85 L523.904 1468.34 Q523.904 1464.66 522.469 1462.83 Q521.034 1461 518.163 1461 Q514.714 1461 512.724 1463.2 Q510.733 1465.4 510.733 1469.2 L510.733 1483.85 L506.45 1483.85 L506.45 1457.93 L510.733 1457.93 L510.733 1461.95 Q512.261 1459.62 514.321 1458.46 Q516.404 1457.3 519.112 1457.3 Q523.58 1457.3 525.872 1460.08 Q528.163 1462.83 528.163 1468.2 Z" fill="#000000" fill-rule="evenodd" fill-opacity="1" /><path clip-path="url(#clip380)" d="M 0 0 M841.439 1449.29 L870.675 1449.29 L870.675 1453.23 L858.406 1453.23 L858.406 1483.85 L853.707 1483.85 L853.707 1453.23 L841.439 1453.23 L841.439 1449.29 Z" fill="#000000" fill-rule="evenodd" fill-opacity="1" /><path clip-path="url(#clip380)" d="M 0 0 M867.365 1473.62 L867.365 1457.93 L871.624 1457.93 L871.624 1473.46 Q871.624 1477.14 873.059 1478.99 Q874.494 1480.82 877.365 1480.82 Q880.814 1480.82 882.804 1478.62 Q884.818 1476.42 884.818 1472.63 L884.818 1457.93 L889.078 1457.93 L889.078 1483.85 L884.818 1483.85 L884.818 1479.87 Q883.267 1482.23 881.207 1483.39 Q879.17 1484.52 876.462 1484.52 Q871.994 1484.52 869.68 1481.75 Q867.365 1478.97 867.365 1473.62 M878.082 1457.3 L878.082 1457.3 Z" fill="#000000" fill-rule="evenodd" fill-opacity="1" /><path clip-path="url(#clip380)" d="M 0 0 M920.026 1469.82 L920.026 1471.91 L900.443 1471.91 Q900.721 1476.31 903.082 1478.62 Q905.466 1480.91 909.702 1480.91 Q912.156 1480.91 914.448 1480.31 Q916.763 1479.71 919.031 1478.5 L919.031 1482.53 Q916.739 1483.5 914.332 1484.01 Q911.925 1484.52 909.448 1484.52 Q903.244 1484.52 899.61 1480.91 Q895.999 1477.3 895.999 1471.14 Q895.999 1464.78 899.425 1461.05 Q902.874 1457.3 908.707 1457.3 Q913.939 1457.3 916.971 1460.68 Q920.026 1464.04 920.026 1469.82 M915.767 1468.57 Q915.721 1465.08 913.8 1463 Q911.902 1460.91 908.753 1460.91 Q905.189 1460.91 903.036 1462.93 Q900.906 1464.94 900.582 1468.6 L915.767 1468.57 Z" fill="#000000" fill-rule="evenodd" fill-opacity="1" /><path clip-path="url(#clip380)" d="M 0 0 M1230.2 1449.29 L1234.92 1449.29 L1242.19 1478.5 L1249.44 1449.29 L1254.69 1449.29 L1261.96 1478.5 L1269.2 1449.29 L1273.95 1449.29 L1265.27 1483.85 L1259.39 1483.85 L1252.1 1453.85 L1244.74 1483.85 L1238.86 1483.85 L1230.2 1449.29 Z" fill="#000000" fill-rule="evenodd" fill-opacity="1" /><path clip-path="url(#clip380)" d="M 0 0 M1299.37 1469.82 L1299.37 1471.91 L1279.78 1471.91 Q1280.06 1476.31 1282.42 1478.62 Q1284.81 1480.91 1289.04 1480.91 Q1291.5 1480.91 1293.79 1480.31 Q1296.1 1479.71 1298.37 1478.5 L1298.37 1482.53 Q1296.08 1483.5 1293.67 1484.01 Q1291.26 1484.52 1288.79 1484.52 Q1282.58 1484.52 1278.95 1480.91 Q1275.34 1477.3 1275.34 1471.14 Q1275.34 1464.78 1278.76 1461.05 Q1282.21 1457.3 1288.05 1457.3 Q1293.28 1457.3 1296.31 1460.68 Q1299.37 1464.04 1299.37 1469.82 M1295.11 1468.57 Q1295.06 1465.08 1293.14 1463 Q1291.24 1460.91 1288.09 1460.91 Q1284.53 1460.91 1282.38 1462.93 Q1280.25 1464.94 1279.92 1468.6 L1295.11 1468.57 Z" fill="#000000" fill-rule="evenodd" fill-opacity="1" /><path clip-path="url(#clip380)" d="M 0 0 M1323.42 1461.86 L1323.42 1447.83 L1327.68 1447.83 L1327.68 1483.85 L1323.42 1483.85 L1323.42 1479.96 Q1322.07 1482.28 1320.01 1483.41 Q1317.98 1484.52 1315.11 1484.52 Q1310.41 1484.52 1307.45 1480.77 Q1304.51 1477.02 1304.51 1470.91 Q1304.51 1464.8 1307.45 1461.05 Q1310.41 1457.3 1315.11 1457.3 Q1317.98 1457.3 1320.01 1458.44 Q1322.07 1459.55 1323.42 1461.86 M1308.9 1470.91 Q1308.9 1475.61 1310.82 1478.3 Q1312.77 1480.96 1316.15 1480.96 Q1319.53 1480.96 1321.47 1478.3 Q1323.42 1475.61 1323.42 1470.91 Q1323.42 1466.21 1321.47 1463.55 Q1319.53 1460.87 1316.15 1460.87 Q1312.77 1460.87 1310.82 1463.55 Q1308.9 1466.21 1308.9 1470.91 Z" fill="#000000" fill-rule="evenodd" fill-opacity="1" /><path clip-path="url(#clip380)" d="M 0 0 M1634.7 1449.29 L1663.94 1449.29 L1663.94 1453.23 L1651.67 1453.23 L1651.67 1483.85 L1646.97 1483.85 L1646.97 1453.23 L1634.7 1453.23 L1634.7 1449.29 Z" fill="#000000" fill-rule="evenodd" fill-opacity="1" /><path clip-path="url(#clip380)" d="M 0 0 M1689.82 1468.2 L1689.82 1483.85 L1685.56 1483.85 L1685.56 1468.34 Q1685.56 1464.66 1684.12 1462.83 Q1682.69 1461 1679.82 1461 Q1676.37 1461 1674.38 1463.2 Q1672.39 1465.4 1672.39 1469.2 L1672.39 1483.85 L1668.1 1483.85 L1668.1 1447.83 L1672.39 1447.83 L1672.39 1461.95 Q1673.92 1459.62 1675.98 1458.46 Q1678.06 1457.3 1680.77 1457.3 Q1685.23 1457.3 1687.53 1460.08 Q1689.82 1462.83 1689.82 1468.2 Z" fill="#000000" fill-rule="evenodd" fill-opacity="1" /><path clip-path="url(#clip380)" d="M 0 0 M1697.87 1473.62 L1697.87 1457.93 L1702.13 1457.93 L1702.13 1473.46 Q1702.13 1477.14 1703.57 1478.99 Q1705 1480.82 1707.87 1480.82 Q1711.32 1480.82 1713.31 1478.62 Q1715.33 1476.42 1715.33 1472.63 L1715.33 1457.93 L1719.59 1457.93 L1719.59 1483.85 L1715.33 1483.85 L1715.33 1479.87 Q1713.78 1482.23 1711.72 1483.39 Q1709.68 1484.52 1706.97 1484.52 Q1702.5 1484.52 1700.19 1481.75 Q1697.87 1478.97 1697.87 1473.62 M1708.59 1457.3 L1708.59 1457.3 Z" fill="#000000" fill-rule="evenodd" fill-opacity="1" /><path clip-path="url(#clip380)" d="M 0 0 M2051.66 1449.29 L2071.52 1449.29 L2071.52 1453.23 L2056.33 1453.23 L2056.33 1463.41 L2070.04 1463.41 L2070.04 1467.35 L2056.33 1467.35 L2056.33 1483.85 L2051.66 1483.85 L2051.66 1449.29 Z" fill="#000000" fill-rule="evenodd" fill-opacity="1" /><path clip-path="url(#clip380)" d="M 0 0 M2090.32 1461.91 Q2089.6 1461.49 2088.74 1461.31 Q2087.91 1461.1 2086.89 1461.1 Q2083.28 1461.1 2081.33 1463.46 Q2079.41 1465.8 2079.41 1470.19 L2079.41 1483.85 L2075.13 1483.85 L2075.13 1457.93 L2079.41 1457.93 L2079.41 1461.95 Q2080.75 1459.59 2082.91 1458.46 Q2085.06 1457.3 2088.14 1457.3 Q2088.58 1457.3 2089.11 1457.37 Q2089.64 1457.42 2090.29 1457.53 L2090.32 1461.91 Z" fill="#000000" fill-rule="evenodd" fill-opacity="1" /><path clip-path="url(#clip380)" d="M 0 0 M2094.78 1457.93 L2099.04 1457.93 L2099.04 1483.85 L2094.78 1483.85 L2094.78 1457.93 M2094.78 1447.83 L2099.04 1447.83 L2099.04 1453.23 L2094.78 1453.23 L2094.78 1447.83 Z" fill="#000000" fill-rule="evenodd" fill-opacity="1" /><path clip-path="url(#clip380)" d="M 0 0 M1116.98 1520.52 L1123.47 1520.52 L1133.47 1560.69 L1143.43 1520.52 L1150.65 1520.52 L1160.65 1560.69 L1170.61 1520.52 L1177.13 1520.52 L1165.2 1568.04 L1157.11 1568.04 L1147.09 1526.79 L1136.97 1568.04 L1128.88 1568.04 L1116.98 1520.52 Z" fill="#000000" fill-rule="evenodd" fill-opacity="1" /><path clip-path="url(#clip380)" d="M 0 0 M1212.08 1548.76 L1212.08 1551.62 L1185.16 1551.62 Q1185.54 1557.67 1188.78 1560.85 Q1192.06 1564 1197.89 1564 Q1201.26 1564 1204.41 1563.17 Q1207.59 1562.35 1210.71 1560.69 L1210.71 1566.23 Q1207.56 1567.57 1204.25 1568.27 Q1200.94 1568.97 1197.54 1568.97 Q1189.01 1568.97 1184.01 1564 Q1179.04 1559.04 1179.04 1550.57 Q1179.04 1541.82 1183.76 1536.69 Q1188.5 1531.54 1196.52 1531.54 Q1203.71 1531.54 1207.88 1536.18 Q1212.08 1540.8 1212.08 1548.76 M1206.23 1547.04 Q1206.16 1542.23 1203.52 1539.37 Q1200.91 1536.5 1196.58 1536.5 Q1191.68 1536.5 1188.72 1539.27 Q1185.79 1542.04 1185.35 1547.07 L1206.23 1547.04 Z" fill="#000000" fill-rule="evenodd" fill-opacity="1" /><path clip-path="url(#clip380)" d="M 0 0 M1252.19 1548.76 L1252.19 1551.62 L1225.26 1551.62 Q1225.64 1557.67 1228.89 1560.85 Q1232.17 1564 1237.99 1564 Q1241.36 1564 1244.52 1563.17 Q1247.7 1562.35 1250.82 1560.69 L1250.82 1566.23 Q1247.67 1567.57 1244.36 1568.27 Q1241.05 1568.97 1237.64 1568.97 Q1229.11 1568.97 1224.11 1564 Q1219.15 1559.04 1219.15 1550.57 Q1219.15 1541.82 1223.86 1536.69 Q1228.6 1531.54 1236.62 1531.54 Q1243.82 1531.54 1247.99 1536.18 Q1252.19 1540.8 1252.19 1548.76 M1246.33 1547.04 Q1246.27 1542.23 1243.62 1539.37 Q1241.01 1536.5 1236.69 1536.5 Q1231.78 1536.5 1228.82 1539.27 Q1225.9 1542.04 1225.45 1547.07 L1246.33 1547.04 Z" fill="#000000" fill-rule="evenodd" fill-opacity="1" /><path clip-path="url(#clip380)" d="M 0 0 M1261.58 1518.52 L1267.46 1518.52 L1267.46 1547.77 L1284.94 1532.4 L1292.42 1532.4 L1273.51 1549.07 L1293.21 1568.04 L1285.57 1568.04 L1267.46 1550.63 L1267.46 1568.04 L1261.58 1568.04 L1261.58 1518.52 Z" fill="#000000" fill-rule="evenodd" fill-opacity="1" /><path clip-path="url(#clip380)" d="M 0 0 M1326.95 1525.81 L1326.95 1562.76 L1334.72 1562.76 Q1344.55 1562.76 1349.1 1558.3 Q1353.69 1553.85 1353.69 1544.24 Q1353.69 1534.69 1349.1 1530.26 Q1344.55 1525.81 1334.72 1525.81 L1326.95 1525.81 M1320.52 1520.52 L1333.73 1520.52 Q1347.54 1520.52 1354.01 1526.28 Q1360.47 1532.01 1360.47 1544.24 Q1360.47 1556.52 1353.97 1562.28 Q1347.48 1568.04 1333.73 1568.04 L1320.52 1568.04 L1320.52 1520.52 Z" fill="#000000" fill-rule="evenodd" fill-opacity="1" /><path clip-path="url(#clip380)" d="M 0 0 M1386.66 1550.12 Q1379.56 1550.12 1376.83 1551.75 Q1374.09 1553.37 1374.09 1557.29 Q1374.09 1560.4 1376.13 1562.25 Q1378.2 1564.07 1381.73 1564.07 Q1386.6 1564.07 1389.53 1560.63 Q1392.49 1557.16 1392.49 1551.43 L1392.49 1550.12 L1386.66 1550.12 M1398.34 1547.71 L1398.34 1568.04 L1392.49 1568.04 L1392.49 1562.63 Q1390.48 1565.88 1387.49 1567.44 Q1384.5 1568.97 1380.17 1568.97 Q1374.69 1568.97 1371.45 1565.91 Q1368.23 1562.82 1368.23 1557.67 Q1368.23 1551.65 1372.24 1548.6 Q1376.29 1545.54 1384.27 1545.54 L1392.49 1545.54 L1392.49 1544.97 Q1392.49 1540.93 1389.81 1538.73 Q1387.17 1536.5 1382.37 1536.5 Q1379.31 1536.5 1376.41 1537.23 Q1373.52 1537.97 1370.84 1539.43 L1370.84 1534.02 Q1374.06 1532.78 1377.08 1532.17 Q1380.11 1531.54 1382.97 1531.54 Q1390.7 1531.54 1394.52 1535.55 Q1398.34 1539.56 1398.34 1547.71 Z" fill="#000000" fill-rule="evenodd" fill-opacity="1" /><path clip-path="url(#clip380)" d="M 0 0 M1425.24 1571.35 Q1422.76 1577.72 1420.4 1579.66 Q1418.05 1581.6 1414.1 1581.6 L1409.42 1581.6 L1409.42 1576.7 L1412.86 1576.7 Q1415.28 1576.7 1416.61 1575.56 Q1417.95 1574.41 1419.57 1570.14 L1420.62 1567.47 L1406.2 1532.4 L1412.41 1532.4 L1423.55 1560.28 L1434.69 1532.4 L1440.9 1532.4 L1425.24 1571.35 Z" fill="#000000" fill-rule="evenodd" fill-opacity="1" /><polyline clip-path="url(#clip382)" style="stroke:#000000; stroke-width:2; stroke-opacity:0.1; fill:none" points="
  205.121,1386.4 2352.76,1386.4 
  "/>
<polyline clip-path="url(#clip382)" style="stroke:#000000; stroke-width:2; stroke-opacity:0.1; fill:none" points="
  205.121,1182.04 2352.76,1182.04 
  "/>
<polyline clip-path="url(#clip382)" style="stroke:#000000; stroke-width:2; stroke-opacity:0.1; fill:none" points="
  205.121,977.683 2352.76,977.683 
  "/>
<polyline clip-path="url(#clip382)" style="stroke:#000000; stroke-width:2; stroke-opacity:0.1; fill:none" points="
  205.121,773.326 2352.76,773.326 
  "/>
<polyline clip-path="url(#clip382)" style="stroke:#000000; stroke-width:2; stroke-opacity:0.1; fill:none" points="
  205.121,568.969 2352.76,568.969 
  "/>
<polyline clip-path="url(#clip382)" style="stroke:#000000; stroke-width:2; stroke-opacity:0.1; fill:none" points="
  205.121,364.613 2352.76,364.613 
  "/>
<polyline clip-path="url(#clip382)" style="stroke:#000000; stroke-width:2; stroke-opacity:0.1; fill:none" points="
  205.121,160.256 2352.76,160.256 
  "/>
<polyline clip-path="url(#clip380)" style="stroke:#000000; stroke-width:4; stroke-opacity:1; fill:none" points="
  205.121,1423.18 205.121,123.472 
  "/>
<polyline clip-path="url(#clip380)" style="stroke:#000000; stroke-width:4; stroke-opacity:1; fill:none" points="
  205.121,1386.4 230.893,1386.4 
  "/>
<polyline clip-path="url(#clip380)" style="stroke:#000000; stroke-width:4; stroke-opacity:1; fill:none" points="
  205.121,1182.04 230.893,1182.04 
  "/>
<polyline clip-path="url(#clip380)" style="stroke:#000000; stroke-width:4; stroke-opacity:1; fill:none" points="
  205.121,977.683 230.893,977.683 
  "/>
<polyline clip-path="url(#clip380)" style="stroke:#000000; stroke-width:4; stroke-opacity:1; fill:none" points="
  205.121,773.326 230.893,773.326 
  "/>
<polyline clip-path="url(#clip380)" style="stroke:#000000; stroke-width:4; stroke-opacity:1; fill:none" points="
  205.121,568.969 230.893,568.969 
  "/>
<polyline clip-path="url(#clip380)" style="stroke:#000000; stroke-width:4; stroke-opacity:1; fill:none" points="
  205.121,364.613 230.893,364.613 
  "/>
<polyline clip-path="url(#clip380)" style="stroke:#000000; stroke-width:4; stroke-opacity:1; fill:none" points="
  205.121,160.256 230.893,160.256 
  "/>
<path clip-path="url(#clip380)" d="M 0 0 M157.177 1372.19 Q153.566 1372.19 151.737 1375.76 Q149.931 1379.3 149.931 1386.43 Q149.931 1393.54 151.737 1397.1 Q153.566 1400.64 157.177 1400.64 Q160.811 1400.64 162.616 1397.1 Q164.445 1393.54 164.445 1386.43 Q164.445 1379.3 162.616 1375.76 Q160.811 1372.19 157.177 1372.19 M157.177 1368.49 Q162.987 1368.49 166.042 1373.1 Q169.121 1377.68 169.121 1386.43 Q169.121 1395.16 166.042 1399.76 Q162.987 1404.35 157.177 1404.35 Q151.366 1404.35 148.288 1399.76 Q145.232 1395.16 145.232 1386.43 Q145.232 1377.68 148.288 1373.1 Q151.366 1368.49 157.177 1368.49 Z" fill="#000000" fill-rule="evenodd" fill-opacity="1" /><path clip-path="url(#clip380)" d="M 0 0 M117.825 1195.38 L125.464 1195.38 L125.464 1169.02 L117.154 1170.68 L117.154 1166.43 L125.418 1164.76 L130.093 1164.76 L130.093 1195.38 L137.732 1195.38 L137.732 1199.32 L117.825 1199.32 L117.825 1195.38 Z" fill="#000000" fill-rule="evenodd" fill-opacity="1" /><path clip-path="url(#clip380)" d="M 0 0 M157.177 1167.84 Q153.566 1167.84 151.737 1171.4 Q149.931 1174.94 149.931 1182.07 Q149.931 1189.18 151.737 1192.75 Q153.566 1196.29 157.177 1196.29 Q160.811 1196.29 162.616 1192.75 Q164.445 1189.18 164.445 1182.07 Q164.445 1174.94 162.616 1171.4 Q160.811 1167.84 157.177 1167.84 M157.177 1164.13 Q162.987 1164.13 166.042 1168.74 Q169.121 1173.32 169.121 1182.07 Q169.121 1190.8 166.042 1195.41 Q162.987 1199.99 157.177 1199.99 Q151.366 1199.99 148.288 1195.41 Q145.232 1190.8 145.232 1182.07 Q145.232 1173.32 148.288 1168.74 Q151.366 1164.13 157.177 1164.13 Z" fill="#000000" fill-rule="evenodd" fill-opacity="1" /><path clip-path="url(#clip380)" d="M 0 0 M121.043 991.027 L137.362 991.027 L137.362 994.963 L115.418 994.963 L115.418 991.027 Q118.08 988.273 122.663 983.643 Q127.269 978.99 128.45 977.648 Q130.695 975.125 131.575 973.389 Q132.478 971.629 132.478 969.94 Q132.478 967.185 130.533 965.449 Q128.612 963.713 125.51 963.713 Q123.311 963.713 120.857 964.477 Q118.427 965.24 115.649 966.791 L115.649 962.069 Q118.473 960.935 120.927 960.356 Q123.38 959.778 125.418 959.778 Q130.788 959.778 133.982 962.463 Q137.177 965.148 137.177 969.639 Q137.177 971.768 136.367 973.69 Q135.579 975.588 133.473 978.18 Q132.894 978.852 129.792 982.069 Q126.691 985.264 121.043 991.027 Z" fill="#000000" fill-rule="evenodd" fill-opacity="1" /><path clip-path="url(#clip380)" d="M 0 0 M157.177 963.481 Q153.566 963.481 151.737 967.046 Q149.931 970.588 149.931 977.717 Q149.931 984.824 151.737 988.389 Q153.566 991.93 157.177 991.93 Q160.811 991.93 162.616 988.389 Q164.445 984.824 164.445 977.717 Q164.445 970.588 162.616 967.046 Q160.811 963.481 157.177 963.481 M157.177 959.778 Q162.987 959.778 166.042 964.384 Q169.121 968.967 169.121 977.717 Q169.121 986.444 166.042 991.051 Q162.987 995.634 157.177 995.634 Q151.366 995.634 148.288 991.051 Q145.232 986.444 145.232 977.717 Q145.232 968.967 148.288 964.384 Q151.366 959.778 157.177 959.778 Z" fill="#000000" fill-rule="evenodd" fill-opacity="1" /><path clip-path="url(#clip380)" d="M 0 0 M131.181 771.972 Q134.538 772.689 136.413 774.958 Q138.311 777.226 138.311 780.56 Q138.311 785.675 134.792 788.476 Q131.274 791.277 124.793 791.277 Q122.617 791.277 120.302 790.837 Q118.01 790.421 115.556 789.564 L115.556 785.05 Q117.501 786.185 119.816 786.763 Q122.13 787.342 124.654 787.342 Q129.052 787.342 131.343 785.606 Q133.658 783.87 133.658 780.56 Q133.658 777.504 131.505 775.791 Q129.376 774.055 125.556 774.055 L121.529 774.055 L121.529 770.213 L125.742 770.213 Q129.191 770.213 131.019 768.847 Q132.848 767.458 132.848 764.865 Q132.848 762.203 130.95 760.791 Q129.075 759.356 125.556 759.356 Q123.635 759.356 121.436 759.773 Q119.237 760.189 116.598 761.069 L116.598 756.902 Q119.26 756.162 121.575 755.791 Q123.913 755.421 125.973 755.421 Q131.297 755.421 134.399 757.852 Q137.501 760.259 137.501 764.379 Q137.501 767.25 135.857 769.24 Q134.214 771.208 131.181 771.972 Z" fill="#000000" fill-rule="evenodd" fill-opacity="1" /><path clip-path="url(#clip380)" d="M 0 0 M157.177 759.125 Q153.566 759.125 151.737 762.689 Q149.931 766.231 149.931 773.361 Q149.931 780.467 151.737 784.032 Q153.566 787.574 157.177 787.574 Q160.811 787.574 162.616 784.032 Q164.445 780.467 164.445 773.361 Q164.445 766.231 162.616 762.689 Q160.811 759.125 157.177 759.125 M157.177 755.421 Q162.987 755.421 166.042 760.027 Q169.121 764.611 169.121 773.361 Q169.121 782.088 166.042 786.694 Q162.987 791.277 157.177 791.277 Q151.366 791.277 148.288 786.694 Q145.232 782.088 145.232 773.361 Q145.232 764.611 148.288 760.027 Q151.366 755.421 157.177 755.421 Z" fill="#000000" fill-rule="evenodd" fill-opacity="1" /><path clip-path="url(#clip380)" d="M 0 0 M129.862 555.763 L118.056 574.212 L129.862 574.212 L129.862 555.763 M128.635 551.689 L134.515 551.689 L134.515 574.212 L139.445 574.212 L139.445 578.101 L134.515 578.101 L134.515 586.249 L129.862 586.249 L129.862 578.101 L114.26 578.101 L114.26 573.587 L128.635 551.689 Z" fill="#000000" fill-rule="evenodd" fill-opacity="1" /><path clip-path="url(#clip380)" d="M 0 0 M157.177 554.768 Q153.566 554.768 151.737 558.333 Q149.931 561.875 149.931 569.004 Q149.931 576.111 151.737 579.675 Q153.566 583.217 157.177 583.217 Q160.811 583.217 162.616 579.675 Q164.445 576.111 164.445 569.004 Q164.445 561.875 162.616 558.333 Q160.811 554.768 157.177 554.768 M157.177 551.064 Q162.987 551.064 166.042 555.671 Q169.121 560.254 169.121 569.004 Q169.121 577.731 166.042 582.337 Q162.987 586.921 157.177 586.921 Q151.366 586.921 148.288 582.337 Q145.232 577.731 145.232 569.004 Q145.232 560.254 148.288 555.671 Q151.366 551.064 157.177 551.064 Z" fill="#000000" fill-rule="evenodd" fill-opacity="1" /><path clip-path="url(#clip380)" d="M 0 0 M117.061 347.333 L135.417 347.333 L135.417 351.268 L121.343 351.268 L121.343 359.74 Q122.362 359.393 123.38 359.231 Q124.399 359.046 125.418 359.046 Q131.205 359.046 134.584 362.217 Q137.964 365.388 137.964 370.805 Q137.964 376.384 134.492 379.485 Q131.019 382.564 124.7 382.564 Q122.524 382.564 120.255 382.194 Q118.01 381.823 115.603 381.083 L115.603 376.384 Q117.686 377.518 119.908 378.073 Q122.13 378.629 124.607 378.629 Q128.612 378.629 130.95 376.523 Q133.288 374.416 133.288 370.805 Q133.288 367.194 130.95 365.087 Q128.612 362.981 124.607 362.981 Q122.732 362.981 120.857 363.398 Q119.006 363.814 117.061 364.694 L117.061 347.333 Z" fill="#000000" fill-rule="evenodd" fill-opacity="1" /><path clip-path="url(#clip380)" d="M 0 0 M157.177 350.412 Q153.566 350.412 151.737 353.976 Q149.931 357.518 149.931 364.648 Q149.931 371.754 151.737 375.319 Q153.566 378.86 157.177 378.86 Q160.811 378.86 162.616 375.319 Q164.445 371.754 164.445 364.648 Q164.445 357.518 162.616 353.976 Q160.811 350.412 157.177 350.412 M157.177 346.708 Q162.987 346.708 166.042 351.314 Q169.121 355.898 169.121 364.648 Q169.121 373.374 166.042 377.981 Q162.987 382.564 157.177 382.564 Q151.366 382.564 148.288 377.981 Q145.232 373.374 145.232 364.648 Q145.232 355.898 148.288 351.314 Q151.366 346.708 157.177 346.708 Z" fill="#000000" fill-rule="evenodd" fill-opacity="1" /><path clip-path="url(#clip380)" d="M 0 0 M127.593 158.393 Q124.445 158.393 122.593 160.546 Q120.765 162.698 120.765 166.448 Q120.765 170.175 122.593 172.351 Q124.445 174.504 127.593 174.504 Q130.742 174.504 132.57 172.351 Q134.422 170.175 134.422 166.448 Q134.422 162.698 132.57 160.546 Q130.742 158.393 127.593 158.393 M136.876 143.74 L136.876 147.999 Q135.117 147.166 133.311 146.726 Q131.529 146.286 129.769 146.286 Q125.14 146.286 122.686 149.411 Q120.255 152.536 119.908 158.856 Q121.274 156.842 123.334 155.777 Q125.394 154.689 127.871 154.689 Q133.08 154.689 136.089 157.86 Q139.121 161.009 139.121 166.448 Q139.121 171.772 135.973 174.99 Q132.825 178.208 127.593 178.208 Q121.598 178.208 118.427 173.624 Q115.256 169.018 115.256 160.291 Q115.256 152.097 119.144 147.236 Q123.033 142.351 129.584 142.351 Q131.343 142.351 133.126 142.699 Q134.931 143.046 136.876 143.74 Z" fill="#000000" fill-rule="evenodd" fill-opacity="1" /><path clip-path="url(#clip380)" d="M 0 0 M157.177 146.055 Q153.566 146.055 151.737 149.62 Q149.931 153.161 149.931 160.291 Q149.931 167.397 151.737 170.962 Q153.566 174.504 157.177 174.504 Q160.811 174.504 162.616 170.962 Q164.445 167.397 164.445 160.291 Q164.445 153.161 162.616 149.62 Q160.811 146.055 157.177 146.055 M157.177 142.351 Q162.987 142.351 166.042 146.958 Q169.121 151.541 169.121 160.291 Q169.121 169.018 166.042 173.624 Q162.987 178.208 157.177 178.208 Q151.366 178.208 148.288 173.624 Q145.232 169.018 145.232 160.291 Q145.232 151.541 148.288 146.958 Q151.366 142.351 157.177 142.351 Z" fill="#000000" fill-rule="evenodd" fill-opacity="1" /><path clip-path="url(#clip380)" d="M 0 0 M16.4842 1125.35 L16.4842 1085.15 L21.895 1085.15 L21.895 1102.02 L64.0042 1102.02 L64.0042 1108.48 L21.895 1108.48 L21.895 1125.35 L16.4842 1125.35 Z" fill="#000000" fill-rule="evenodd" fill-opacity="1" /><path clip-path="url(#clip380)" d="M 0 0 M33.8307 1068.12 Q33.2578 1069.11 33.0032 1070.29 Q32.7167 1071.43 32.7167 1072.83 Q32.7167 1077.8 35.9632 1080.47 Q39.1779 1083.11 45.2253 1083.11 L64.0042 1083.11 L64.0042 1089 L28.3562 1089 L28.3562 1083.11 L33.8944 1083.11 Q30.6479 1081.27 29.0883 1078.31 Q27.4968 1075.35 27.4968 1071.11 Q27.4968 1070.51 27.5923 1069.78 Q27.656 1069.04 27.8151 1068.15 L33.8307 1068.12 Z" fill="#000000" fill-rule="evenodd" fill-opacity="1" /><path clip-path="url(#clip380)" d="M 0 0 M46.0847 1045.78 Q46.0847 1052.88 47.7079 1055.61 Q49.3312 1058.35 53.2461 1058.35 Q56.3653 1058.35 58.2114 1056.31 Q60.0256 1054.24 60.0256 1050.71 Q60.0256 1045.84 56.5881 1042.91 Q53.1188 1039.95 47.3897 1039.95 L46.0847 1039.95 L46.0847 1045.78 M43.6657 1034.1 L64.0042 1034.1 L64.0042 1039.95 L58.5933 1039.95 Q61.8398 1041.96 63.3994 1044.95 Q64.9272 1047.94 64.9272 1052.27 Q64.9272 1057.75 61.8716 1060.99 Q58.7843 1064.21 53.6281 1064.21 Q47.6125 1064.21 44.5569 1060.2 Q41.5014 1056.15 41.5014 1048.17 L41.5014 1039.95 L40.9285 1039.95 Q36.8862 1039.95 34.6901 1042.63 Q32.4621 1045.27 32.4621 1050.08 Q32.4621 1053.13 33.1941 1056.03 Q33.9262 1058.92 35.3903 1061.6 L29.9795 1061.6 Q28.7381 1058.38 28.1334 1055.36 Q27.4968 1052.33 27.4968 1049.47 Q27.4968 1041.74 31.5072 1037.92 Q35.5176 1034.1 43.6657 1034.1 Z" fill="#000000" fill-rule="evenodd" fill-opacity="1" /><path clip-path="url(#clip380)" d="M 0 0 M28.3562 1026.24 L28.3562 1020.03 L58.275 1008.89 L28.3562 997.749 L28.3562 991.542 L64.0042 1004.91 L64.0042 1012.87 L28.3562 1026.24 Z" fill="#000000" fill-rule="evenodd" fill-opacity="1" /><path clip-path="url(#clip380)" d="M 0 0 M44.7161 952.966 L47.5806 952.966 L47.5806 979.893 Q53.6281 979.511 56.8109 976.265 Q59.9619 972.986 59.9619 967.162 Q59.9619 963.788 59.1344 960.637 Q58.3069 957.454 56.6518 954.335 L62.1899 954.335 Q63.5267 957.486 64.227 960.796 Q64.9272 964.106 64.9272 967.512 Q64.9272 976.042 59.9619 981.039 Q54.9967 986.004 46.5303 986.004 Q37.7774 986.004 32.6531 981.294 Q27.4968 976.551 27.4968 968.53 Q27.4968 961.337 32.1438 957.168 Q36.7589 952.966 44.7161 952.966 M42.9973 958.823 Q38.1912 958.886 35.3266 961.528 Q32.4621 964.138 32.4621 968.467 Q32.4621 973.368 35.2312 976.328 Q38.0002 979.257 43.0292 979.702 L42.9973 958.823 Z" fill="#000000" fill-rule="evenodd" fill-opacity="1" /><path clip-path="url(#clip380)" d="M 0 0 M14.479 943.354 L14.479 937.498 L64.0042 937.498 L64.0042 943.354 L14.479 943.354 Z" fill="#000000" fill-rule="evenodd" fill-opacity="1" /><path clip-path="url(#clip380)" d="M 0 0 M16.4842 910.857 L16.4842 870.658 L21.895 870.658 L21.895 887.527 L64.0042 887.527 L64.0042 893.988 L21.895 893.988 L21.895 910.857 L16.4842 910.857 Z" fill="#000000" fill-rule="evenodd" fill-opacity="1" /><path clip-path="url(#clip380)" d="M 0 0 M28.3562 866.711 L28.3562 860.854 L64.0042 860.854 L64.0042 866.711 L28.3562 866.711 M14.479 866.711 L14.479 860.854 L21.895 860.854 L21.895 866.711 L14.479 866.711 Z" fill="#000000" fill-rule="evenodd" fill-opacity="1" /><path clip-path="url(#clip380)" d="M 0 0 M35.1993 820.846 Q31.2526 818.65 29.3747 815.594 Q27.4968 812.539 27.4968 808.401 Q27.4968 802.831 31.4117 799.807 Q35.2948 796.784 42.4881 796.784 L64.0042 796.784 L64.0042 802.672 L42.679 802.672 Q37.5546 802.672 35.072 804.486 Q32.5894 806.3 32.5894 810.024 Q32.5894 814.576 35.6131 817.218 Q38.6368 819.859 43.8567 819.859 L64.0042 819.859 L64.0042 825.748 L42.679 825.748 Q37.5228 825.748 35.072 827.562 Q32.5894 829.376 32.5894 833.164 Q32.5894 837.651 35.6449 840.293 Q38.6686 842.935 43.8567 842.935 L64.0042 842.935 L64.0042 848.823 L28.3562 848.823 L28.3562 842.935 L33.8944 842.935 Q30.616 840.93 29.0564 838.129 Q27.4968 835.328 27.4968 831.477 Q27.4968 827.594 29.4702 824.888 Q31.4436 822.151 35.1993 820.846 Z" fill="#000000" fill-rule="evenodd" fill-opacity="1" /><path clip-path="url(#clip380)" d="M 0 0 M44.7161 754.611 L47.5806 754.611 L47.5806 781.538 Q53.6281 781.156 56.8109 777.909 Q59.9619 774.631 59.9619 768.806 Q59.9619 765.433 59.1344 762.281 Q58.3069 759.099 56.6518 755.979 L62.1899 755.979 Q63.5267 759.13 64.227 762.441 Q64.9272 765.751 64.9272 769.156 Q64.9272 777.686 59.9619 782.684 Q54.9967 787.649 46.5303 787.649 Q37.7774 787.649 32.6531 782.938 Q27.4968 778.196 27.4968 770.175 Q27.4968 762.982 32.1438 758.812 Q36.7589 754.611 44.7161 754.611 M42.9973 760.467 Q38.1912 760.531 35.3266 763.173 Q32.4621 765.783 32.4621 770.111 Q32.4621 775.013 35.2312 777.973 Q38.0002 780.901 43.0292 781.347 L42.9973 760.467 Z" fill="#000000" fill-rule="evenodd" fill-opacity="1" /><path clip-path="url(#clip380)" d="M 0 0 M14.5426 710.21 Q21.8632 714.475 29.0246 716.544 Q36.186 718.613 43.5384 718.613 Q50.8908 718.613 58.1159 716.544 Q65.3091 714.443 72.5979 710.21 L72.5979 715.303 Q65.1182 720.077 57.8931 722.464 Q50.668 724.819 43.5384 724.819 Q36.4406 724.819 29.2474 722.464 Q22.0542 720.109 14.5426 715.303 L14.5426 710.21 Z" fill="#000000" fill-rule="evenodd" fill-opacity="1" /><path clip-path="url(#clip380)" d="M 0 0 M35.1993 671.093 Q31.2526 668.897 29.3747 665.841 Q27.4968 662.785 27.4968 658.648 Q27.4968 653.078 31.4117 650.054 Q35.2948 647.03 42.4881 647.03 L64.0042 647.03 L64.0042 652.919 L42.679 652.919 Q37.5546 652.919 35.072 654.733 Q32.5894 656.547 32.5894 660.271 Q32.5894 664.823 35.6131 667.464 Q38.6368 670.106 43.8567 670.106 L64.0042 670.106 L64.0042 675.994 L42.679 675.994 Q37.5228 675.994 35.072 677.809 Q32.5894 679.623 32.5894 683.41 Q32.5894 687.898 35.6449 690.54 Q38.6686 693.182 43.8567 693.182 L64.0042 693.182 L64.0042 699.07 L28.3562 699.07 L28.3562 693.182 L33.8944 693.182 Q30.616 691.177 29.0564 688.376 Q27.4968 685.575 27.4968 681.723 Q27.4968 677.84 29.4702 675.135 Q31.4436 672.398 35.1993 671.093 Z" fill="#000000" fill-rule="evenodd" fill-opacity="1" /><path clip-path="url(#clip380)" d="M 0 0 M28.3562 635.349 L28.3562 629.493 L64.0042 629.493 L64.0042 635.349 L28.3562 635.349 M14.479 635.349 L14.479 629.493 L21.895 629.493 L21.895 635.349 L14.479 635.349 Z" fill="#000000" fill-rule="evenodd" fill-opacity="1" /><path clip-path="url(#clip380)" d="M 0 0 M42.4881 587.606 L64.0042 587.606 L64.0042 593.463 L42.679 593.463 Q37.6183 593.463 35.1038 595.436 Q32.5894 597.41 32.5894 601.356 Q32.5894 606.099 35.6131 608.836 Q38.6368 611.573 43.8567 611.573 L64.0042 611.573 L64.0042 617.462 L28.3562 617.462 L28.3562 611.573 L33.8944 611.573 Q30.6797 609.473 29.0883 606.64 Q27.4968 603.775 27.4968 600.051 Q27.4968 593.909 31.3163 590.758 Q35.1038 587.606 42.4881 587.606 Z" fill="#000000" fill-rule="evenodd" fill-opacity="1" /><path clip-path="url(#clip380)" d="M 0 0 M49.9359 576.53 L28.3562 576.53 L28.3562 570.674 L49.7131 570.674 Q54.7739 570.674 57.3202 568.7 Q59.8346 566.727 59.8346 562.78 Q59.8346 558.038 56.8109 555.301 Q53.7872 552.531 48.5673 552.531 L28.3562 552.531 L28.3562 546.675 L64.0042 546.675 L64.0042 552.531 L58.5296 552.531 Q61.7762 554.664 63.3676 557.497 Q64.9272 560.298 64.9272 564.022 Q64.9272 570.164 61.1078 573.347 Q57.2883 576.53 49.9359 576.53 M27.4968 561.794 L27.4968 561.794 Z" fill="#000000" fill-rule="evenodd" fill-opacity="1" /><path clip-path="url(#clip380)" d="M 0 0 M18.2347 528.819 L28.3562 528.819 L28.3562 516.756 L32.9077 516.756 L32.9077 528.819 L52.2594 528.819 Q56.6199 528.819 57.8613 527.642 Q59.1026 526.432 59.1026 522.772 L59.1026 516.756 L64.0042 516.756 L64.0042 522.772 Q64.0042 529.551 61.4897 532.129 Q58.9434 534.707 52.2594 534.707 L32.9077 534.707 L32.9077 539.004 L28.3562 539.004 L28.3562 534.707 L18.2347 534.707 L18.2347 528.819 Z" fill="#000000" fill-rule="evenodd" fill-opacity="1" /><path clip-path="url(#clip380)" d="M 0 0 M44.7161 478.562 L47.5806 478.562 L47.5806 505.489 Q53.6281 505.107 56.8109 501.86 Q59.9619 498.582 59.9619 492.757 Q59.9619 489.384 59.1344 486.233 Q58.3069 483.05 56.6518 479.931 L62.1899 479.931 Q63.5267 483.082 64.227 486.392 Q64.9272 489.702 64.9272 493.108 Q64.9272 501.638 59.9619 506.635 Q54.9967 511.6 46.5303 511.6 Q37.7774 511.6 32.6531 506.889 Q27.4968 502.147 27.4968 494.126 Q27.4968 486.933 32.1438 482.763 Q36.7589 478.562 44.7161 478.562 M42.9973 484.418 Q38.1912 484.482 35.3266 487.124 Q32.4621 489.734 32.4621 494.062 Q32.4621 498.964 35.2312 501.924 Q38.0002 504.852 43.0292 505.298 L42.9973 484.418 Z" fill="#000000" fill-rule="evenodd" fill-opacity="1" /><path clip-path="url(#clip380)" d="M 0 0 M29.4065 446.224 L34.9447 446.224 Q33.6716 448.707 33.035 451.38 Q32.3984 454.054 32.3984 456.919 Q32.3984 461.279 33.7352 463.475 Q35.072 465.64 37.7456 465.64 Q39.7826 465.64 40.9603 464.08 Q42.1061 462.52 43.1565 457.81 L43.6021 455.805 Q44.9389 449.566 47.3897 446.956 Q49.8086 444.314 54.1691 444.314 Q59.1344 444.314 62.0308 448.261 Q64.9272 452.176 64.9272 459.051 Q64.9272 461.916 64.3543 465.035 Q63.8132 468.122 62.6992 471.56 L56.6518 471.56 Q58.3387 468.313 59.198 465.162 Q60.0256 462.011 60.0256 458.924 Q60.0256 454.786 58.6251 452.558 Q57.1929 450.33 54.6147 450.33 Q52.2276 450.33 50.9545 451.953 Q49.6813 453.545 48.5037 458.987 L48.0262 461.024 Q46.8804 466.467 44.5251 468.886 Q42.138 471.305 38.0002 471.305 Q32.9713 471.305 30.2341 467.74 Q27.4968 464.175 27.4968 457.619 Q27.4968 454.372 27.9743 451.508 Q28.4517 448.643 29.4065 446.224 Z" fill="#000000" fill-rule="evenodd" fill-opacity="1" /><path clip-path="url(#clip380)" d="M 0 0 M14.5426 435.912 L14.5426 430.819 Q22.0542 426.045 29.2474 423.69 Q36.4406 421.302 43.5384 421.302 Q50.668 421.302 57.8931 423.69 Q65.1182 426.045 72.5979 430.819 L72.5979 435.912 Q65.3091 431.679 58.1159 429.61 Q50.8908 427.509 43.5384 427.509 Q36.186 427.509 29.0246 429.61 Q21.8632 431.679 14.5426 435.912 Z" fill="#000000" fill-rule="evenodd" fill-opacity="1" /><path clip-path="url(#clip380)" d="M 0 0 M742.862 65.6895 L771.421 65.6895 L771.421 72.576 L733.018 72.576 L733.018 65.6895 Q737.677 60.8689 745.698 52.7671 Q753.759 44.6248 755.825 42.2752 Q759.754 37.8598 761.294 34.8216 Q762.873 31.7429 762.873 28.7857 Q762.873 23.9651 759.471 20.927 Q756.108 17.8888 750.68 17.8888 Q746.832 17.8888 742.538 19.2256 Q738.285 20.5624 733.423 23.2765 L733.423 15.0127 Q738.366 13.0277 742.659 12.015 Q746.953 11.0023 750.518 11.0023 Q759.916 11.0023 765.507 15.7013 Q771.097 20.4004 771.097 28.2591 Q771.097 31.9859 769.679 35.3482 Q768.302 38.6699 764.615 43.2069 Q763.603 44.3817 758.174 50.0125 Q752.746 55.6027 742.862 65.6895 Z" fill="#000000" fill-rule="evenodd" fill-opacity="1" /><path clip-path="url(#clip380)" d="M 0 0 M806.097 17.4837 Q799.777 17.4837 796.577 23.7221 Q793.417 29.92 793.417 42.3968 Q793.417 54.833 796.577 61.0714 Q799.777 67.2693 806.097 67.2693 Q812.457 67.2693 815.616 61.0714 Q818.816 54.833 818.816 42.3968 Q818.816 29.92 815.616 23.7221 Q812.457 17.4837 806.097 17.4837 M806.097 11.0023 Q816.264 11.0023 821.612 19.0636 Q826.999 27.0843 826.999 42.3968 Q826.999 57.6687 821.612 65.73 Q816.264 73.7508 806.097 73.7508 Q795.929 73.7508 790.541 65.73 Q785.194 57.6687 785.194 42.3968 Q785.194 27.0843 790.541 19.0636 Q795.929 11.0023 806.097 11.0023 Z" fill="#000000" fill-rule="evenodd" fill-opacity="1" /><path clip-path="url(#clip380)" d="M 0 0 M848.429 65.6895 L876.987 65.6895 L876.987 72.576 L838.585 72.576 L838.585 65.6895 Q843.243 60.8689 851.264 52.7671 Q859.326 44.6248 861.391 42.2752 Q865.321 37.8598 866.86 34.8216 Q868.44 31.7429 868.44 28.7857 Q868.44 23.9651 865.037 20.927 Q861.675 17.8888 856.247 17.8888 Q852.398 17.8888 848.105 19.2256 Q843.851 20.5624 838.99 23.2765 L838.99 15.0127 Q843.932 13.0277 848.226 12.015 Q852.52 11.0023 856.085 11.0023 Q865.483 11.0023 871.073 15.7013 Q876.663 20.4004 876.663 28.2591 Q876.663 31.9859 875.246 35.3482 Q873.868 38.6699 870.182 43.2069 Q869.169 44.3817 863.741 50.0125 Q858.313 55.6027 848.429 65.6895 Z" fill="#000000" fill-rule="evenodd" fill-opacity="1" /><path clip-path="url(#clip380)" d="M 0 0 M911.663 17.4837 Q905.344 17.4837 902.144 23.7221 Q898.984 29.92 898.984 42.3968 Q898.984 54.833 902.144 61.0714 Q905.344 67.2693 911.663 67.2693 Q918.023 67.2693 921.183 61.0714 Q924.383 54.833 924.383 42.3968 Q924.383 29.92 921.183 23.7221 Q918.023 17.4837 911.663 17.4837 M911.663 11.0023 Q921.831 11.0023 927.178 19.0636 Q932.566 27.0843 932.566 42.3968 Q932.566 57.6687 927.178 65.73 Q921.831 73.7508 911.663 73.7508 Q901.495 73.7508 896.108 65.73 Q890.761 57.6687 890.761 42.3968 Q890.761 27.0843 896.108 19.0636 Q901.495 11.0023 911.663 11.0023 Z" fill="#000000" fill-rule="evenodd" fill-opacity="1" /><path clip-path="url(#clip380)" d="M 0 0 M964.203 12.096 L1015.37 12.096 L1015.37 18.9825 L993.897 18.9825 L993.897 72.576 L985.673 72.576 L985.673 18.9825 L964.203 18.9825 L964.203 12.096 Z" fill="#000000" fill-rule="evenodd" fill-opacity="1" /><path clip-path="url(#clip380)" d="M 0 0 M1020.39 27.2059 L1027.84 27.2059 L1027.84 72.576 L1020.39 72.576 L1020.39 27.2059 M1020.39 9.54393 L1027.84 9.54393 L1027.84 18.9825 L1020.39 18.9825 L1020.39 9.54393 Z" fill="#000000" fill-rule="evenodd" fill-opacity="1" /><path clip-path="url(#clip380)" d="M 0 0 M1078.76 35.9153 Q1081.56 30.8922 1085.45 28.5022 Q1089.34 26.1121 1094.6 26.1121 Q1101.69 26.1121 1105.54 31.0947 Q1109.39 36.0368 1109.39 45.1919 L1109.39 72.576 L1101.89 72.576 L1101.89 45.4349 Q1101.89 38.913 1099.58 35.7533 Q1097.28 32.5936 1092.54 32.5936 Q1086.74 32.5936 1083.38 36.4419 Q1080.02 40.2903 1080.02 46.9338 L1080.02 72.576 L1072.52 72.576 L1072.52 45.4349 Q1072.52 38.8725 1070.22 35.7533 Q1067.91 32.5936 1063.09 32.5936 Q1057.37 32.5936 1054.01 36.4824 Q1050.65 40.3308 1050.65 46.9338 L1050.65 72.576 L1043.16 72.576 L1043.16 27.2059 L1050.65 27.2059 L1050.65 34.2544 Q1053.2 30.082 1056.77 28.0971 Q1060.33 26.1121 1065.23 26.1121 Q1070.18 26.1121 1073.62 28.6237 Q1077.1 31.1352 1078.76 35.9153 Z" fill="#000000" fill-rule="evenodd" fill-opacity="1" /><path clip-path="url(#clip380)" d="M 0 0 M1163.06 48.0275 L1163.06 51.6733 L1128.79 51.6733 Q1129.28 59.3701 1133.41 63.421 Q1137.58 67.4314 1145 67.4314 Q1149.29 67.4314 1153.3 66.3781 Q1157.35 65.3249 1161.32 63.2184 L1161.32 70.267 Q1157.31 71.9684 1153.1 72.8596 Q1148.88 73.7508 1144.55 73.7508 Q1133.69 73.7508 1127.33 67.4314 Q1121.01 61.1119 1121.01 50.3365 Q1121.01 39.1965 1127.01 32.6746 Q1133.05 26.1121 1143.25 26.1121 Q1152.41 26.1121 1157.72 32.0264 Q1163.06 37.9003 1163.06 48.0275 M1155.61 45.84 Q1155.53 39.7232 1152.17 36.0774 Q1148.84 32.4315 1143.33 32.4315 Q1137.1 32.4315 1133.33 35.9558 Q1129.6 39.4801 1129.03 45.8805 L1155.61 45.84 Z" fill="#000000" fill-rule="evenodd" fill-opacity="1" /><path clip-path="url(#clip380)" d="M 0 0 M1196.6 12.096 L1204.87 12.096 L1217.59 63.2184 L1230.27 12.096 L1239.46 12.096 L1252.18 63.2184 L1264.86 12.096 L1273.17 12.096 L1257.98 72.576 L1247.69 72.576 L1234.93 20.0763 L1222.04 72.576 L1211.75 72.576 L1196.6 12.096 Z" fill="#000000" fill-rule="evenodd" fill-opacity="1" /><path clip-path="url(#clip380)" d="M 0 0 M1299.01 49.7694 Q1289.98 49.7694 1286.49 51.8354 Q1283.01 53.9013 1283.01 58.8839 Q1283.01 62.8538 1285.6 65.2034 Q1288.24 67.5124 1292.73 67.5124 Q1298.93 67.5124 1302.66 63.1374 Q1306.42 58.7219 1306.42 51.4303 L1306.42 49.7694 L1299.01 49.7694 M1313.88 46.6907 L1313.88 72.576 L1306.42 72.576 L1306.42 65.6895 Q1303.87 69.8214 1300.06 71.8063 Q1296.26 73.7508 1290.75 73.7508 Q1283.78 73.7508 1279.65 69.8619 Q1275.56 65.9325 1275.56 59.3701 Q1275.56 51.7138 1280.66 47.825 Q1285.8 43.9361 1295.97 43.9361 L1306.42 43.9361 L1306.42 43.2069 Q1306.42 38.0623 1303.02 35.2672 Q1299.66 32.4315 1293.54 32.4315 Q1289.65 32.4315 1285.97 33.3632 Q1282.28 34.295 1278.88 36.1584 L1278.88 29.2718 Q1282.97 27.692 1286.82 26.9223 Q1290.67 26.1121 1294.31 26.1121 Q1304.16 26.1121 1309.02 31.2163 Q1313.88 36.3204 1313.88 46.6907 Z" fill="#000000" fill-rule="evenodd" fill-opacity="1" /><path clip-path="url(#clip380)" d="M 0 0 M1336.6 14.324 L1336.6 27.2059 L1351.96 27.2059 L1351.96 32.9987 L1336.6 32.9987 L1336.6 57.6282 Q1336.6 63.1779 1338.1 64.7578 Q1339.64 66.3376 1344.3 66.3376 L1351.96 66.3376 L1351.96 72.576 L1344.3 72.576 Q1335.67 72.576 1332.39 69.3758 Q1329.11 66.1351 1329.11 57.6282 L1329.11 32.9987 L1323.64 32.9987 L1323.64 27.2059 L1329.11 27.2059 L1329.11 14.324 L1336.6 14.324 Z" fill="#000000" fill-rule="evenodd" fill-opacity="1" /><path clip-path="url(#clip380)" d="M 0 0 M1400.57 48.0275 L1400.57 51.6733 L1366.3 51.6733 Q1366.78 59.3701 1370.91 63.421 Q1375.09 67.4314 1382.5 67.4314 Q1386.79 67.4314 1390.8 66.3781 Q1394.86 65.3249 1398.82 63.2184 L1398.82 70.267 Q1394.81 71.9684 1390.6 72.8596 Q1386.39 73.7508 1382.05 73.7508 Q1371.2 73.7508 1364.84 67.4314 Q1358.52 61.1119 1358.52 50.3365 Q1358.52 39.1965 1364.51 32.6746 Q1370.55 26.1121 1380.76 26.1121 Q1389.91 26.1121 1395.22 32.0264 Q1400.57 37.9003 1400.57 48.0275 M1393.11 45.84 Q1393.03 39.7232 1389.67 36.0774 Q1386.35 32.4315 1380.84 32.4315 Q1374.6 32.4315 1370.83 35.9558 Q1367.11 39.4801 1366.54 45.8805 L1393.11 45.84 Z" fill="#000000" fill-rule="evenodd" fill-opacity="1" /><path clip-path="url(#clip380)" d="M 0 0 M1442.66 34.0924 L1442.66 9.54393 L1450.11 9.54393 L1450.11 72.576 L1442.66 72.576 L1442.66 65.7705 Q1440.31 69.8214 1436.7 71.8063 Q1433.14 73.7508 1428.11 73.7508 Q1419.89 73.7508 1414.7 67.1883 Q1409.56 60.6258 1409.56 49.9314 Q1409.56 39.2371 1414.7 32.6746 Q1419.89 26.1121 1428.11 26.1121 Q1433.14 26.1121 1436.7 28.0971 Q1440.31 30.0415 1442.66 34.0924 M1417.26 49.9314 Q1417.26 58.1548 1420.62 62.8538 Q1424.02 67.5124 1429.94 67.5124 Q1435.85 67.5124 1439.25 62.8538 Q1442.66 58.1548 1442.66 49.9314 Q1442.66 41.7081 1439.25 37.0496 Q1435.85 32.3505 1429.94 32.3505 Q1424.02 32.3505 1420.62 37.0496 Q1417.26 41.7081 1417.26 49.9314 Z" fill="#000000" fill-rule="evenodd" fill-opacity="1" /><path clip-path="url(#clip380)" d="M 0 0 M1491.83 27.2059 L1499.29 27.2059 L1499.29 72.576 L1491.83 72.576 L1491.83 27.2059 M1491.83 9.54393 L1499.29 9.54393 L1499.29 18.9825 L1491.83 18.9825 L1491.83 9.54393 Z" fill="#000000" fill-rule="evenodd" fill-opacity="1" /><path clip-path="url(#clip380)" d="M 0 0 M1552.6 45.1919 L1552.6 72.576 L1545.14 72.576 L1545.14 45.4349 Q1545.14 38.994 1542.63 35.7938 Q1540.12 32.5936 1535.1 32.5936 Q1529.06 32.5936 1525.58 36.4419 Q1522.09 40.2903 1522.09 46.9338 L1522.09 72.576 L1514.6 72.576 L1514.6 27.2059 L1522.09 27.2059 L1522.09 34.2544 Q1524.77 30.163 1528.37 28.1376 Q1532.02 26.1121 1536.76 26.1121 Q1544.58 26.1121 1548.59 30.9732 Q1552.6 35.7938 1552.6 45.1919 Z" fill="#000000" fill-rule="evenodd" fill-opacity="1" /><path clip-path="url(#clip380)" d="M 0 0 M1585.77 12.096 L1636.94 12.096 L1636.94 18.9825 L1615.47 18.9825 L1615.47 72.576 L1607.24 72.576 L1607.24 18.9825 L1585.77 18.9825 L1585.77 12.096 Z" fill="#000000" fill-rule="evenodd" fill-opacity="1" /><path clip-path="url(#clip380)" d="M 0 0 M1658.61 34.1734 Q1657.35 33.4443 1655.85 33.1202 Q1654.4 32.7556 1652.61 32.7556 Q1646.29 32.7556 1642.89 36.8875 Q1639.53 40.9789 1639.53 48.6757 L1639.53 72.576 L1632.04 72.576 L1632.04 27.2059 L1639.53 27.2059 L1639.53 34.2544 Q1641.88 30.1225 1645.65 28.1376 Q1649.41 26.1121 1654.8 26.1121 Q1655.57 26.1121 1656.5 26.2337 Q1657.43 26.3147 1658.57 26.5172 L1658.61 34.1734 Z" fill="#000000" fill-rule="evenodd" fill-opacity="1" /><path clip-path="url(#clip380)" d="M 0 0 M1687.05 49.7694 Q1678.01 49.7694 1674.53 51.8354 Q1671.05 53.9013 1671.05 58.8839 Q1671.05 62.8538 1673.64 65.2034 Q1676.27 67.5124 1680.77 67.5124 Q1686.97 67.5124 1690.69 63.1374 Q1694.46 58.7219 1694.46 51.4303 L1694.46 49.7694 L1687.05 49.7694 M1701.91 46.6907 L1701.91 72.576 L1694.46 72.576 L1694.46 65.6895 Q1691.91 69.8214 1688.1 71.8063 Q1684.29 73.7508 1678.78 73.7508 Q1671.82 73.7508 1667.68 69.8619 Q1663.59 65.9325 1663.59 59.3701 Q1663.59 51.7138 1668.7 47.825 Q1673.84 43.9361 1684.01 43.9361 L1694.46 43.9361 L1694.46 43.2069 Q1694.46 38.0623 1691.06 35.2672 Q1687.69 32.4315 1681.58 32.4315 Q1677.69 32.4315 1674 33.3632 Q1670.32 34.295 1666.91 36.1584 L1666.91 29.2718 Q1671.01 27.692 1674.85 26.9223 Q1678.7 26.1121 1682.35 26.1121 Q1692.19 26.1121 1697.05 31.2163 Q1701.91 36.3204 1701.91 46.6907 Z" fill="#000000" fill-rule="evenodd" fill-opacity="1" /><path clip-path="url(#clip380)" d="M 0 0 M1711.92 27.2059 L1719.82 27.2059 L1734 65.2844 L1748.17 27.2059 L1756.07 27.2059 L1739.06 72.576 L1728.93 72.576 L1711.92 27.2059 Z" fill="#000000" fill-rule="evenodd" fill-opacity="1" /><path clip-path="url(#clip380)" d="M 0 0 M1805.17 48.0275 L1805.17 51.6733 L1770.9 51.6733 Q1771.39 59.3701 1775.52 63.421 Q1779.69 67.4314 1787.1 67.4314 Q1791.4 67.4314 1795.41 66.3781 Q1799.46 65.3249 1803.43 63.2184 L1803.43 70.267 Q1799.42 71.9684 1795.21 72.8596 Q1790.99 73.7508 1786.66 73.7508 Q1775.8 73.7508 1769.44 67.4314 Q1763.12 61.1119 1763.12 50.3365 Q1763.12 39.1965 1769.12 32.6746 Q1775.15 26.1121 1785.36 26.1121 Q1794.52 26.1121 1799.82 32.0264 Q1805.17 37.9003 1805.17 48.0275 M1797.72 45.84 Q1797.64 39.7232 1794.27 36.0774 Q1790.95 32.4315 1785.44 32.4315 Q1779.2 32.4315 1775.44 35.9558 Q1771.71 39.4801 1771.14 45.8805 L1797.72 45.84 Z" fill="#000000" fill-rule="evenodd" fill-opacity="1" /><path clip-path="url(#clip380)" d="M 0 0 M1817.4 9.54393 L1824.86 9.54393 L1824.86 72.576 L1817.4 72.576 L1817.4 9.54393 Z" fill="#000000" fill-rule="evenodd" fill-opacity="1" /><path clip-path="url(#clip382)" d="
M323.245 160.256 L323.245 1386.4 L641.809 1386.4 L641.809 160.256 L323.245 160.256 L323.245 160.256  Z
  " fill="#009af9" fill-rule="evenodd" fill-opacity="1"/>
<polyline clip-path="url(#clip382)" style="stroke:#000000; stroke-width:4; stroke-opacity:1; fill:none" points="
  323.245,160.256 323.245,1386.4 641.809,1386.4 641.809,160.256 323.245,160.256 
  "/>
<path clip-path="url(#clip382)" d="
M721.45 466.791 L721.45 1386.4 L1040.02 1386.4 L1040.02 466.791 L721.45 466.791 L721.45 466.791  Z
  " fill="#009af9" fill-rule="evenodd" fill-opacity="1"/>
<polyline clip-path="url(#clip382)" style="stroke:#000000; stroke-width:4; stroke-opacity:1; fill:none" points="
  721.45,466.791 721.45,1386.4 1040.02,1386.4 1040.02,466.791 721.45,466.791 
  "/>
<path clip-path="url(#clip382)" d="
M1119.66 671.148 L1119.66 1386.4 L1438.22 1386.4 L1438.22 671.148 L1119.66 671.148 L1119.66 671.148  Z
  " fill="#009af9" fill-rule="evenodd" fill-opacity="1"/>
<polyline clip-path="url(#clip382)" style="stroke:#000000; stroke-width:4; stroke-opacity:1; fill:none" points="
  1119.66,671.148 1119.66,1386.4 1438.22,1386.4 1438.22,671.148 1119.66,671.148 
  "/>
<path clip-path="url(#clip382)" d="
M1517.86 568.969 L1517.86 1386.4 L1836.43 1386.4 L1836.43 568.969 L1517.86 568.969 L1517.86 568.969  Z
  " fill="#009af9" fill-rule="evenodd" fill-opacity="1"/>
<polyline clip-path="url(#clip382)" style="stroke:#000000; stroke-width:4; stroke-opacity:1; fill:none" points="
  1517.86,568.969 1517.86,1386.4 1836.43,1386.4 1836.43,568.969 1517.86,568.969 
  "/>
<path clip-path="url(#clip382)" d="
M1916.07 773.326 L1916.07 1386.4 L2234.63 1386.4 L2234.63 773.326 L1916.07 773.326 L1916.07 773.326  Z
  " fill="#009af9" fill-rule="evenodd" fill-opacity="1"/>
<polyline clip-path="url(#clip382)" style="stroke:#000000; stroke-width:4; stroke-opacity:1; fill:none" points="
  1916.07,773.326 1916.07,1386.4 2234.63,1386.4 2234.63,773.326 1916.07,773.326 
  "/>
<path clip-path="url(#clip380)" d="
M1772.91 287.756 L2281.17 287.756 L2281.17 166.796 L1772.91 166.796  Z
  " fill="#ffffff" fill-rule="evenodd" fill-opacity="1"/>
<polyline clip-path="url(#clip380)" style="stroke:#000000; stroke-width:4; stroke-opacity:1; fill:none" points="
  1772.91,287.756 2281.17,287.756 2281.17,166.796 1772.91,166.796 1772.91,287.756 
  "/>
<path clip-path="url(#clip380)" d="
M1796.78 251.468 L1939.95 251.468 L1939.95 203.084 L1796.78 203.084 L1796.78 251.468  Z
  " fill="#009af9" fill-rule="evenodd" fill-opacity="1"/>
<polyline clip-path="url(#clip380)" style="stroke:#000000; stroke-width:4; stroke-opacity:1; fill:none" points="
  1796.78,251.468 1939.95,251.468 1939.95,203.084 1796.78,203.084 1796.78,251.468 
  "/>
<path clip-path="url(#clip380)" d="M 0 0 M1963.81 209.996 L1993.05 209.996 L1993.05 213.931 L1980.78 213.931 L1980.78 244.556 L1976.08 244.556 L1976.08 213.931 L1963.81 213.931 L1963.81 209.996 Z" fill="#000000" fill-rule="evenodd" fill-opacity="1" /><path clip-path="url(#clip380)" d="M 0 0 M2005.43 222.611 Q2004.72 222.195 2003.86 222.01 Q2003.03 221.801 2002.01 221.801 Q1998.4 221.801 1996.45 224.162 Q1994.53 226.5 1994.53 230.898 L1994.53 244.556 L1990.25 244.556 L1990.25 218.63 L1994.53 218.63 L1994.53 222.658 Q1995.87 220.297 1998.03 219.162 Q2000.18 218.005 2003.26 218.005 Q2003.7 218.005 2004.23 218.074 Q2004.76 218.121 2005.41 218.236 L2005.43 222.611 Z" fill="#000000" fill-rule="evenodd" fill-opacity="1" /><path clip-path="url(#clip380)" d="M 0 0 M2021.68 231.523 Q2016.52 231.523 2014.53 232.704 Q2012.54 233.884 2012.54 236.732 Q2012.54 239 2014.02 240.343 Q2015.53 241.662 2018.1 241.662 Q2021.64 241.662 2023.77 239.162 Q2025.92 236.639 2025.92 232.472 L2025.92 231.523 L2021.68 231.523 M2030.18 229.764 L2030.18 244.556 L2025.92 244.556 L2025.92 240.621 Q2024.46 242.982 2022.29 244.116 Q2020.11 245.227 2016.96 245.227 Q2012.98 245.227 2010.62 243.005 Q2008.28 240.759 2008.28 237.009 Q2008.28 232.634 2011.2 230.412 Q2014.14 228.19 2019.95 228.19 L2025.92 228.19 L2025.92 227.773 Q2025.92 224.834 2023.98 223.236 Q2022.06 221.616 2018.56 221.616 Q2016.34 221.616 2014.23 222.148 Q2012.12 222.681 2010.18 223.746 L2010.18 219.81 Q2012.52 218.908 2014.72 218.468 Q2016.92 218.005 2019 218.005 Q2024.62 218.005 2027.4 220.922 Q2030.18 223.838 2030.18 229.764 Z" fill="#000000" fill-rule="evenodd" fill-opacity="1" /><path clip-path="url(#clip380)" d="M 0 0 M2035.9 218.63 L2040.41 218.63 L2048.51 240.389 L2056.62 218.63 L2061.13 218.63 L2051.41 244.556 L2045.62 244.556 L2035.9 218.63 Z" fill="#000000" fill-rule="evenodd" fill-opacity="1" /><path clip-path="url(#clip380)" d="M 0 0 M2089.18 230.528 L2089.18 232.611 L2069.6 232.611 Q2069.88 237.009 2072.24 239.324 Q2074.62 241.616 2078.86 241.616 Q2081.31 241.616 2083.61 241.014 Q2085.92 240.412 2088.19 239.209 L2088.19 243.236 Q2085.9 244.208 2083.49 244.718 Q2081.08 245.227 2078.61 245.227 Q2072.4 245.227 2068.77 241.616 Q2065.16 238.005 2065.16 231.847 Q2065.16 225.482 2068.58 221.755 Q2072.03 218.005 2077.86 218.005 Q2083.1 218.005 2086.13 221.385 Q2089.18 224.741 2089.18 230.528 M2084.93 229.278 Q2084.88 225.783 2082.96 223.699 Q2081.06 221.616 2077.91 221.616 Q2074.35 221.616 2072.19 223.63 Q2070.06 225.644 2069.74 229.301 L2084.93 229.278 Z" fill="#000000" fill-rule="evenodd" fill-opacity="1" /><path clip-path="url(#clip380)" d="M 0 0 M2096.18 208.537 L2100.43 208.537 L2100.43 244.556 L2096.18 244.556 L2096.18 208.537 Z" fill="#000000" fill-rule="evenodd" fill-opacity="1" /><path clip-path="url(#clip380)" d="M 0 0 M2119.81 209.996 L2149.05 209.996 L2149.05 213.931 L2136.78 213.931 L2136.78 244.556 L2132.08 244.556 L2132.08 213.931 L2119.81 213.931 L2119.81 209.996 Z" fill="#000000" fill-rule="evenodd" fill-opacity="1" /><path clip-path="url(#clip380)" d="M 0 0 M2151.92 218.63 L2156.17 218.63 L2156.17 244.556 L2151.92 244.556 L2151.92 218.63 M2151.92 208.537 L2156.17 208.537 L2156.17 213.931 L2151.92 213.931 L2151.92 208.537 Z" fill="#000000" fill-rule="evenodd" fill-opacity="1" /><path clip-path="url(#clip380)" d="M 0 0 M2185.27 223.607 Q2186.87 220.736 2189.09 219.371 Q2191.31 218.005 2194.32 218.005 Q2198.37 218.005 2200.57 220.852 Q2202.77 223.676 2202.77 228.908 L2202.77 244.556 L2198.49 244.556 L2198.49 229.047 Q2198.49 225.32 2197.17 223.514 Q2195.85 221.709 2193.14 221.709 Q2189.83 221.709 2187.91 223.908 Q2185.99 226.107 2185.99 229.903 L2185.99 244.556 L2181.71 244.556 L2181.71 229.047 Q2181.71 225.297 2180.39 223.514 Q2179.07 221.709 2176.31 221.709 Q2173.05 221.709 2171.13 223.931 Q2169.21 226.13 2169.21 229.903 L2169.21 244.556 L2164.92 244.556 L2164.92 218.63 L2169.21 218.63 L2169.21 222.658 Q2170.67 220.273 2172.7 219.139 Q2174.74 218.005 2177.54 218.005 Q2180.36 218.005 2182.33 219.44 Q2184.32 220.875 2185.27 223.607 Z" fill="#000000" fill-rule="evenodd" fill-opacity="1" /><path clip-path="url(#clip380)" d="M 0 0 M2233.44 230.528 L2233.44 232.611 L2213.86 232.611 Q2214.14 237.009 2216.5 239.324 Q2218.88 241.616 2223.12 241.616 Q2225.57 241.616 2227.86 241.014 Q2230.18 240.412 2232.45 239.209 L2232.45 243.236 Q2230.16 244.208 2227.75 244.718 Q2225.34 245.227 2222.86 245.227 Q2216.66 245.227 2213.03 241.616 Q2209.42 238.005 2209.42 231.847 Q2209.42 225.482 2212.84 221.755 Q2216.29 218.005 2222.12 218.005 Q2227.35 218.005 2230.39 221.385 Q2233.44 224.741 2233.44 230.528 M2229.18 229.278 Q2229.14 225.783 2227.22 223.699 Q2225.32 221.616 2222.17 221.616 Q2218.6 221.616 2216.45 223.63 Q2214.32 225.644 2214 229.301 L2229.18 229.278 Z" fill="#000000" fill-rule="evenodd" fill-opacity="1" /></svg>
