<?xml version="1.0" encoding="utf-8"?>
<svg xmlns="http://www.w3.org/2000/svg" xmlns:xlink="http://www.w3.org/1999/xlink" width="600" height="400" viewBox="0 0 2400 1600">
<defs>
  <clipPath id="clip460">
    <rect x="0" y="0" width="2400" height="1600"/>
  </clipPath>
</defs>
<path clip-path="url(#clip460)" d="
M0 1600 L2400 1600 L2400 0 L0 0  Z
  " fill="#ffffff" fill-rule="evenodd" fill-opacity="1"/>
<defs>
  <clipPath id="clip461">
    <rect x="480" y="0" width="1681" height="1600"/>
  </clipPath>
</defs>
<path clip-path="url(#clip460)" d="
M155.927 1486.45 L2352.76 1486.45 L2352.76 47.2441 L155.927 47.2441  Z
  " fill="#ffffff" fill-rule="evenodd" fill-opacity="1"/>
<defs>
  <clipPath id="clip462">
    <rect x="155" y="47" width="2198" height="1440"/>
  </clipPath>
</defs>
<polyline clip-path="url(#clip462)" style="stroke:#000000; stroke-width:2; stroke-opacity:0.1; fill:none" points="
  218.101,1486.45 218.101,47.2441 
  "/>
<polyline clip-path="url(#clip462)" style="stroke:#000000; stroke-width:2; stroke-opacity:0.1; fill:none" points="
  711.549,1486.45 711.549,47.2441 
  "/>
<polyline clip-path="url(#clip462)" style="stroke:#000000; stroke-width:2; stroke-opacity:0.1; fill:none" points="
  1205,1486.45 1205,47.2441 
  "/>
<polyline clip-path="url(#clip462)" style="stroke:#000000; stroke-width:2; stroke-opacity:0.1; fill:none" points="
  1698.44,1486.45 1698.44,47.2441 
  "/>
<polyline clip-path="url(#clip462)" style="stroke:#000000; stroke-width:2; stroke-opacity:0.1; fill:none" points="
  2191.89,1486.45 2191.89,47.2441 
  "/>
<polyline clip-path="url(#clip460)" style="stroke:#000000; stroke-width:4; stroke-opacity:1; fill:none" points="
  155.927,1486.45 2352.76,1486.45 
  "/>
<polyline clip-path="url(#clip460)" style="stroke:#000000; stroke-width:4; stroke-opacity:1; fill:none" points="
  218.101,1486.45 218.101,1469.18 
  "/>
<polyline clip-path="url(#clip460)" style="stroke:#000000; stroke-width:4; stroke-opacity:1; fill:none" points="
  711.549,1486.45 711.549,1469.18 
  "/>
<polyline clip-path="url(#clip460)" style="stroke:#000000; stroke-width:4; stroke-opacity:1; fill:none" points="
  1205,1486.45 1205,1469.18 
  "/>
<polyline clip-path="url(#clip460)" style="stroke:#000000; stroke-width:4; stroke-opacity:1; fill:none" points="
  1698.44,1486.45 1698.44,1469.18 
  "/>
<polyline clip-path="url(#clip460)" style="stroke:#000000; stroke-width:4; stroke-opacity:1; fill:none" points="
  2191.89,1486.45 2191.89,1469.18 
  "/>
<path clip-path="url(#clip460)" d="M 0 0 M199.409 1528.49 Q202.766 1529.2 204.641 1531.47 Q206.539 1533.74 206.539 1537.07 Q206.539 1542.19 203.02 1544.99 Q199.502 1547.79 193.02 1547.79 Q190.845 1547.79 188.53 1547.35 Q186.238 1546.93 183.784 1546.08 L183.784 1541.56 Q185.729 1542.7 188.044 1543.28 Q190.358 1543.86 192.882 1543.86 Q197.28 1543.86 199.571 1542.12 Q201.886 1540.38 201.886 1537.07 Q201.886 1534.02 199.733 1532.31 Q197.604 1530.57 193.784 1530.57 L189.757 1530.57 L189.757 1526.73 L193.97 1526.73 Q197.419 1526.73 199.247 1525.36 Q201.076 1523.97 201.076 1521.38 Q201.076 1518.72 199.178 1517.31 Q197.303 1515.87 193.784 1515.87 Q191.863 1515.87 189.664 1516.29 Q187.465 1516.7 184.826 1517.58 L184.826 1513.42 Q187.488 1512.68 189.803 1512.31 Q192.141 1511.93 194.201 1511.93 Q199.525 1511.93 202.627 1514.37 Q205.729 1516.77 205.729 1520.89 Q205.729 1523.76 204.085 1525.75 Q202.442 1527.72 199.409 1528.49 Z" fill="#000000" fill-rule="evenodd" fill-opacity="1" /><path clip-path="url(#clip460)" d="M 0 0 M215.405 1541.24 L220.289 1541.24 L220.289 1547.12 L215.405 1547.12 L215.405 1541.24 Z" fill="#000000" fill-rule="evenodd" fill-opacity="1" /><path clip-path="url(#clip460)" d="M 0 0 M240.474 1515.64 Q236.863 1515.64 235.034 1519.2 Q233.229 1522.75 233.229 1529.87 Q233.229 1536.98 235.034 1540.55 Q236.863 1544.09 240.474 1544.09 Q244.108 1544.09 245.914 1540.55 Q247.742 1536.98 247.742 1529.87 Q247.742 1522.75 245.914 1519.2 Q244.108 1515.64 240.474 1515.64 M240.474 1511.93 Q246.284 1511.93 249.34 1516.54 Q252.418 1521.12 252.418 1529.87 Q252.418 1538.6 249.34 1543.21 Q246.284 1547.79 240.474 1547.79 Q234.664 1547.79 231.585 1543.21 Q228.53 1538.6 228.53 1529.87 Q228.53 1521.12 231.585 1516.54 Q234.664 1511.93 240.474 1511.93 Z" fill="#000000" fill-rule="evenodd" fill-opacity="1" /><path clip-path="url(#clip460)" d="M 0 0 M693.355 1528.49 Q696.711 1529.2 698.586 1531.47 Q700.484 1533.74 700.484 1537.07 Q700.484 1542.19 696.966 1544.99 Q693.447 1547.79 686.966 1547.79 Q684.79 1547.79 682.475 1547.35 Q680.183 1546.93 677.73 1546.08 L677.73 1541.56 Q679.674 1542.7 681.989 1543.28 Q684.304 1543.86 686.827 1543.86 Q691.225 1543.86 693.517 1542.12 Q695.831 1540.38 695.831 1537.07 Q695.831 1534.02 693.679 1532.31 Q691.549 1530.57 687.73 1530.57 L683.702 1530.57 L683.702 1526.73 L687.915 1526.73 Q691.364 1526.73 693.193 1525.36 Q695.021 1523.97 695.021 1521.38 Q695.021 1518.72 693.123 1517.31 Q691.248 1515.87 687.73 1515.87 Q685.808 1515.87 683.609 1516.29 Q681.41 1516.7 678.771 1517.58 L678.771 1513.42 Q681.433 1512.68 683.748 1512.31 Q686.086 1511.93 688.146 1511.93 Q693.47 1511.93 696.572 1514.37 Q699.674 1516.77 699.674 1520.89 Q699.674 1523.76 698.031 1525.75 Q696.387 1527.72 693.355 1528.49 Z" fill="#000000" fill-rule="evenodd" fill-opacity="1" /><path clip-path="url(#clip460)" d="M 0 0 M709.35 1541.24 L714.234 1541.24 L714.234 1547.12 L709.35 1547.12 L709.35 1541.24 Z" fill="#000000" fill-rule="evenodd" fill-opacity="1" /><path clip-path="url(#clip460)" d="M 0 0 M724.466 1512.56 L742.822 1512.56 L742.822 1516.5 L728.748 1516.5 L728.748 1524.97 Q729.766 1524.62 730.785 1524.46 Q731.804 1524.27 732.822 1524.27 Q738.609 1524.27 741.989 1527.44 Q745.368 1530.62 745.368 1536.03 Q745.368 1541.61 741.896 1544.71 Q738.424 1547.79 732.104 1547.79 Q729.929 1547.79 727.66 1547.42 Q725.415 1547.05 723.007 1546.31 L723.007 1541.61 Q725.091 1542.74 727.313 1543.3 Q729.535 1543.86 732.012 1543.86 Q736.016 1543.86 738.354 1541.75 Q740.692 1539.64 740.692 1536.03 Q740.692 1532.42 738.354 1530.31 Q736.016 1528.21 732.012 1528.21 Q730.137 1528.21 728.262 1528.62 Q726.41 1529.04 724.466 1529.92 L724.466 1512.56 Z" fill="#000000" fill-rule="evenodd" fill-opacity="1" /><path clip-path="url(#clip460)" d="M 0 0 M1185.63 1516.63 L1173.83 1535.08 L1185.63 1535.08 L1185.63 1516.63 M1184.41 1512.56 L1190.29 1512.56 L1190.29 1535.08 L1195.22 1535.08 L1195.22 1538.97 L1190.29 1538.97 L1190.29 1547.12 L1185.63 1547.12 L1185.63 1538.97 L1170.03 1538.97 L1170.03 1534.46 L1184.41 1512.56 Z" fill="#000000" fill-rule="evenodd" fill-opacity="1" /><path clip-path="url(#clip460)" d="M 0 0 M1202.95 1541.24 L1207.83 1541.24 L1207.83 1547.12 L1202.95 1547.12 L1202.95 1541.24 Z" fill="#000000" fill-rule="evenodd" fill-opacity="1" /><path clip-path="url(#clip460)" d="M 0 0 M1228.02 1515.64 Q1224.41 1515.64 1222.58 1519.2 Q1220.77 1522.75 1220.77 1529.87 Q1220.77 1536.98 1222.58 1540.55 Q1224.41 1544.09 1228.02 1544.09 Q1231.65 1544.09 1233.46 1540.55 Q1235.29 1536.98 1235.29 1529.87 Q1235.29 1522.75 1233.46 1519.2 Q1231.65 1515.64 1228.02 1515.64 M1228.02 1511.93 Q1233.83 1511.93 1236.88 1516.54 Q1239.96 1521.12 1239.96 1529.87 Q1239.96 1538.6 1236.88 1543.21 Q1233.83 1547.79 1228.02 1547.79 Q1222.21 1547.79 1219.13 1543.21 Q1216.07 1538.6 1216.07 1529.87 Q1216.07 1521.12 1219.13 1516.54 Q1222.21 1511.93 1228.02 1511.93 Z" fill="#000000" fill-rule="evenodd" fill-opacity="1" /><path clip-path="url(#clip460)" d="M 0 0 M1679.58 1516.63 L1667.77 1535.08 L1679.58 1535.08 L1679.58 1516.63 M1678.35 1512.56 L1684.23 1512.56 L1684.23 1535.08 L1689.16 1535.08 L1689.16 1538.97 L1684.23 1538.97 L1684.23 1547.12 L1679.58 1547.12 L1679.58 1538.97 L1663.98 1538.97 L1663.98 1534.46 L1678.35 1512.56 Z" fill="#000000" fill-rule="evenodd" fill-opacity="1" /><path clip-path="url(#clip460)" d="M 0 0 M1696.89 1541.24 L1701.78 1541.24 L1701.78 1547.12 L1696.89 1547.12 L1696.89 1541.24 Z" fill="#000000" fill-rule="evenodd" fill-opacity="1" /><path clip-path="url(#clip460)" d="M 0 0 M1712.01 1512.56 L1730.37 1512.56 L1730.37 1516.5 L1716.29 1516.5 L1716.29 1524.97 Q1717.31 1524.62 1718.33 1524.46 Q1719.35 1524.27 1720.37 1524.27 Q1726.15 1524.27 1729.53 1527.44 Q1732.91 1530.62 1732.91 1536.03 Q1732.91 1541.61 1729.44 1544.71 Q1725.97 1547.79 1719.65 1547.79 Q1717.47 1547.79 1715.2 1547.42 Q1712.96 1547.05 1710.55 1546.31 L1710.55 1541.61 Q1712.63 1542.74 1714.86 1543.3 Q1717.08 1543.86 1719.56 1543.86 Q1723.56 1543.86 1725.9 1541.75 Q1728.24 1539.64 1728.24 1536.03 Q1728.24 1532.42 1725.9 1530.31 Q1723.56 1528.21 1719.56 1528.21 Q1717.68 1528.21 1715.81 1528.62 Q1713.95 1529.04 1712.01 1529.92 L1712.01 1512.56 Z" fill="#000000" fill-rule="evenodd" fill-opacity="1" /><path clip-path="url(#clip460)" d="M 0 0 M2159.06 1512.56 L2177.41 1512.56 L2177.41 1516.5 L2163.34 1516.5 L2163.34 1524.97 Q2164.36 1524.62 2165.38 1524.46 Q2166.39 1524.27 2167.41 1524.27 Q2173.2 1524.27 2176.58 1527.44 Q2179.96 1530.62 2179.96 1536.03 Q2179.96 1541.61 2176.49 1544.71 Q2173.01 1547.79 2166.7 1547.79 Q2164.52 1547.79 2162.25 1547.42 Q2160.01 1547.05 2157.6 1546.31 L2157.6 1541.61 Q2159.68 1542.74 2161.9 1543.3 Q2164.13 1543.86 2166.6 1543.86 Q2170.61 1543.86 2172.95 1541.75 Q2175.28 1539.64 2175.28 1536.03 Q2175.28 1532.42 2172.95 1530.31 Q2170.61 1528.21 2166.6 1528.21 Q2164.73 1528.21 2162.85 1528.62 Q2161 1529.04 2159.06 1529.92 L2159.06 1512.56 Z" fill="#000000" fill-rule="evenodd" fill-opacity="1" /><path clip-path="url(#clip460)" d="M 0 0 M2189.17 1541.24 L2194.06 1541.24 L2194.06 1547.12 L2189.17 1547.12 L2189.17 1541.24 Z" fill="#000000" fill-rule="evenodd" fill-opacity="1" /><path clip-path="url(#clip460)" d="M 0 0 M2214.24 1515.64 Q2210.63 1515.64 2208.8 1519.2 Q2207 1522.75 2207 1529.87 Q2207 1536.98 2208.8 1540.55 Q2210.63 1544.09 2214.24 1544.09 Q2217.88 1544.09 2219.68 1540.55 Q2221.51 1536.98 2221.51 1529.87 Q2221.51 1522.75 2219.68 1519.2 Q2217.88 1515.64 2214.24 1515.64 M2214.24 1511.93 Q2220.05 1511.93 2223.11 1516.54 Q2226.19 1521.12 2226.19 1529.87 Q2226.19 1538.6 2223.11 1543.21 Q2220.05 1547.79 2214.24 1547.79 Q2208.43 1547.79 2205.35 1543.21 Q2202.3 1538.6 2202.3 1529.87 Q2202.3 1521.12 2205.35 1516.54 Q2208.43 1511.93 2214.24 1511.93 Z" fill="#000000" fill-rule="evenodd" fill-opacity="1" /><polyline clip-path="url(#clip462)" style="stroke:#000000; stroke-width:2; stroke-opacity:0.1; fill:none" points="
  155.927,1381.06 2352.76,1381.06 
  "/>
<polyline clip-path="url(#clip462)" style="stroke:#000000; stroke-width:2; stroke-opacity:0.1; fill:none" points="
  155.927,1057.79 2352.76,1057.79 
  "/>
<polyline clip-path="url(#clip462)" style="stroke:#000000; stroke-width:2; stroke-opacity:0.1; fill:none" points="
  155.927,734.519 2352.76,734.519 
  "/>
<polyline clip-path="url(#clip462)" style="stroke:#000000; stroke-width:2; stroke-opacity:0.1; fill:none" points="
  155.927,411.248 2352.76,411.248 
  "/>
<polyline clip-path="url(#clip462)" style="stroke:#000000; stroke-width:2; stroke-opacity:0.1; fill:none" points="
  155.927,87.9763 2352.76,87.9763 
  "/>
<polyline clip-path="url(#clip460)" style="stroke:#000000; stroke-width:4; stroke-opacity:1; fill:none" points="
  155.927,1486.45 155.927,47.2441 
  "/>
<polyline clip-path="url(#clip460)" style="stroke:#000000; stroke-width:4; stroke-opacity:1; fill:none" points="
  155.927,1381.06 182.289,1381.06 
  "/>
<polyline clip-path="url(#clip460)" style="stroke:#000000; stroke-width:4; stroke-opacity:1; fill:none" points="
  155.927,1057.79 182.289,1057.79 
  "/>
<polyline clip-path="url(#clip460)" style="stroke:#000000; stroke-width:4; stroke-opacity:1; fill:none" points="
  155.927,734.519 182.289,734.519 
  "/>
<polyline clip-path="url(#clip460)" style="stroke:#000000; stroke-width:4; stroke-opacity:1; fill:none" points="
  155.927,411.248 182.289,411.248 
  "/>
<polyline clip-path="url(#clip460)" style="stroke:#000000; stroke-width:4; stroke-opacity:1; fill:none" points="
  155.927,87.9763 182.289,87.9763 
  "/>
<path clip-path="url(#clip460)" d="M 0 0 M52.7977 1363.78 L71.1541 1363.78 L71.1541 1367.72 L57.0801 1367.72 L57.0801 1376.19 Q58.0986 1375.84 59.1171 1375.68 Q60.1356 1375.49 61.1541 1375.49 Q66.9411 1375.49 70.3207 1378.67 Q73.7003 1381.84 73.7003 1387.25 Q73.7003 1392.83 70.2281 1395.93 Q66.7559 1399.01 60.4365 1399.01 Q58.2606 1399.01 55.9921 1398.64 Q53.7467 1398.27 51.3393 1397.53 L51.3393 1392.83 Q53.4227 1393.97 55.6449 1394.52 Q57.8671 1395.08 60.3439 1395.08 Q64.3485 1395.08 66.6865 1392.97 Q69.0244 1390.86 69.0244 1387.25 Q69.0244 1383.64 66.6865 1381.54 Q64.3485 1379.43 60.3439 1379.43 Q58.4689 1379.43 56.5939 1379.85 Q54.7421 1380.26 52.7977 1381.14 L52.7977 1363.78 Z" fill="#000000" fill-rule="evenodd" fill-opacity="1" /><path clip-path="url(#clip460)" d="M 0 0 M82.9133 1392.46 L87.7975 1392.46 L87.7975 1398.34 L82.9133 1398.34 L82.9133 1392.46 Z" fill="#000000" fill-rule="evenodd" fill-opacity="1" /><path clip-path="url(#clip460)" d="M 0 0 M107.983 1366.86 Q104.371 1366.86 102.543 1370.42 Q100.737 1373.97 100.737 1381.1 Q100.737 1388.2 102.543 1391.77 Q104.371 1395.31 107.983 1395.31 Q111.617 1395.31 113.422 1391.77 Q115.251 1388.2 115.251 1381.1 Q115.251 1373.97 113.422 1370.42 Q111.617 1366.86 107.983 1366.86 M107.983 1363.16 Q113.793 1363.16 116.848 1367.76 Q119.927 1372.35 119.927 1381.1 Q119.927 1389.82 116.848 1394.43 Q113.793 1399.01 107.983 1399.01 Q102.172 1399.01 99.0937 1394.43 Q96.0382 1389.82 96.0382 1381.1 Q96.0382 1372.35 99.0937 1367.76 Q102.172 1363.16 107.983 1363.16 Z" fill="#000000" fill-rule="evenodd" fill-opacity="1" /><path clip-path="url(#clip460)" d="M 0 0 M53.793 1040.51 L72.1494 1040.51 L72.1494 1044.45 L58.0754 1044.45 L58.0754 1052.92 Q59.0939 1052.57 60.1124 1052.41 Q61.131 1052.22 62.1495 1052.22 Q67.9365 1052.22 71.3161 1055.39 Q74.6957 1058.57 74.6957 1063.98 Q74.6957 1069.56 71.2235 1072.66 Q67.7513 1075.74 61.4319 1075.74 Q59.256 1075.74 56.9875 1075.37 Q54.7421 1075 52.3347 1074.26 L52.3347 1069.56 Q54.418 1070.7 56.6402 1071.25 Q58.8625 1071.81 61.3393 1071.81 Q65.3439 1071.81 67.6819 1069.7 Q70.0198 1067.59 70.0198 1063.98 Q70.0198 1060.37 67.6819 1058.26 Q65.3439 1056.16 61.3393 1056.16 Q59.4643 1056.16 57.5893 1056.57 Q55.7375 1056.99 53.793 1057.87 L53.793 1040.51 Z" fill="#000000" fill-rule="evenodd" fill-opacity="1" /><path clip-path="url(#clip460)" d="M 0 0 M83.9086 1069.19 L88.7928 1069.19 L88.7928 1075.07 L83.9086 1075.07 L83.9086 1069.19 Z" fill="#000000" fill-rule="evenodd" fill-opacity="1" /><path clip-path="url(#clip460)" d="M 0 0 M99.0243 1040.51 L117.381 1040.51 L117.381 1044.45 L103.307 1044.45 L103.307 1052.92 Q104.325 1052.57 105.344 1052.41 Q106.362 1052.22 107.381 1052.22 Q113.168 1052.22 116.547 1055.39 Q119.927 1058.57 119.927 1063.98 Q119.927 1069.56 116.455 1072.66 Q112.983 1075.74 106.663 1075.74 Q104.487 1075.74 102.219 1075.37 Q99.9733 1075 97.566 1074.26 L97.566 1069.56 Q99.6493 1070.7 101.871 1071.25 Q104.094 1071.81 106.571 1071.81 Q110.575 1071.81 112.913 1069.7 Q115.251 1067.59 115.251 1063.98 Q115.251 1060.37 112.913 1058.26 Q110.575 1056.16 106.571 1056.16 Q104.696 1056.16 102.821 1056.57 Q100.969 1056.99 99.0243 1057.87 L99.0243 1040.51 Z" fill="#000000" fill-rule="evenodd" fill-opacity="1" /><path clip-path="url(#clip460)" d="M 0 0 M63.33 732.655 Q60.1819 732.655 58.33 734.808 Q56.5014 736.961 56.5014 740.711 Q56.5014 744.438 58.33 746.614 Q60.1819 748.766 63.33 748.766 Q66.4782 748.766 68.3068 746.614 Q70.1587 744.438 70.1587 740.711 Q70.1587 736.961 68.3068 734.808 Q66.4782 732.655 63.33 732.655 M72.6124 718.003 L72.6124 722.262 Q70.8531 721.429 69.0476 720.989 Q67.2652 720.549 65.5059 720.549 Q60.8763 720.549 58.4226 723.674 Q55.9921 726.799 55.6449 733.118 Q57.0106 731.105 59.0708 730.04 Q61.131 728.952 63.6078 728.952 Q68.8161 728.952 71.8253 732.123 Q74.8577 735.271 74.8577 740.711 Q74.8577 746.035 71.7096 749.253 Q68.5615 752.47 63.33 752.47 Q57.3347 752.47 54.1634 747.887 Q50.9921 743.28 50.9921 734.554 Q50.9921 726.359 54.881 721.498 Q58.7699 716.614 65.3208 716.614 Q67.08 716.614 68.8624 716.961 Q70.6679 717.308 72.6124 718.003 Z" fill="#000000" fill-rule="evenodd" fill-opacity="1" /><path clip-path="url(#clip460)" d="M 0 0 M82.9133 745.919 L87.7975 745.919 L87.7975 751.799 L82.9133 751.799 L82.9133 745.919 Z" fill="#000000" fill-rule="evenodd" fill-opacity="1" /><path clip-path="url(#clip460)" d="M 0 0 M107.983 720.318 Q104.371 720.318 102.543 723.882 Q100.737 727.424 100.737 734.554 Q100.737 741.66 102.543 745.225 Q104.371 748.766 107.983 748.766 Q111.617 748.766 113.422 745.225 Q115.251 741.66 115.251 734.554 Q115.251 727.424 113.422 723.882 Q111.617 720.318 107.983 720.318 M107.983 716.614 Q113.793 716.614 116.848 721.22 Q119.927 725.804 119.927 734.554 Q119.927 743.28 116.848 747.887 Q113.793 752.47 107.983 752.47 Q102.172 752.47 99.0937 747.887 Q96.0382 743.28 96.0382 734.554 Q96.0382 725.804 99.0937 721.22 Q102.172 716.614 107.983 716.614 Z" fill="#000000" fill-rule="evenodd" fill-opacity="1" /><path clip-path="url(#clip460)" d="M 0 0 M64.3254 409.384 Q61.1773 409.384 59.3254 411.537 Q57.4967 413.69 57.4967 417.44 Q57.4967 421.166 59.3254 423.342 Q61.1773 425.495 64.3254 425.495 Q67.4735 425.495 69.3022 423.342 Q71.1541 421.166 71.1541 417.44 Q71.1541 413.69 69.3022 411.537 Q67.4735 409.384 64.3254 409.384 M73.6077 394.731 L73.6077 398.991 Q71.8485 398.157 70.0429 397.718 Q68.2606 397.278 66.5013 397.278 Q61.8717 397.278 59.418 400.403 Q56.9875 403.528 56.6402 409.847 Q58.006 407.833 60.0662 406.768 Q62.1263 405.68 64.6032 405.68 Q69.8115 405.68 72.8207 408.852 Q75.8531 412 75.8531 417.44 Q75.8531 422.764 72.705 425.981 Q69.5568 429.199 64.3254 429.199 Q58.33 429.199 55.1588 424.616 Q51.9875 420.009 51.9875 411.282 Q51.9875 403.088 55.8764 398.227 Q59.7652 393.343 66.3161 393.343 Q68.0754 393.343 69.8578 393.69 Q71.6633 394.037 73.6077 394.731 Z" fill="#000000" fill-rule="evenodd" fill-opacity="1" /><path clip-path="url(#clip460)" d="M 0 0 M83.9086 422.648 L88.7928 422.648 L88.7928 428.528 L83.9086 428.528 L83.9086 422.648 Z" fill="#000000" fill-rule="evenodd" fill-opacity="1" /><path clip-path="url(#clip460)" d="M 0 0 M99.0243 393.968 L117.381 393.968 L117.381 397.903 L103.307 397.903 L103.307 406.375 Q104.325 406.028 105.344 405.866 Q106.362 405.68 107.381 405.68 Q113.168 405.68 116.547 408.852 Q119.927 412.023 119.927 417.44 Q119.927 423.018 116.455 426.12 Q112.983 429.199 106.663 429.199 Q104.487 429.199 102.219 428.828 Q99.9733 428.458 97.566 427.717 L97.566 423.018 Q99.6493 424.153 101.871 424.708 Q104.094 425.264 106.571 425.264 Q110.575 425.264 112.913 423.157 Q115.251 421.051 115.251 417.44 Q115.251 413.829 112.913 411.722 Q110.575 409.616 106.571 409.616 Q104.696 409.616 102.821 410.032 Q100.969 410.449 99.0243 411.329 L99.0243 393.968 Z" fill="#000000" fill-rule="evenodd" fill-opacity="1" /><path clip-path="url(#clip460)" d="M 0 0 M51.5708 70.6963 L73.7929 70.6963 L73.7929 72.687 L61.2467 105.256 L56.3625 105.256 L68.168 74.6314 L51.5708 74.6314 L51.5708 70.6963 Z" fill="#000000" fill-rule="evenodd" fill-opacity="1" /><path clip-path="url(#clip460)" d="M 0 0 M82.9133 99.3767 L87.7975 99.3767 L87.7975 105.256 L82.9133 105.256 L82.9133 99.3767 Z" fill="#000000" fill-rule="evenodd" fill-opacity="1" /><path clip-path="url(#clip460)" d="M 0 0 M107.983 73.775 Q104.371 73.775 102.543 77.3398 Q100.737 80.8814 100.737 88.011 Q100.737 95.1174 102.543 98.6822 Q104.371 102.224 107.983 102.224 Q111.617 102.224 113.422 98.6822 Q115.251 95.1174 115.251 88.011 Q115.251 80.8814 113.422 77.3398 Q111.617 73.775 107.983 73.775 M107.983 70.0713 Q113.793 70.0713 116.848 74.6777 Q119.927 79.261 119.927 88.011 Q119.927 96.7378 116.848 101.344 Q113.793 105.928 107.983 105.928 Q102.172 105.928 99.0937 101.344 Q96.0382 96.7378 96.0382 88.011 Q96.0382 79.261 99.0937 74.6777 Q102.172 70.0713 107.983 70.0713 Z" fill="#000000" fill-rule="evenodd" fill-opacity="1" /><circle clip-path="url(#clip462)" cx="1895.82" cy="87.9763" r="14" fill="#ff0000" fill-rule="evenodd" fill-opacity="1" stroke="#000000" stroke-opacity="1" stroke-width="3.2"/>
<circle clip-path="url(#clip462)" cx="1698.44" cy="475.902" r="14" fill="#ff0000" fill-rule="evenodd" fill-opacity="1" stroke="#000000" stroke-opacity="1" stroke-width="3.2"/>
<circle clip-path="url(#clip462)" cx="2093.2" cy="152.631" r="14" fill="#ff0000" fill-rule="evenodd" fill-opacity="1" stroke="#000000" stroke-opacity="1" stroke-width="3.2"/>
<circle clip-path="url(#clip462)" cx="1205" cy="1057.79" r="14" fill="#ff0000" fill-rule="evenodd" fill-opacity="1" stroke="#000000" stroke-opacity="1" stroke-width="3.2"/>
<circle clip-path="url(#clip462)" cx="1797.13" cy="411.248" r="14" fill="#ff0000" fill-rule="evenodd" fill-opacity="1" stroke="#000000" stroke-opacity="1" stroke-width="3.2"/>
<circle clip-path="url(#clip462)" cx="1698.44" cy="928.482" r="14" fill="#ff0000" fill-rule="evenodd" fill-opacity="1" stroke="#000000" stroke-opacity="1" stroke-width="3.2"/>
<circle clip-path="url(#clip462)" cx="1895.82" cy="540.556" r="14" fill="#ff0000" fill-rule="evenodd" fill-opacity="1" stroke="#000000" stroke-opacity="1" stroke-width="3.2"/>
<circle clip-path="url(#clip462)" cx="514.17" cy="1445.72" r="14" fill="#ff0000" fill-rule="evenodd" fill-opacity="1" stroke="#000000" stroke-opacity="1" stroke-width="3.2"/>
<circle clip-path="url(#clip462)" cx="1797.13" cy="346.593" r="14" fill="#ff0000" fill-rule="evenodd" fill-opacity="1" stroke="#000000" stroke-opacity="1" stroke-width="3.2"/>
<circle clip-path="url(#clip462)" cx="1106.31" cy="1251.75" r="14" fill="#ff0000" fill-rule="evenodd" fill-opacity="1" stroke="#000000" stroke-opacity="1" stroke-width="3.2"/>
<circle clip-path="url(#clip462)" cx="711.549" cy="1381.06" r="14" fill="#ff0000" fill-rule="evenodd" fill-opacity="1" stroke="#000000" stroke-opacity="1" stroke-width="3.2"/>
<circle clip-path="url(#clip462)" cx="1402.38" cy="799.173" r="14" fill="#ff0000" fill-rule="evenodd" fill-opacity="1" stroke="#000000" stroke-opacity="1" stroke-width="3.2"/>
<circle clip-path="url(#clip462)" cx="1205" cy="734.519" r="14" fill="#ff0000" fill-rule="evenodd" fill-opacity="1" stroke="#000000" stroke-opacity="1" stroke-width="3.2"/>
<circle clip-path="url(#clip462)" cx="1895.82" cy="669.865" r="14" fill="#ff0000" fill-rule="evenodd" fill-opacity="1" stroke="#000000" stroke-opacity="1" stroke-width="3.2"/>
<circle clip-path="url(#clip462)" cx="810.239" cy="993.136" r="14" fill="#ff0000" fill-rule="evenodd" fill-opacity="1" stroke="#000000" stroke-opacity="1" stroke-width="3.2"/>
<circle clip-path="url(#clip462)" cx="1599.75" cy="281.939" r="14" fill="#ff0000" fill-rule="evenodd" fill-opacity="1" stroke="#000000" stroke-opacity="1" stroke-width="3.2"/>
<circle clip-path="url(#clip462)" cx="1698.44" cy="993.136" r="14" fill="#ff0000" fill-rule="evenodd" fill-opacity="1" stroke="#000000" stroke-opacity="1" stroke-width="3.2"/>
<circle clip-path="url(#clip462)" cx="1303.69" cy="863.827" r="14" fill="#ff0000" fill-rule="evenodd" fill-opacity="1" stroke="#000000" stroke-opacity="1" stroke-width="3.2"/>
<circle clip-path="url(#clip462)" cx="1698.44" cy="605.21" r="14" fill="#ff0000" fill-rule="evenodd" fill-opacity="1" stroke="#000000" stroke-opacity="1" stroke-width="3.2"/>
<circle clip-path="url(#clip462)" cx="1106.31" cy="993.136" r="14" fill="#ff0000" fill-rule="evenodd" fill-opacity="1" stroke="#000000" stroke-opacity="1" stroke-width="3.2"/>
<circle clip-path="url(#clip462)" cx="1994.51" cy="799.173" r="14" fill="#ff0000" fill-rule="evenodd" fill-opacity="1" stroke="#000000" stroke-opacity="1" stroke-width="3.2"/>
<circle clip-path="url(#clip462)" cx="1205" cy="669.865" r="14" fill="#ff0000" fill-rule="evenodd" fill-opacity="1" stroke="#000000" stroke-opacity="1" stroke-width="3.2"/>
<circle clip-path="url(#clip462)" cx="2093.2" cy="540.556" r="14" fill="#ff0000" fill-rule="evenodd" fill-opacity="1" stroke="#000000" stroke-opacity="1" stroke-width="3.2"/>
<circle clip-path="url(#clip462)" cx="1895.82" cy="669.865" r="14" fill="#ff0000" fill-rule="evenodd" fill-opacity="1" stroke="#000000" stroke-opacity="1" stroke-width="3.2"/>
<circle clip-path="url(#clip462)" cx="1501.07" cy="475.902" r="14" fill="#ff0000" fill-rule="evenodd" fill-opacity="1" stroke="#000000" stroke-opacity="1" stroke-width="3.2"/>
<circle clip-path="url(#clip462)" cx="1599.75" cy="346.593" r="14" fill="#ff0000" fill-rule="evenodd" fill-opacity="1" stroke="#000000" stroke-opacity="1" stroke-width="3.2"/>
<circle clip-path="url(#clip462)" cx="1994.51" cy="217.285" r="14" fill="#ff0000" fill-rule="evenodd" fill-opacity="1" stroke="#000000" stroke-opacity="1" stroke-width="3.2"/>
<circle clip-path="url(#clip462)" cx="2191.89" cy="281.939" r="14" fill="#ff0000" fill-rule="evenodd" fill-opacity="1" stroke="#000000" stroke-opacity="1" stroke-width="3.2"/>
<circle clip-path="url(#clip462)" cx="1698.44" cy="734.519" r="14" fill="#ff0000" fill-rule="evenodd" fill-opacity="1" stroke="#000000" stroke-opacity="1" stroke-width="3.2"/>
<circle clip-path="url(#clip462)" cx="711.549" cy="928.482" r="14" fill="#ff0000" fill-rule="evenodd" fill-opacity="1" stroke="#000000" stroke-opacity="1" stroke-width="3.2"/>
<circle clip-path="url(#clip462)" cx="1007.62" cy="1057.79" r="14" fill="#ff0000" fill-rule="evenodd" fill-opacity="1" stroke="#000000" stroke-opacity="1" stroke-width="3.2"/>
<circle clip-path="url(#clip462)" cx="908.928" cy="1057.79" r="14" fill="#ff0000" fill-rule="evenodd" fill-opacity="1" stroke="#000000" stroke-opacity="1" stroke-width="3.2"/>
<circle clip-path="url(#clip462)" cx="1106.31" cy="863.827" r="14" fill="#ff0000" fill-rule="evenodd" fill-opacity="1" stroke="#000000" stroke-opacity="1" stroke-width="3.2"/>
<circle clip-path="url(#clip462)" cx="2290.58" cy="734.519" r="14" fill="#ff0000" fill-rule="evenodd" fill-opacity="1" stroke="#000000" stroke-opacity="1" stroke-width="3.2"/>
<circle clip-path="url(#clip462)" cx="1698.44" cy="1122.44" r="14" fill="#ff0000" fill-rule="evenodd" fill-opacity="1" stroke="#000000" stroke-opacity="1" stroke-width="3.2"/>
<circle clip-path="url(#clip462)" cx="1698.44" cy="734.519" r="14" fill="#ff0000" fill-rule="evenodd" fill-opacity="1" stroke="#000000" stroke-opacity="1" stroke-width="3.2"/>
<circle clip-path="url(#clip462)" cx="1895.82" cy="281.939" r="14" fill="#ff0000" fill-rule="evenodd" fill-opacity="1" stroke="#000000" stroke-opacity="1" stroke-width="3.2"/>
<circle clip-path="url(#clip462)" cx="1599.75" cy="540.556" r="14" fill="#ff0000" fill-rule="evenodd" fill-opacity="1" stroke="#000000" stroke-opacity="1" stroke-width="3.2"/>
<circle clip-path="url(#clip462)" cx="1303.69" cy="993.136" r="14" fill="#ff0000" fill-rule="evenodd" fill-opacity="1" stroke="#000000" stroke-opacity="1" stroke-width="3.2"/>
<circle clip-path="url(#clip462)" cx="1205" cy="1057.79" r="14" fill="#ff0000" fill-rule="evenodd" fill-opacity="1" stroke="#000000" stroke-opacity="1" stroke-width="3.2"/>
<circle clip-path="url(#clip462)" cx="1599.75" cy="1057.79" r="14" fill="#ff0000" fill-rule="evenodd" fill-opacity="1" stroke="#000000" stroke-opacity="1" stroke-width="3.2"/>
<circle clip-path="url(#clip462)" cx="1797.13" cy="669.865" r="14" fill="#ff0000" fill-rule="evenodd" fill-opacity="1" stroke="#000000" stroke-opacity="1" stroke-width="3.2"/>
<circle clip-path="url(#clip462)" cx="1205" cy="863.827" r="14" fill="#ff0000" fill-rule="evenodd" fill-opacity="1" stroke="#000000" stroke-opacity="1" stroke-width="3.2"/>
<circle clip-path="url(#clip462)" cx="514.17" cy="1381.06" r="14" fill="#ff0000" fill-rule="evenodd" fill-opacity="1" stroke="#000000" stroke-opacity="1" stroke-width="3.2"/>
<circle clip-path="url(#clip462)" cx="1402.38" cy="993.136" r="14" fill="#ff0000" fill-rule="evenodd" fill-opacity="1" stroke="#000000" stroke-opacity="1" stroke-width="3.2"/>
<circle clip-path="url(#clip462)" cx="1402.38" cy="928.482" r="14" fill="#ff0000" fill-rule="evenodd" fill-opacity="1" stroke="#000000" stroke-opacity="1" stroke-width="3.2"/>
<circle clip-path="url(#clip462)" cx="1402.38" cy="928.482" r="14" fill="#ff0000" fill-rule="evenodd" fill-opacity="1" stroke="#000000" stroke-opacity="1" stroke-width="3.2"/>
<circle clip-path="url(#clip462)" cx="1501.07" cy="605.21" r="14" fill="#ff0000" fill-rule="evenodd" fill-opacity="1" stroke="#000000" stroke-opacity="1" stroke-width="3.2"/>
<circle clip-path="url(#clip462)" cx="218.101" cy="1316.41" r="14" fill="#ff0000" fill-rule="evenodd" fill-opacity="1" stroke="#000000" stroke-opacity="1" stroke-width="3.2"/>
<circle clip-path="url(#clip462)" cx="1303.69" cy="928.482" r="14" fill="#ff0000" fill-rule="evenodd" fill-opacity="1" stroke="#000000" stroke-opacity="1" stroke-width="3.2"/>
<path clip-path="url(#clip460)" d="
M1805.53 216.178 L2279.53 216.178 L2279.53 95.2176 L1805.53 95.2176  Z
  " fill="#ffffff" fill-rule="evenodd" fill-opacity="1"/>
<polyline clip-path="url(#clip460)" style="stroke:#000000; stroke-width:4; stroke-opacity:1; fill:none" points="
  1805.53,216.178 2279.53,216.178 2279.53,95.2176 1805.53,95.2176 1805.53,216.178 
  "/>
<circle clip-path="url(#clip460)" cx="1903.17" cy="155.698" r="23" fill="#ff0000" fill-rule="evenodd" fill-opacity="1" stroke="#000000" stroke-opacity="1" stroke-width="5.12"/>
<path clip-path="url(#clip460)" d="M 0 0 M2000.8 147.052 L2005.32 147.052 L2013.42 168.811 L2021.52 147.052 L2026.04 147.052 L2016.31 172.978 L2010.53 172.978 L2000.8 147.052 Z" fill="#000000" fill-rule="evenodd" fill-opacity="1" /><path clip-path="url(#clip460)" d="M 0 0 M2054.09 158.95 L2054.09 161.033 L2034.51 161.033 Q2034.78 165.431 2037.15 167.746 Q2039.53 170.038 2043.77 170.038 Q2046.22 170.038 2048.51 169.436 Q2050.83 168.834 2053.1 167.63 L2053.1 171.658 Q2050.8 172.63 2048.4 173.14 Q2045.99 173.649 2043.51 173.649 Q2037.31 173.649 2033.67 170.038 Q2030.06 166.427 2030.06 160.269 Q2030.06 153.904 2033.49 150.177 Q2036.94 146.427 2042.77 146.427 Q2048 146.427 2051.03 149.806 Q2054.09 153.163 2054.09 158.95 M2049.83 157.7 Q2049.78 154.205 2047.86 152.121 Q2045.97 150.038 2042.82 150.038 Q2039.25 150.038 2037.1 152.052 Q2034.97 154.066 2034.65 157.723 L2049.83 157.7 Z" fill="#000000" fill-rule="evenodd" fill-opacity="1" /><path clip-path="url(#clip460)" d="M 0 0 M2076.1 151.033 Q2075.39 150.617 2074.53 150.431 Q2073.7 150.223 2072.68 150.223 Q2069.07 150.223 2067.12 152.584 Q2065.2 154.922 2065.2 159.32 L2065.2 172.978 L2060.92 172.978 L2060.92 147.052 L2065.2 147.052 L2065.2 151.08 Q2066.54 148.718 2068.7 147.584 Q2070.85 146.427 2073.93 146.427 Q2074.37 146.427 2074.9 146.496 Q2075.43 146.543 2076.08 146.658 L2076.1 151.033 Z" fill="#000000" fill-rule="evenodd" fill-opacity="1" /><path clip-path="url(#clip460)" d="M 0 0 M2097.1 147.816 L2097.1 151.843 Q2095.29 150.917 2093.35 150.455 Q2091.41 149.992 2089.32 149.992 Q2086.15 149.992 2084.55 150.964 Q2082.98 151.936 2082.98 153.88 Q2082.98 155.362 2084.11 156.218 Q2085.25 157.052 2088.67 157.816 L2090.13 158.14 Q2094.67 159.112 2096.57 160.894 Q2098.49 162.654 2098.49 165.825 Q2098.49 169.436 2095.62 171.542 Q2092.77 173.649 2087.77 173.649 Q2085.69 173.649 2083.42 173.232 Q2081.17 172.839 2078.67 172.028 L2078.67 167.63 Q2081.03 168.857 2083.33 169.482 Q2085.62 170.084 2087.86 170.084 Q2090.87 170.084 2092.49 169.066 Q2094.11 168.024 2094.11 166.149 Q2094.11 164.413 2092.93 163.487 Q2091.78 162.561 2087.82 161.704 L2086.34 161.357 Q2082.38 160.524 2080.62 158.811 Q2078.86 157.075 2078.86 154.066 Q2078.86 150.408 2081.45 148.418 Q2084.04 146.427 2088.81 146.427 Q2091.17 146.427 2093.26 146.774 Q2095.34 147.121 2097.1 147.816 Z" fill="#000000" fill-rule="evenodd" fill-opacity="1" /><path clip-path="url(#clip460)" d="M 0 0 M2105.27 147.052 L2109.53 147.052 L2109.53 172.978 L2105.27 172.978 L2105.27 147.052 M2105.27 136.959 L2109.53 136.959 L2109.53 142.353 L2105.27 142.353 L2105.27 136.959 Z" fill="#000000" fill-rule="evenodd" fill-opacity="1" /><path clip-path="url(#clip460)" d="M 0 0 M2137.1 148.047 L2137.1 152.029 Q2135.29 151.033 2133.47 150.547 Q2131.66 150.038 2129.81 150.038 Q2125.66 150.038 2123.37 152.677 Q2121.08 155.292 2121.08 160.038 Q2121.08 164.783 2123.37 167.422 Q2125.66 170.038 2129.81 170.038 Q2131.66 170.038 2133.47 169.552 Q2135.29 169.042 2137.1 168.047 L2137.1 171.982 Q2135.32 172.816 2133.4 173.232 Q2131.5 173.649 2129.34 173.649 Q2123.49 173.649 2120.04 169.968 Q2116.59 166.288 2116.59 160.038 Q2116.59 153.695 2120.06 150.061 Q2123.56 146.427 2129.62 146.427 Q2131.59 146.427 2133.47 146.843 Q2135.34 147.237 2137.1 148.047 Z" fill="#000000" fill-rule="evenodd" fill-opacity="1" /><path clip-path="url(#clip460)" d="M 0 0 M2154.55 150.038 Q2151.13 150.038 2149.14 152.723 Q2147.15 155.385 2147.15 160.038 Q2147.15 164.691 2149.11 167.376 Q2151.1 170.038 2154.55 170.038 Q2157.96 170.038 2159.95 167.353 Q2161.94 164.667 2161.94 160.038 Q2161.94 155.431 2159.95 152.746 Q2157.96 150.038 2154.55 150.038 M2154.55 146.427 Q2160.11 146.427 2163.28 150.038 Q2166.45 153.649 2166.45 160.038 Q2166.45 166.404 2163.28 170.038 Q2160.11 173.649 2154.55 173.649 Q2148.97 173.649 2145.8 170.038 Q2142.65 166.404 2142.65 160.038 Q2142.65 153.649 2145.8 150.038 Q2148.97 146.427 2154.55 146.427 Z" fill="#000000" fill-rule="evenodd" fill-opacity="1" /><path clip-path="url(#clip460)" d="M 0 0 M2173.51 136.959 L2177.77 136.959 L2177.77 172.978 L2173.51 172.978 L2173.51 136.959 Z" fill="#000000" fill-rule="evenodd" fill-opacity="1" /><path clip-path="url(#clip460)" d="M 0 0 M2196.73 150.038 Q2193.3 150.038 2191.31 152.723 Q2189.32 155.385 2189.32 160.038 Q2189.32 164.691 2191.29 167.376 Q2193.28 170.038 2196.73 170.038 Q2200.13 170.038 2202.12 167.353 Q2204.11 164.667 2204.11 160.038 Q2204.11 155.431 2202.12 152.746 Q2200.13 150.038 2196.73 150.038 M2196.73 146.427 Q2202.28 146.427 2205.46 150.038 Q2208.63 153.649 2208.63 160.038 Q2208.63 166.404 2205.46 170.038 Q2202.28 173.649 2196.73 173.649 Q2191.15 173.649 2187.98 170.038 Q2184.83 166.404 2184.83 160.038 Q2184.83 153.649 2187.98 150.038 Q2191.15 146.427 2196.73 146.427 Z" fill="#000000" fill-rule="evenodd" fill-opacity="1" /><path clip-path="url(#clip460)" d="M 0 0 M2230.71 151.033 Q2229.99 150.617 2229.14 150.431 Q2228.3 150.223 2227.28 150.223 Q2223.67 150.223 2221.73 152.584 Q2219.81 154.922 2219.81 159.32 L2219.81 172.978 L2215.52 172.978 L2215.52 147.052 L2219.81 147.052 L2219.81 151.08 Q2221.15 148.718 2223.3 147.584 Q2225.46 146.427 2228.53 146.427 Q2228.97 146.427 2229.51 146.496 Q2230.04 146.543 2230.69 146.658 L2230.71 151.033 Z" fill="#000000" fill-rule="evenodd" fill-opacity="1" /></svg>
